subject_id	tumor_exome_seq_fastq	blood_exome_seq_fastq	tumor_rna_seq_fastq	adjacent_normal_rna_seq_fastq	disease.type	sex	ethnic.background	age	stage	TNM.tumor.stage.prefix	TNM.tumor.stage.T	TNM.tumor.stage.N	TNM.tumor.stage.M	smoking.status	years.of.tobacco.use	number.of.cigarette.packs.smoked.per.day.per.year	COPD	sample.acquisition	batch	gene	Variant_Classification	type	Protein_Change	Chromosome	Start_position	Reference_Allele	Tumor_Seq_Allele1	EGFRmt	OtherEGFR_gene	OtherEGFR_Variant_Classification	OtherEGFR_type	OtherEGFR_Protein_Change	OtherEGFR_Chromosome	OtherEGFR_Start_position	OtherEGFR_Reference_Allele	OtherEGFR_Tumor_Seq_Allele1	TP53	purity	EGFR_stat	bronchioid	magnoid	squamoid	subtype_wilkerson	nmf_group	nmf_group_k3
301	WGC035478D	WGC014585D	301TRNA-2	301NRNA	adenocarcinoma	male	Han	62.07123288	III	"NA"	3	2	0	yes	43	20	NA	surgery	22	EGFR	Missense_Mutation	SNV	L858R	7	55259515	T	G	L858R	NA	NA	NA	NA	NA	NA	NA	NA	MT	0.5570041	Mutant	0.642052524392353	-0.2946275591397265	-0.5098117472993366	TRU	TRU	3
302	WGC018649N	WGC016253N	FCC4L4NACXX-HUMknuTBAKRAAPEI-211_L7	FCC4L4NACXX-HUMknuTBALRAAPEI-212_L7	adenocarcinoma	male	Han	68.04931507	I	"NA"	2a	0	0	yes	42	20	NA	surgery	4	NA	NA	NA	NA	NA	NA	NA	NA	WildType	NA	NA	NA	NA	NA	NA	NA	NA	WT	0.6199734	WildType	-0.3649980655064043	0.21815322450321592	0.2664102562376292	PI	PI	2
309	WGC018651N	WGC016263N	FCC4BLBACXX-HUMknuTBAORABPEI-215_L8	FCC4L4NACXX-HUMknuTBAPRAAPEI-216_L7	adenocarcinoma	male	Han	57.67123288	I	"NA"	2a	0	0	yes	32	20	NA	surgery	4	NA	NA	NA	NA	NA	NA	NA	NA	WildType	NA	NA	NA	NA	NA	NA	NA	NA	WT	0.67534935	WildType	-0.10146292042055348	0.4609780392412941	-0.41263338176548825	PP	PP	2
327	WGC025150D	WGC025149D	327TRNA	327NRNA	adenocarcinoma	male	Han	50.32876712	II	"NA"	3	0	0	yes	22	30	NA	surgery	11	NA	NA	NA	NA	NA	NA	NA	NA	WildType	NA	NA	NA	NA	NA	NA	NA	NA	MT	0.6277494	WildType	-0.5905517586706779	0.7171857165916619	-0.029795668039030176	PP	PP	2
332	WGC018658N	WGC016290N	FCC4KT6ACXX-HUMknuTBAYRAAPEI-201_L3	FCC4BLBACXX-HUMknuTBAZRAAPEI-202_L8	adenocarcinoma	NA	Han	64.66849315	II	"NA"	3	0	0	yes	32	NA	NA	surgery	4	NA	NA	NA	NA	NA	NA	NA	NA	WildType	NA	NA	NA	NA	NA	NA	NA	NA	WT	0.6055391	WildType	-0.5626918158627634	0.7547744239240316	-0.10276903882793316	PP	PP	2
334	WGC018659N	WGC016296N	FCC4KT6ACXX-HUMknuTBBARAAPEI-203_L3	FCC4KWPACXX-HUMknuTBBBRAAPEI-204_L1	adenocarcinoma	male	Han	79.7890411	I	"NA"	2a	0	0	yes	52	20	NA	surgery	4	NA	NA	NA	NA	NA	NA	NA	NA	WildType	NA	NA	NA	NA	NA	NA	NA	NA	WT	0.31106985	WildType	-0.28070856347794215	-0.18466602327717613	0.6728401648787053	PI	PI	1
344	WGC025154D	WGC025153D	344TRNA	344NRNA	adenocarcinoma	male	Han	64.18356164	II	"NA"	3	0	0	yes	12	60	NA	surgery	11	NA	NA	NA	NA	NA	NA	NA	NA	WildType	NA	NA	NA	NA	NA	NA	NA	NA	WT	0.67058825	WildType	-0.2500993817141658	0.6238605870248571	-0.3616257310662284	PP	PP	2
352	WGC035484D	WGC035482D	352TRNA	352NRNA-4	adenocarcinoma	male	Han	59.3890411	I	"NA"	1b	0	0	yes	32	20	NA	surgery	14	NA	NA	NA	NA	NA	NA	NA	NA	WildType	NA	NA	NA	NA	NA	NA	NA	NA	WT	0.32279065	WildType	-0.17953746085131386	0.2908600002942102	-0.011619617664263185	PP	Unknown	1
354	WGC031047D	WGC025167D	354TRNA	354NRNA	adenocarcinoma	male	Han	65.51780822	I	"NA"	2a	0	0	yes	52	20	NA	surgery	13	EGFR	disruptive_In_Frame_Ins	INDEL	N771SVDN	7	55249002	C	CCAGCGTGGA	Exon20_Ins	NA	NA	NA	NA	NA	NA	NA	NA	WT	0.43395716	Mutant	0.4291057803179738	-0.18609272855180856	-0.34709581578652454	TRU	TRU	3
356	WGC025173D	WGC025172D	356TRNA	356NRNA	adenocarcinoma	male	Han	58.1260274	I	"NA"	1b	0	0	yes	22	20	NA	surgery	11	NA	NA	NA	NA	NA	NA	NA	NA	WildType	NA	NA	NA	NA	NA	NA	NA	NA	MT	0.4446486	WildType	-0.2597296315078737	0.07585905998780094	0.29630052611379554	PI	Unknown	1
358	WGC025177D	WGC025174D+WGC025175D+WGC025176D	358TRNA	358NRNA	adenocarcinoma	male	Han	71.88767123	I	"NA"	2a	0	0	yes	42	20	yes	surgery	11	NA	NA	NA	NA	NA	NA	NA	NA	WildType	NA	NA	NA	NA	NA	NA	NA	NA	MT	0.376236	WildType	-0.45148014646170054	0.4323289522357436	0.16841366240221958	PP	PP	1
359	WGC025181D	WGC025178D+WGC025179D+WGC025180D	359TRNA	359NRNA	adenocarcinoma	male	Han	63.79178082	I	"NA"	2a	0	0	yes	37	20	NA	surgery	11	EGFR	disruptive_In_Frame_Del	INDEL	LREATSP747S	7	55242469	TTAAGAGAAGCAACATCTC	T	Exon19_Del	NA	NA	NA	NA	NA	NA	NA	NA	MT	0.28931352	Mutant	0.0905735676824551	-0.34203742868794834	0.30077035775172284	PI	Unknown	1
360	WGC035487D	WGC035486D	360TRNA-4	360NRNA-2	adenocarcinoma	male	Han	57.8109589	II	"NA"	2a	1	0	yes	22	20	NA	surgery	14	NA	NA	NA	NA	NA	NA	NA	NA	WildType	NA	NA	NA	NA	NA	NA	NA	NA	MT	0.5118022	WildType	-0.5239778960885958	0.21434368980777813	0.4479677460002413	PI	PI	2
366	WGC025187D	WGC025186D	366TRNA	366NRNA	adenocarcinoma	male	Han	62.44931507	I	"NA"	1a	0	0	yes	37	20	NA	surgery	11	NA	NA	NA	NA	NA	NA	NA	NA	WildType	NA	NA	NA	NA	NA	NA	NA	NA	MT	0.53178066	WildType	-0.4257533832641639	0.3878131686597639	0.14478009201984127	PP	PP	2
367	WGC025191D	WGC025190D	367TRNA	367NRNA	adenocarcinoma	male	Han	76.9260274	III	"NA"	2a	2	0	yes	52	50	NA	surgery	11	EGFR	Missense_Mutation	SNV	L858R	7	55259515	T	G	L858R	EGFR	Missense_Mutation	SNV	L62R	7	55210075	T	G	WT	0.5112572	Mutant	0.23353224154092003	-0.22338919567499563	-0.028540820667657125	TRU	PI	3
374	WGC035494D	WGC035493D	374TRNA	374NRNA-3	adenocarcinoma	male	Han	67.8739726	I	"NA"	2a	0	0	yes	"NA"	NA	NA	surgery	18	NA	NA	NA	NA	NA	NA	NA	NA	WildType	NA	NA	NA	NA	NA	NA	NA	NA	MT	0.48127025	WildType	-0.013884149275032233	0.04126345212230343	0.016315411909992073	PP	PI	1
375	WGC035495D	WGC025198D	375TRNA	375NRNA	adenocarcinoma	male	Han	66.48493151	II	"NA"	2b	0	0	yes	37	20	NA	surgery	22	NA	NA	NA	NA	NA	NA	NA	NA	WildType	NA	NA	NA	NA	NA	NA	NA	NA	WT	0.6916315	WildType	-0.1051022906384121	0.579319195031391	-0.4563672543354807	PP	PP	2
378	WGC035498D	WGC035496D	378TRNA	378NRNA	adenocarcinoma	NA	Han	73.09315068	III	"NA"	2b	2	0	yes	"NA"	NA	NA	surgery	14	NA	NA	NA	NA	NA	NA	NA	NA	WildType	NA	NA	NA	NA	NA	NA	NA	NA	MT	0.7603	WildType	-0.5170780958028147	0.6173947975020218	-0.03720600181299862	PP	PP	2
379	WGC025206D	WGC025204D	379TRNA	379NRNA	adenocarcinoma	male	Han	61.6	I	"NA"	2a	0	0	yes	52	10	NA	surgery	11	EGFR	In_Frame_Del	INDEL	ELREA746	7	55242465	GGAATTAAGAGAAGCA	G	Exon19_Del	NA	NA	NA	NA	NA	NA	NA	NA	MT	0.52130854	Mutant	-0.3907070456442551	0.2950249864245748	0.2120206567040689	PP	PP	2
381	WGC035502D	WGC035501D	381TRNA	381NRNA	adenocarcinoma	male	Han	58.50958904	III	"NA"	2b	2	0	yes	33	20	NA	surgery	22	NA	NA	NA	NA	NA	NA	NA	NA	WildType	NA	NA	NA	NA	NA	NA	NA	NA	WT	0.33955422	WildType	-0.37879860263594306	-0.1643322760845409	0.7307588287719415	PI	PI	1
385	WGC025212D	WGC025211D	385TRNA	385NRNA	adenocarcinoma	male	Han	48.9260274	III	"NA"	2a	2	0	yes	23	NA	NA	surgery	11	NA	NA	NA	NA	NA	NA	NA	NA	WildType	NA	NA	NA	NA	NA	NA	NA	NA	WT	0.42662492	WildType	-0.37399894483977103	0.1316815624851874	0.32670866570047224	PI	PI	1
386	WGC025214D	WGC025213D	386TRNA	386NRNA	adenocarcinoma	male	Han	50.25479452	I	"NA"	2	0	0	yes	"NA"	NA	NA	surgery	11	EGFR	Missense_Mutation	SNV	L858R	7	55259515	T	G	L858R	NA	NA	NA	NA	NA	NA	NA	NA	MT	0.45917737	Mutant	0.7529802108456192	-0.31759848550624414	-0.5696142236022906	TRU	TRU	3
410	WGC035513D	WGC035512D	410TRNA-2	410NRNA	adenocarcinoma	male	Han	76.86027397	II	"NA"	3	0	0	yes	53	20	yes	surgery	14	NA	NA	NA	NA	NA	NA	NA	NA	WildType	NA	NA	NA	NA	NA	NA	NA	NA	MT	0.5919026	WildType	-0.5664777179139068	0.4289819059976433	0.3218646746468453	PP	PP	2
411	WGC035516D	WGC035514D	411TRNA-2	411NRNA	adenocarcinoma	male	Han	64.19726027	I	"NA"	2a	0	0	yes	38	26	NA	surgery	14	NA	NA	NA	NA	NA	NA	NA	NA	WildType	NA	NA	NA	NA	NA	NA	NA	NA	MT	0.3081301	WildType	-0.2992350358220663	-0.05210889079857671	0.536775664095273	PI	PI	1
412	WGC031071D	WGC031072D	412TRNA	412NRNA	adenocarcinoma	male	Han	49.96164384	II	"NA"	3inv	0	0	yes	32	40	NA	surgery	13	NA	NA	NA	NA	NA	NA	NA	NA	WildType	NA	NA	NA	NA	NA	NA	NA	NA	MT	0.32779083	WildType	-0.08443317144548258	-0.06388308119397856	0.2628551823125651	PI	PI	1
413	WGC031073D	WGC031074D	413TRNA	413NRNA	adenocarcinoma	male	Han	58.54520548	I	"NA"	1a	0	0	yes	31	20	NA	surgery	13	NA	NA	NA	NA	NA	NA	NA	NA	WildType	NA	NA	NA	NA	NA	NA	NA	NA	WT	0.41018596	WildType	0.6320980689520013	-0.30016343407522394	-0.4627044907055144	TRU	TRU	3
414	WGC031076D	WGC031077D	414TRNA	414NRNA	adenocarcinoma	male	Han	65.71780822	III	"NA"	2a	2	0	yes	41	20	NA	surgery	13	NA	NA	NA	NA	NA	NA	NA	NA	WildType	NA	NA	NA	NA	NA	NA	NA	NA	WT	0.48117095	WildType	0.17701733089425045	-0.1660421063189517	-0.09978839608024663	TRU	PI	3
416	WGC031080D	WGC031081D	416TRNA	416NRNA	adenocarcinoma	male	Han	58.88493151	III	"NA"	1b	2	0	yes	"NA"	UNK	NA	surgery	13	EGFR	disruptive_In_Frame_Del	INDEL	KELREA745K	7	55242464	AGGAATTAAGAGAAGC	A	Exon19_Del	NA	NA	NA	NA	NA	NA	NA	NA	MT	0.41329607	Mutant	0.06381566806856413	-0.20579848582623425	0.17813017115103397	PI	TRU	3
418	WGC035518D	WGC035517D	418TRNA	418NRNA-2	adenocarcinoma	male	Han	69.16438356	I	"NA"	2a	0	0	yes	41	40	NA	surgery	14	NA	NA	NA	NA	NA	NA	NA	NA	WildType	NA	NA	NA	NA	NA	NA	NA	NA	MT	0.7158352	WildType	-0.3162075273299658	0.7460199113915089	-0.3949602399239372	PP	PP	2
419	WGC035520D	WGC035519D	419TRNA	419NRNA	adenocarcinoma	male	Han	52.41917808	I	"NA"	1a	0	0	yes	31	40	NA	surgery	14	NA	NA	NA	NA	NA	NA	NA	NA	WildType	NA	NA	NA	NA	NA	NA	NA	NA	WT	0.2755469	WildType	-0.05242319399743929	-0.2797463962963235	0.46562398293489915	PI	Unknown	1
422	WGC040753D	WGC040754D	422T	422N	adenocarcinoma	male	Han	62.50136986	II	"NA"	3	0	0	yes	31	30	NA	surgery	16	NA	NA	NA	NA	NA	NA	NA	NA	WildType	NA	NA	NA	NA	NA	NA	NA	NA	MT	0.3569669	WildType	-0.46538638566728185	0.06127833456054095	0.6120068515761158	PI	PP	1
424	WGC040755D	WGC040756D	424T	424N	adenocarcinoma	male	Han	54.56712329	III	"NA"	2b	2	0	yes	21	20	NA	surgery	16	NA	NA	NA	NA	NA	NA	NA	NA	WildType	NA	NA	NA	NA	NA	NA	NA	NA	MT	0.38272277	WildType	-0.6001640439570182	0.13013209207359525	0.7199737304709027	PI	PI	1
425	WGC031088D	WGC031089D	425TRNA	425NRNA	adenocarcinoma	male	Han	65.03561644	III	"NA"	3	1	0	yes	31	20	NA	surgery	13	NA	NA	NA	NA	NA	NA	NA	NA	WildType	NA	NA	NA	NA	NA	NA	NA	NA	WT	0.53283125	WildType	-0.2899303686335243	0.46277037952003636	-0.11020197975247586	PP	PP	2
427	WGC031090D	WGC031091D	427TRNA	427NRNA	adenocarcinoma	male	Han	66.2630137	I	"NA"	2a	0	0	yes	46	NA	NA	surgery	13	NA	NA	NA	NA	NA	NA	NA	NA	WildType	NA	NA	NA	NA	NA	NA	NA	NA	MT	0.39514366	WildType	-0.5748489672868546	0.398310820086457	0.3843069117269506	PP	PP	1
428	WGC031092D	WGC031093D	428T_RNA-4	428N_RNA-4	adenocarcinoma	male	Han	47.29041096	III	"NA"	2a	2	0	yes	31	30	NA	surgery	16	NA	NA	NA	NA	NA	NA	NA	NA	WildType	NA	NA	NA	NA	NA	NA	NA	NA	WT	0.6297646	WildType	-0.15906441698321097	0.3467132110585074	-0.2173684116778632	PP	TRU	2
430	WGC031094D	WGC031095D	430TRNA	430NRNA	adenocarcinoma	male	Han	60.96986301	III	"NA"	1a	2	0	yes	41	20	NA	surgery	13	NA	NA	NA	NA	NA	NA	NA	NA	WildType	NA	NA	NA	NA	NA	NA	NA	NA	WT	0.6545448	WildType	0.4479751907061194	0.07878721949960882	-0.6554741526060304	TRU	TRU	3
431	WGC062590D	WGC062591D	431TRNA	431NRNA	adenocarcinoma	male	Han	71.64109589	I	"NA"	2a	0	0	no	"NA"	NA	NA	surgery	22	EGFR	In_Frame_Ins	INDEL	N771YN	7	55249010	G	GACT	Exon20_Ins	NA	NA	NA	NA	NA	NA	NA	NA	WT	0.5583059	Mutant	0.5990180415611083	-0.1380811460388383	-0.590746990905686	TRU	TRU	3
437	WGC062598D	WGC062599D	437TRNA	437NRNA	adenocarcinoma	male	Han	60.07123288	IV	"NA"	2a	1	1a	no	"NA"	NA	NA	surgery	22	EGFR	frameshift_variant	INDEL	REAT748	7	55242470	TAAGAGAAGCA	T	Exon19_Del	NA	NA	NA	NA	NA	NA	NA	NA	WT	0.6416705	Mutant	-0.1789808242965802	0.27273462158622913	0.029822695308992928	PP	PP	2
438	WGC062600D	WGC062601D	438TRNA	438NRNA	adenocarcinoma	male	Han	66.20821918	III	"NA"	1a	2	0	no	"NA"	NA	NA	surgery	22	EGFR	Missense_Mutation	SNV	L858R	7	55259515	T	G	L858R	NA	NA	NA	NA	NA	NA	NA	NA	WT	0.63037986	Mutant	0.5636843749854198	-0.34990582143713067	-0.3436469101924548	TRU	TRU	3
440	WGC062602D	WGC062603D	440TRNA	440NRNA	adenocarcinoma	female	Han	77.15890411	III	"NA"	2a	2	0	no	"NA"	NA	NA	surgery	22	EGFR	In_Frame_Ins	INDEL	N771PN	7	55249012	C	CCCA	Exon20_Ins	NA	NA	NA	NA	NA	NA	NA	NA	MT	0.61017996	Mutant	0.2051316122155238	-0.18711132972027594	-0.10206695063671228	TRU	TRU	3
446	WGC062608D	WGC062609D	446TRNA	446NRNA	adenocarcinoma	female	Han	67.47945205	I	"NA"	2a	0	0	no	"NA"	NA	NA	surgery	22	EGFR	In_Frame_Del	INDEL	ELREA746	7	55242465	GGAATTAAGAGAAGCA	G	Exon19_Del	NA	NA	NA	NA	NA	NA	NA	NA	WT	0.5067282	Mutant	0.6714391998427398	-0.24397424096877743	-0.526247557596523	TRU	TRU	3
451	WGC062616D	WGC062617D	451TRNA	451NRNA	adenocarcinoma	female	Han	71.33972603	I	"NA"	2a	0	0	no	"NA"	NA	NA	surgery	22	EGFR	Missense_Mutation	SNV	L858R	7	55259515	T	G	L858R	NA	NA	NA	NA	NA	NA	NA	NA	WT	0.38241464	Mutant	0.7713425766239042	-0.5080985714318857	-0.41121663583926515	TRU	Unknown	3
453	WGC062618D	WGC062619D	453TRNA	453NRNA	adenocarcinoma	female	Han	60.49589041	I	"NA"	2	0	0	no	"NA"	NA	NA	surgery	22	EGFR	Missense_Mutation	SNV	L858R	7	55259515	T	G	L858R	NA	NA	NA	NA	NA	NA	NA	NA	MT	0.65415895	Mutant	0.22562449427756648	-0.1101542707366403	-0.1908867278997513	TRU	TRU	3
454	WGC062620D	WGC062621D	454TRNA	454NRNA	adenocarcinoma	female	Han	58.90136986	III	"NA"	4	0	0	no	"NA"	NA	NA	surgery	22	EGFR	In_Frame_Del	INDEL	ELREA746	7	55242465	GGAATTAAGAGAAGCA	G	Exon19_Del	NA	NA	NA	NA	NA	NA	NA	NA	WT	0.4692809	Mutant	-0.23333826123941234	0.1164814195255293	0.21004635730713908	PI	PP	2
457	WGC062622D	WGC062623D	457TRNA	457NRNA	adenocarcinoma	female	Han	66.86849315	I	"NA"	2a	0	0	no	"NA"	NA	NA	surgery	22	EGFR	Missense_Mutation	SNV	L858R	7	55259515	T	G	L858R	NA	NA	NA	NA	NA	NA	NA	NA	MT	0.3709313	Mutant	-0.3439642807991082	-0.08548390211219337	0.5282243514523615	PI	PI	1
459	WGC062624D	WGC062625D	459TRNA	459NRNA	adenocarcinoma	female	Han	69.26575342	I	"NA"	1a	0	0	no	"NA"	NA	NA	surgery	22	NA	NA	NA	NA	NA	NA	NA	NA	WildType	NA	NA	NA	NA	NA	NA	NA	NA	MT	0.30280814	WildType	0.0786536579913905	-0.18803481197574487	0.18020999880369892	PI	Unknown	1
462	WGC062626D	WGC062627D	462TRNA	462NRNA	adenocarcinoma	male	Han	60.68493151	II	"NA"	3	0	0	no	"NA"	NA	NA	surgery	22	NA	NA	NA	NA	NA	NA	NA	NA	WildType	NA	NA	NA	NA	NA	NA	NA	NA	MT	0.5288349	WildType	-0.49026695510842744	0.49237875063230596	0.13499161768623685	PP	PP	2
465	WGC062628D	WGC062629D	465TRNA	465NRNA	adenocarcinoma	female	Han	44.6109589	II	"NA"	2a	1	0	no	"NA"	NA	NA	surgery	22	EGFR	disruptive_In_Frame_Del	INDEL	KELREA745K	7	55242464	AGGAATTAAGAGAAGC	A	Exon19_Del	NA	NA	NA	NA	NA	NA	NA	NA	MT	0.85597885	Mutant	-0.18904057942081814	0.3857875958781843	-0.24432655262133665	PP	PP	2
466	WGC062630D	WGC062631D	466TRNA	466NRNA	adenocarcinoma	female	Han	54.81369863	I	"NA"	1a	0	0	no	"NA"	NA	NA	surgery	22	EGFR	Missense_Mutation	SNV	L858R	7	55259515	T	G	L858R	EGFR	Missense_Mutation	SNV	T854S	7	55259502	A	T	WT	0.37250847	Mutant	0.7478792050714749	-0.4162266497796207	-0.4465680701757984	TRU	Unknown	3
473	WGC062640D	WGC062641D	473TRNA	473NRNA	adenocarcinoma	female	Han	60.20273973	I	"NA"	1b	0	0	no	"NA"	NA	NA	surgery	22	EGFR	In_Frame_Del	INDEL	ELREA746	7	55242465	GGAATTAAGAGAAGCA	G	Exon19_Del	NA	NA	NA	NA	NA	NA	NA	NA	WT	0.44098547	Mutant	0.6948508719079657	-0.42764019120073443	-0.39036413014781207	TRU	TRU	3
475	WGC062642D	WGC062643D	475TRNA	475NRNA	adenocarcinoma	female	Han	47.84383562	I	"NA"	1b	0	0	no	"NA"	NA	NA	surgery	22	EGFR	disruptive_In_Frame_Del	INDEL	KELREA745K	7	55242464	AGGAATTAAGAGAAGC	A	Exon19_Del	NA	NA	NA	NA	NA	NA	NA	NA	MT	0.4602433	Mutant	0.21074170618941238	-0.30308354096638607	0.07174761280499872	TRU	TRU	3
478	WGC062644D	WGC062645D	478TRNA	478NRNA	adenocarcinoma	female	Han	66.94246575	II	"NA"	3sat	0	0	no	"NA"	NA	NA	surgery	22	EGFR	In_Frame_Del	INDEL	LREATS747	7	55242468	ATTAAGAGAAGCAACATCT	A	Exon19_Del	NA	NA	NA	NA	NA	NA	NA	NA	WT	0.49980822	Mutant	0.7479819994150998	-0.3714421942889206	-0.5034342417988442	TRU	TRU	3
480	WGC062646D	WGC062647D	480TRNA	480NRNA	adenocarcinoma	female	Han	68.67945205	I	"NA"	1b	0	0	no	"NA"	NA	NA	surgery	22	EGFR	disruptive_In_Frame_Del	INDEL	ELREAT746A	7	55242466	GAATTAAGAGAAGCAA	G	Exon19_Del	NA	NA	NA	NA	NA	NA	NA	NA	WT	0.44892296	Mutant	0.642369169237093	-0.3774919543677392	-0.32034964836151497	TRU	TRU	3
481	WGC062648D	WGC062649D	481TRNA	481NRNA	adenocarcinoma	female	Han	60.51506849	II	"NA"	2a	1	0	no	"NA"	NA	NA	surgery	22	EGFR	Missense_Mutation	SNV	L858R	7	55259515	T	G	L858R	EGFR	Missense_Mutation	SNV	S306L	7	55223550	C	T	WT	0.52348226	Mutant	0.07812667591887658	-0.05501162056100369	-0.08664957858016335	TRU	TRU	3
483	WGC062650D	WGC062651D	483TRNA	483NRNA	adenocarcinoma	female	Han	70.65479452	IV	"NA"	2	x	1	no	"NA"	NA	NA	surgery	22	EGFR	Missense_Mutation	SNV	L858R	7	55259515	T	G	L858R	NA	NA	NA	NA	NA	NA	NA	NA	WT	0.61251825	Mutant	0.3087457235680269	-0.024756590953571356	-0.43816885820666013	TRU	TRU	3
487	WGC062652D	WGC062653D	487TRNA	487NRNA	adenocarcinoma	female	Han	58.1890411	IV	"NA"	4	1	1a	no	"NA"	NA	NA	surgery	22	NA	NA	NA	NA	NA	NA	NA	NA	WildType	NA	NA	NA	NA	NA	NA	NA	NA	WT	0.8576525	WildType	0.060231148826345525	0.28639260138990574	-0.5141485314699857	PP	TRU	2
488	WGC062654D	WGC062655D	488TRNA	488NRNA	adenocarcinoma	female	Han	78.1369863	III	"NA"	1a	2	0	no	"NA"	NA	NA	surgery	22	NA	NA	NA	NA	NA	NA	NA	NA	WildType	NA	NA	NA	NA	NA	NA	NA	NA	WT	0.3184144	WildType	0.6769212097338642	-0.3845756416106196	-0.37546555461548475	TRU	Unknown	3
490	WGC062658D	WGC062659D	490TRNA	490NRNA	adenocarcinoma	female	Han	64.32328767	I	"NA"	1a	0	0	no	"NA"	NA	NA	surgery	22	EGFR	disruptive_In_Frame_Del	INDEL	LREATS747S	7	55242467	AATTAAGAGAAGCAAC	A	Exon19_Del	NA	NA	NA	NA	NA	NA	NA	NA	WT	0.59018356	Mutant	0.6698380871566708	-0.2537225618302152	-0.6187443062533066	TRU	TRU	3
1007	WGC035463D	WGC025138D	01007TRNA-2	01007NRNA	adenocarcinoma	male	Han	43.19178082	IV	"NA"	2a	0	1a	yes	20	NA	NA	surgery	22	EGFR	In_Frame_Del	INDEL	ELREA746	7	55242465	GGAATTAAGAGAAGCA	G	Exon19_Del	NA	NA	NA	NA	NA	NA	NA	NA	WT	0.49920556	Mutant	-0.12731711062454104	-0.09737775053282086	0.2959768131150698	PI	PI	1
1008	WGC016252N	WGC016250N	FCC4KT6ACXX-HUMknuTBAIRAAPEI-209_L4	FCC4KT6ACXX-HUMknuTBAJRAAPEI-210_L4	adenocarcinoma	male	Han	39.4630137	I	"NA"	1a	0	0	yes	20	20	NA	surgery	4	NA	NA	NA	NA	NA	NA	NA	NA	WildType	NA	NA	NA	NA	NA	NA	NA	NA	MT	0.57805824	WildType	-0.39253142189556356	0.37530486533697893	0.1705010111889818	PP	PI	2
1009	WGC024476D	WGC018667D	01009TRNA-2	01009NRNA	adenocarcinoma	male	Han	79.99178082	II	"NA"	3	0	0	yes	50	10	NA	surgery	11	NA	NA	NA	NA	NA	NA	NA	NA	WildType	NA	NA	NA	NA	NA	NA	NA	NA	WT	0.41960585	WildType	-0.1989899923841611	0.21996234842909845	0.06116722384375072	PP	PI	2
1014	WGC018663N	WGC018672N	01014T	01014N	adenocarcinoma	male	Han	50.20273973	I	"NA"	2a	0	0	yes	21	20	NA	surgery	6	EGFR	disruptive_In_Frame_Del	INDEL	KELREA745K	7	55242464	AGGAATTAAGAGAAGC	A	Exon19_Del	NA	NA	NA	NA	NA	NA	NA	NA	WT	0.7495654	Mutant	0.36705066622420357	0.08081682893778397	-0.5957945607798594	TRU	TRU	3
1015	WGC018664N	WGC018673N	01015T	01015N	adenocarcinoma	male	Han	50.59452055	I	"NA"	2a	0	0	yes	30	20	NA	surgery	6	NA	NA	NA	NA	NA	NA	NA	NA	WildType	NA	NA	NA	NA	NA	NA	NA	NA	WT	0.38277692	WildType	-0.432566277399336	0.10590457784018648	0.5376765337441988	PI	PI	1
1017	WGC018665N	WGC018674N	01017T	01017N	adenocarcinoma	male	Han	71.81643836	II	"NA"	2b	0	0	yes	30	15	NA	surgery	6	NA	NA	NA	NA	NA	NA	NA	NA	WildType	NA	NA	NA	NA	NA	NA	NA	NA	MT	0.5928485	WildType	-0.6042865300028761	0.5390186096941841	0.21750730836666843	PP	PI	2
1021	WGC021828N	WGC018677N	01021T	01021N	adenocarcinoma	male	Han	59.38630137	II	"NA"	3	0	0	yes	40	40	NA	surgery	6	NA	NA	NA	NA	NA	NA	NA	NA	WildType	NA	NA	NA	NA	NA	NA	NA	NA	MT	0.6891596	WildType	-0.6013248516224324	0.6220741511385333	0.10169676000008439	PP	PP	2
1026	WGC021833D	WGC021834D	01026TRNA-2	01026NRNA-2	adenocarcinoma	male	Han	62.38082192	I	"NA"	1b	0	0	yes	41	20	NA	surgery	14	NA	NA	NA	NA	NA	NA	NA	NA	WildType	NA	NA	NA	NA	NA	NA	NA	NA	MT	0.33793804	WildType	0.3270074491107441	-0.17948518407104203	-0.13037986981634958	TRU	Unknown	3
1027	WGC021835D	WGC021836D	01027TRNA-3	01027NRNA-2	adenocarcinoma	male	Han	63.45205479	I	"NA"	2a	0	0	yes	30	20	NA	surgery	14	EGFR	disruptive_In_Frame_Del	INDEL	ATSPKA750A	7	55242475	GAAGCAACATCTCCGA	G	Exon19_Del	EGFR	Missense_Mutation	SNV	L747S	7	55242470	T	C	MT	0.5818039	Mutant	0.25547986411934226	0.004097111351687789	-0.289702657438364	TRU	TRU	3
1028	WGC021837N	WGC021838N	01028T	02028N	adenocarcinoma	male	Han	70.38356164	I	"NA"	2a	0	0	yes	50	20	NA	surgery	6	NA	NA	NA	NA	NA	NA	NA	NA	WildType	NA	NA	NA	NA	NA	NA	NA	NA	MT	0.25148633	WildType	-0.28645226361775783	-0.03509005137110481	0.5242555313316883	PI	Unknown	1
1030	WGC021841D	WGC021842D	01030TRNA	01030NRNA-2	adenocarcinoma	male	Han	69.36986301	I	"NA"	1a	0	0	yes	40	30	NA	surgery	11	NA	NA	NA	NA	NA	NA	NA	NA	WildType	NA	NA	NA	NA	NA	NA	NA	NA	WT	0.51739544	WildType	-0.2888891671908181	0.5422999986450396	-0.17003624460245712	PP	PP	2
1033	WGC024481D	WGC024486D	01033T-2	01033N-3	adenocarcinoma	male	Han	65.7890411	III	"NA"	3	2	0	yes	40	20	NA	surgery	10	NA	NA	NA	NA	NA	NA	NA	NA	WildType	NA	NA	NA	NA	NA	NA	NA	NA	WT	0.48817292	WildType	-0.6851354336228893	0.28325732893927863	0.5979635393960523	PI	PI	1
1037	WGC024482D	WGC024487D	01037T	01037N	adenocarcinoma	male	Han	57.91780822	I	"NA"	1a	0	0	yes	42	30	NA	surgery	10	NA	NA	NA	NA	NA	NA	NA	NA	WildType	NA	NA	NA	NA	NA	NA	NA	NA	MT	0.56763464	WildType	-0.08189884026381712	0.348479726938065	-0.2936884974830207	PP	PP	2
1039	WGC024483D	WGC024488D	01039TRNA	01039NRNA	adenocarcinoma	male	Han	64.805479450000007	I	"NA"	2a	0	0	yes	40	40	NA	surgery	11	NA	NA	NA	NA	NA	NA	NA	NA	WildType	NA	NA	NA	NA	NA	NA	NA	NA	MT	0.54661965	WildType	-0.6037770154246835	0.3236692353691572	0.4549767801058636	PI	PP	2
1040	WGC024484D	WGC024489D	01040TRNA	01040NRNA	adenocarcinoma	male	Han	63.33424658	I	"NA"	16	0	0	yes	30	20	NA	surgery	11	EGFR	Missense_Mutation	SNV	L858R	7	55259515	T	G	L858R	EGFR	Missense_Mutation	SNV	V834L	7	55259442	G	T	WT	0.5662315	Mutant	0.2922051208177474	-0.14609200376313788	-0.29766957716088377	TRU	TRU	3
1042	WGC035465D	WGC035464D	01042TRNA-1	01042NRNA-2	adenocarcinoma	female	Han	40.00273973	I	"NA"	2a	0	0	no	"NA"	NA	NA	surgery	14	EGFR	In_Frame_Del	INDEL	LRE747	7	55242465	GGAATTAAGA	G	Exon19_Del	EGFR	Missense_Mutation	SNV	A750P	7	55242478	G	C	WT	0.4365956	Mutant	0.40368632445884595	-0.15564109013974392	-0.31976232924167713	TRU	TRU	3
1043	WGC035467D	WGC035466D	01043TRNA	01043NRNA-2	adenocarcinoma	female	Han	57.45479452	II	"NA"	2a	1	0	no	"NA"	NA	NA	surgery	14	EGFR	In_Frame_Del	INDEL	LRE747	7	55242465	GGAATTAAGA	G	Exon19_Del	EGFR	Missense_Mutation	SNV	A750P	7	55242478	G	C	WT	0.43239778	Mutant	0.704369557797697	-0.4020920504403171	-0.40847881037067946	TRU	Unknown	3
1050	WGC040761D	WGC040762D	01050T_RNA-3	01050N_RNA-3	adenocarcinoma	male	Han	65.37534247	I	"NA"	1a	0	0	no	"NA"	NA	NA	surgery	16	NA	NA	NA	NA	NA	NA	NA	NA	WildType	NA	NA	NA	NA	NA	NA	NA	NA	WT	0.39320323	WildType	0.6131096786588782	-0.41634965849633604	-0.2644359193374419	TRU	TRU	3
1052	WGC035469D	WGC035468D	01052TRNA	01052NRNA	adenocarcinoma	NA	Han	68.38082192	I	"NA"	1b	0	0	yes	50	20	NA	surgery	14	NA	NA	NA	NA	NA	NA	NA	NA	WildType	NA	NA	NA	NA	NA	NA	NA	NA	WT	0.40392604	WildType	-0.3980148230876705	-0.05598368128795866	0.6570977594770162	PI	PI	1
1054	WGC040763D	WGC040764D	01054T	01054NRNA-3	adenocarcinoma	male	Han	76.17260274	I	"NA"	2a	0	0	yes	50	10	NA	surgery	22	NA	NA	NA	NA	NA	NA	NA	NA	WildType	NA	NA	NA	NA	NA	NA	NA	NA	WT	0.5021193	WildType	0.4476760563748014	-0.08449382595770286	-0.4670704615196586	TRU	TRU	3
1059	WGC035473D	WGC035472D	01059TRNA	01059NRNA	adenocarcinoma	male	Han	70.49589041	II	"NA"	3	0	0	no	"NA"	NA	NA	surgery	14	EGFR	In_Frame_Del	INDEL	ELREA746	7	55242465	GGAATTAAGAGAAGCA	G	Exon19_Del	NA	NA	NA	NA	NA	NA	NA	NA	MT	0.64802116	Mutant	0.31863941250492195	0.06813544598202395	-0.4587424038837595	TRU	TRU	3
1060	WGC035475D	WGC035474D	01060TRNA	01060NRNA-2	adenocarcinoma	female	Han	59.95068493	I	"NA"	1a	0	0	no	"NA"	NA	NA	surgery	14	NA	NA	NA	NA	NA	NA	NA	NA	WildType	NA	NA	NA	NA	NA	NA	NA	NA	WT	0.3733596	WildType	0.6928691679711577	-0.34774345288688535	-0.46461158672593955	TRU	TRU	3
1061	WGC035477D	WGC035476D	01061TRNA	01061NRNA	adenocarcinoma	female	Han	70.40547945	I	"NA"	2a	0	0	no	"NA"	NA	NA	surgery	14	EGFR	In_Frame_Del	INDEL	ELREA746	7	55242465	GGAATTAAGAGAAGCA	G	Exon19_Del	NA	NA	NA	NA	NA	NA	NA	NA	WT	0.771898	Mutant	0.2728961269269739	0.15816850189980053	-0.5469110345206697	TRU	TRU	3
1069	WGC040773D	WGC040774D	01069T	01069N	adenocarcinoma	male	Han	49.66027397	III	"NA"	3	1	0	yes	30	40	NA	surgery	16	NA	NA	NA	NA	NA	NA	NA	NA	WildType	NA	NA	NA	NA	NA	NA	NA	NA	WT	0.54597723	WildType	-0.4860296064898898	0.4758750982829985	0.17698512031342997	PP	PP	2
1070	WGC040775D	WGC040776D	01070T	01070N	adenocarcinoma	male	Han	61.76712329	I	"NA"	2a	0	0	yes	40	20	NA	surgery	16	NA	NA	NA	NA	NA	NA	NA	NA	WildType	NA	NA	NA	NA	NA	NA	NA	NA	MT	0.54516166	WildType	-0.08678659623786168	0.5243808896507098	-0.41372471710090664	PP	PP	2
1072	WGC044556D	WGC044557D	01072TRNA	01072NRNA	adenocarcinoma	male	Han	56.68493151	IV	"NA"	1a	1	1b	yes	50	30	NA	surgery	19	NA	NA	NA	NA	NA	NA	NA	NA	WildType	NA	NA	NA	NA	NA	NA	NA	NA	WT	0.59233695	WildType	-0.16346751702904347	0.4279606563017676	-0.23456555299581736	PP	PP	2
1078	WGC062660D	WGC062661D	01078TRNA	01078NRNA	adenocarcinoma	male	Han	31.68493151	III	"NA"	4	2	0	no	"NA"	NA	NA	surgery	22	NA	NA	NA	NA	NA	NA	NA	NA	WildType	NA	NA	NA	NA	NA	NA	NA	NA	WT	0.3847394	WildType	-0.1190071587069998	-0.22332456800445144	0.37072669999338037	PI	PI	1
1079	WGC062662D	WGC062663D	01079TRNA	01079NRNA	adenocarcinoma	female	Han	72.0630137	II	"NA"	2a	1	0	no	"NA"	NA	NA	surgery	22	EGFR	disruptive_In_Frame_Del	INDEL	KELREA745K	7	55242464	AGGAATTAAGAGAAGC	A	Exon19_Del	NA	NA	NA	NA	NA	NA	NA	NA	WT	0.49537802	Mutant	0.6873160486908539	-0.38151317257807066	-0.4574787260025093	TRU	TRU	3
2001	WGC013020NB	WGC013022NB	02001T	02001N	adenocarcinoma	male	Han	65.24657534	II	"NA"	2	0	0	yes	40	20	yes	surgery	1	EGFR	Missense_Mutation	SNV	L858R	7	55259515	T	G	L858R	NA	NA	NA	NA	NA	NA	NA	NA	WT	0.6819326	Mutant	0.5272604045337328	-0.09329205505613149	-0.631142374693657	TRU	TRU	3
2008	WGC014893N	WGC014894N	02008T1A	02008N1A	adenocarcinoma	male	Han	51.76438356	III	"NA"	1	2	0	yes	30	50	NA	surgery	3	NA	NA	NA	NA	NA	NA	NA	NA	WildType	NA	NA	NA	NA	NA	NA	NA	NA	WT	0.24866304	WildType	-0.16179962795412994	-0.28980280331360053	0.6738681422533489	PI	PI	1
2013	WGC018140N	WGC018141N	02013T1A	02013N1A	adenocarcinoma	male	Han	64.26575342	I	"NA"	1a	0	0	yes	40	20	NA	surgery	6	NA	NA	NA	NA	NA	NA	NA	NA	WildType	NA	NA	NA	NA	NA	NA	NA	NA	MT	0.65314275	WildType	-0.5274237231309388	0.5850724761966422	0.03557603753732784	PP	PP	2
2014	WGC018603N	WGC018604N	02014T1A	02014N1A	adenocarcinoma	male	Han	72.43287671	III	"NA"	2b	2	0	yes	30	20	NA	surgery	7	NA	NA	NA	NA	NA	NA	NA	NA	WildType	NA	NA	NA	NA	NA	NA	NA	NA	WT	0.35004163	WildType	-0.3936210916454869	0.19290574301327504	0.40806198764235263	PI	PI	1
2026	WGC023360D	WGC023361D	02026T1A	02026N1A	adenocarcinoma	male	Han	60.81643836	I	"NA"	2	0	0	yes	40	40	NA	surgery	22	NA	NA	NA	NA	NA	NA	NA	NA	WildType	NA	NA	NA	NA	NA	NA	NA	NA	WT	0.38386065	WildType	-0.5794757498775346	0.08695716447610387	0.7039587454785116	PI	PI	1
2032	WGC024562D	WGC024563D	02032T1A	02032N1A	adenocarcinoma	male	Han	63.22739726	II	"NA"	1b	1	0	yes	40	20	NA	surgery	12	NA	NA	NA	NA	NA	NA	NA	NA	WildType	NA	NA	NA	NA	NA	NA	NA	NA	MT	0.3140252	WildType	-0.36722523553119946	-0.1435216006630096	0.6641131764143386	PI	PI	1
2035	WGC039648D	WGC039649D	02035T1A	02035N1A	adenocarcinoma	male	Han	59.04109589	I	"NA"	2	0	0	yes	30	40	NA	surgery	17	NA	NA	NA	NA	NA	NA	NA	NA	WildType	NA	NA	NA	NA	NA	NA	NA	NA	WT	0.4598581	WildType	-0.38644940751415596	0.05178445225153108	0.46309411489251434	PI	PI	1
2041	WGC045607D	WGC045608D	02041T1A	02041N1A	adenocarcinoma	female	Han	57.97260274	I	"NA"	2	0	0	no	"NA"	NA	NA	surgery	19	EGFR	Missense_Mutation	SNV	L858R	7	55259515	T	G	L858R	NA	NA	NA	NA	NA	NA	NA	NA	WT	0.53912914	Mutant	0.6114459737441439	-0.29052995658871383	-0.45041637203910273	TRU	TRU	3
2042	WGC045710D	WGC045711D	02042T1A	02042N1A	adenocarcinoma	female	Han	65.88493151	III	"NA"	1	2	0	no	"NA"	NA	NA	surgery	19	NA	NA	NA	NA	NA	NA	NA	NA	OtherEGFR	EGFR	Missense_Mutation	SNV	G719A	7	55241708	G	C	WT	0.46890447	WildType	0.279728953306931	-0.2315897905152366	-0.062180533631864494	TRU	TRU	3
2044	WGC046285D	WGC046286D	02044T1A	02044N1A	adenocarcinoma	female	Han	56.41643836	I	"NA"	1	0	0	no	"NA"	NA	NA	surgery	19	NA	NA	NA	NA	NA	NA	NA	NA	WildType	NA	NA	NA	NA	NA	NA	NA	NA	WT	0.3410761	WildType	0.6475840789460472	-0.3432862017879632	-0.38863639180643766	TRU	TRU	3
2045	WGC048530D	WGC048531D	02045T1B	02045N1B	adenocarcinoma	female	Han	64.02191781	I	"NA"	1	0	0	no	"NA"	NA	NA	surgery	21	NA	NA	NA	NA	NA	NA	NA	NA	OtherEGFR	EGFR	Missense_Mutation	SNV	L833W;L861Q	7	55259440;55259524	T	G;A	WT	0.5411048	WildType	0.6792099905332616	-0.2387240435252547	-0.5910757831532566	TRU	TRU	3
3003	WGC014632N	WGC014633N	03003T1A	03003N1A	adenocarcinoma	male	Han	76.2109589	I	"NA"	1	0	0	yes	50	20	yes	surgery	2	NA	NA	NA	NA	NA	NA	NA	NA	WildType	NA	NA	NA	NA	NA	NA	NA	NA	WT	0.5089303	WildType	-0.047024206202039606	0.017457691285150425	0.07363974817269492	PI	PI	1
3004	WGC014770N	WGC014771N	03004T1A	03004N1A	adenocarcinoma	male	Han	63.20821918	II	"NA"	2b	0	0	yes	40	20	NA	surgery	2	NA	NA	NA	NA	NA	NA	NA	NA	WildType	NA	NA	NA	NA	NA	NA	NA	NA	WT	0.72771746	WildType	-0.3995172921164672	0.6508009472617076	-0.24552952714620158	PP	PP	2
3011	WGC016235N	WGC016236N	03011T1A	03011N1A	adenocarcinoma	male	Han	64.43835616	I	"NA"	2a	0	0	yes	40	30	NA	surgery	3	NA	NA	NA	NA	NA	NA	NA	NA	WildType	NA	NA	NA	NA	NA	NA	NA	NA	MT	0.2531388	WildType	-0.1329224819500258	-0.0020617249812273633	0.3608732497895954	PI	Unknown	1
3012	WGC017516N	WGC017517N	03012T1A	03012N1A	adenocarcinoma	male	Han	50.29041096	III	"NA"	2b	2	0	yes	30	20	NA	surgery	4	NA	NA	NA	NA	NA	NA	NA	NA	WildType	NA	NA	NA	NA	NA	NA	NA	NA	MT	0.5861079	WildType	0.11118253128363419	0.2201903746585498	-0.3864205280384694	PP	TRU	3
3017	WGC018952N	WGC018953N	03021T1A	03021N1A	adenocarcinoma	male	Han	60.09589041	I	"NA"	2a	0	0	yes	40	20	NA	surgery	5	NA	NA	NA	NA	NA	NA	NA	NA	WildType	NA	NA	NA	NA	NA	NA	NA	NA	MT	0.3752879	WildType	-0.0573673618803759	-0.16560117779387232	0.34439058387546845	PI	PI	1
3022	WGC019700N	WGC019701N	06014T1A	06014N1A	adenocarcinoma	male	Other	67.46849315	I	"NA"	1	0	0	yes	40	20	NA	surgery	5	NA	NA	NA	NA	NA	NA	NA	NA	OtherEGFR	EGFR	Missense_Mutation	SNV	I351M	7	55224272	A	G	MT	0.5343431	WildType	-0.6236336118776715	0.4055344907657973	0.45296658458919165	PI	PP	1
3029	WGC023699D	WGC023700D	03029T1A	03029N1A	adenocarcinoma	male	Han	63.62191781	I	"NA"	2a	0	0	yes	50	60	NA	surgery	10	NA	NA	NA	NA	NA	NA	NA	NA	WildType	NA	NA	NA	NA	NA	NA	NA	NA	WT	0.71426326	WildType	-0.4436214183159913	0.7847018735291994	-0.24255525221412005	PP	PP	2
3035	WGC029506D	WGC029507D	03035TA	03035NA	adenocarcinoma	male	Han	78.12876712	I	"NA"	2	0	0	yes	50	30	NA	surgery	22	NA	NA	NA	NA	NA	NA	NA	NA	WildType	NA	NA	NA	NA	NA	NA	NA	NA	WT	0.73004395	WildType	0.310309609440553	0.1166351445229201	-0.6031527567252987	TRU	TRU	3
3040	WGC034294D	WGC034295D	03040T1A	03040N1A	adenocarcinoma	female	Han	51.71506849	IV	"NA"	4	0	1	no	"NA"	NA	NA	surgery	15	NA	NA	NA	NA	NA	NA	NA	NA	WildType	NA	NA	NA	NA	NA	NA	NA	NA	WT	0.53290075	WildType	0.11980185842389499	-0.05621508507876624	-0.12116471796013492	TRU	TRU	3
3043	WGC035716D	WGC035717D	03043T1A	03043N1A	adenocarcinoma	female	Han	66.25753425	III	"NA"	2	2	0	no	"NA"	NA	NA	surgery	15	EGFR	In_Frame_Ins	INDEL	V769LDSV	7	55249002	C	CCAGCCTGGA	Exon20_Ins	NA	NA	NA	NA	NA	NA	NA	NA	WT	0.53760606	Mutant	0.38593365690269427	-0.05240959984408874	-0.43826494032358015	TRU	TRU	3
3044	WGC036371D	WGC036372D	03044T1A	03044N1A	adenocarcinoma	female	Han	68.03287671	III	"NA"	2	2	0	no	"NA"	NA	NA	surgery	15	EGFR	Missense_Mutation	SNV	L858R	7	55259515	T	G	L858R	NA	NA	NA	NA	NA	NA	NA	NA	MT	0.53764915	Mutant	0.6968143182502986	-0.3279384392588934	-0.4987769605030184	TRU	TRU	3
3045	WGC036375D	WGC036376D	03045T1A	03045N1A	adenocarcinoma	male	Han	35.67123288	III	"NA"	3	2	0	no	"NA"	NA	NA	surgery	15	NA	NA	NA	NA	NA	NA	NA	NA	WildType	NA	NA	NA	NA	NA	NA	NA	NA	WT	0.38242045	WildType	-0.012709614613648399	-0.15381418875610914	0.21603404812508453	PI	PI	1
3046	WGC037620D	WGC037621D	03046T1A	03046N1A	adenocarcinoma	female	Han	43.1369863	III	"NA"	2b	2	0	no	"NA"	NA	NA	surgery	17	EGFR	disruptive_In_Frame_Del	INDEL	KELREA745K	7	55242464	AGGAATTAAGAGAAGC	A	Exon19_Del	NA	NA	NA	NA	NA	NA	NA	NA	WT	0.7645119	Mutant	-0.37690427576622526	0.5255088873887355	-0.15420702955159024	PP	PP	2
3047	WGC039659D	WGC039660D	03047T1A	03047N1A	adenocarcinoma	female	Han	59.17260274	I	"NA"	2	0	0	no	"NA"	NA	NA	surgery	17	NA	NA	NA	NA	NA	NA	NA	NA	WildType	NA	NA	NA	NA	NA	NA	NA	NA	WT	0.32965592	WildType	0.3104087973438703	-0.2151282120040724	-0.13663824951264963	TRU	Unknown	3
3048	WGC039663D	WGC039664D	03048T1A	03048N1A	adenocarcinoma	male	Han	70.6	I	"NA"	2	0	0	no	"NA"	NA	NA	surgery	17	NA	NA	NA	NA	NA	NA	NA	NA	OtherEGFR	EGFR	Missense_Mutation	SNV	A289V;G719A	7	55221822;55241708	C;G	T;C	MT	0.7145854	WildType	-0.313156592238053	0.19522766525475055	0.1537210579439234	PP	PI	2
3049	WGC041024D	WGC041025D	03049T1A	03049N1A	adenocarcinoma	female	Han	57.7260274	I	"NA"	1b	0	0	no	"NA"	NA	NA	surgery	18	EGFR	Missense_Mutation	SNV	L858R	7	55259515	T	G	L858R	EGFR	Missense_Mutation	SNV	R776H	7	55249029	G	A	WT	0.50938123	Mutant	0.6746628839024033	-0.4137153718340383	-0.4406749661921079	TRU	TRU	3
3050	WGC041949D	WGC041950D	03050T1B	03050N1A	adenocarcinoma	male	Han	64.72054795	II	"NA"	3	0	0	yes	40	60	NA	surgery	20	NA	NA	NA	NA	NA	NA	NA	NA	WildType	NA	NA	NA	NA	NA	NA	NA	NA	WT	0.4967651	WildType	-0.5376864364221069	0.10310733055743554	0.6123405343762371	PI	PI	1
3056	WGC049907D	WGC049908D	03056T1A	03056N1A	adenocarcinoma	female	Han	57.55342466	III	"NA"	2	2	0	no	"NA"	NA	NA	surgery	21	EGFR	disruptive_In_Frame_Del	INDEL	LREATS747S	7	55242467	AATTAAGAGAAGCAAC	A	Exon19_Del	NA	NA	NA	NA	NA	NA	NA	NA	WT	0.4332526	Mutant	0.0517085962813323	-0.24378662721899008	0.17670315486486704	PI	PI	3
4002	WGC014200N	WGC014201N	04002T1B	04002N1B	adenocarcinoma	male	Other	61.6739726	II	"NA"	3	0	0	yes	40	20	NA	surgery	2	NA	NA	NA	NA	NA	NA	NA	NA	WildType	NA	NA	NA	NA	NA	NA	NA	NA	MT	0.69838554	WildType	-0.6512908715540512	0.5027507594541453	0.374928492932585	PP	PP	2
5003	WGC018231N	WGC018232N	05003T1A	05003N1A	adenocarcinoma	male	Han	69.24657534	I	"NA"	2	0	0	yes	35	40	NA	surgery	4	EGFR	Missense_Mutation	SNV	L858R	7	55259515	T	G	L858R	EGFR	Silent	SNV	L858	7	55259516	G	T	MT	0.553196	Mutant	0.4909655108178596	-0.20857994659417614	-0.4289244254394743	TRU	TRU	3
5012	WGC022137D	WGC022138D	FCC5781ACXX-WHHUMexgEAAJRAAPEI-213_L2	FCC5781ACXX-WHHUMexgEAAIRAAPEI-212_L2	adenocarcinoma	male	Han	56.81917808	I	"NA"	2	0	0	yes	40	20	NA	surgery	8	NA	NA	NA	NA	NA	NA	NA	NA	WildType	NA	NA	NA	NA	NA	NA	NA	NA	WT	0.30941185	WildType	0.01743120342090892	-0.05064480705548061	0.1324388072848812	PI	Unknown	1
5020	WGC032174D	WGC032175D	05020TA	05020NA	adenocarcinoma	male	Han	56.26027397	II	"NA"	2	1	0	yes	29	20	NA	surgery	18	EGFR	Missense_Mutation	SNV	L858R	7	55259515	T	G	L858R	NA	NA	NA	NA	NA	NA	NA	NA	WT	0.3166652	Mutant	-0.04541775898278163	-0.13252110001640527	0.2769133136373144	PI	Unknown	1
5022	WGC037247D	WGC037248D	05022T1A	05022N1A	adenocarcinoma	male	Han	58.87945205	I	"NA"	2	0	0	yes	32	20	NA	surgery	19	EGFR	Missense_Mutation	SNV	L858R	7	55259515	T	G	L858R	NA	NA	NA	NA	NA	NA	NA	NA	WT	0.36650506	Mutant	0.34136934174928457	-0.27208987788259265	-0.05399270268324769	TRU	Unknown	3
5023	WGC038804D	WGC038805D	05023T1A	05023N1A	adenocarcinoma	male	Han	53.51506849	I	"NA"	2	0	0	no	"NA"	NA	NA	surgery	19	NA	NA	NA	NA	NA	NA	NA	NA	WildType	NA	NA	NA	NA	NA	NA	NA	NA	WT	0.4384046	WildType	-0.4491367353541934	0.1344098770294579	0.49901951787941873	PI	PI	1
6021	WGC021814N	WGC021815N	FCC4TD6ACXX-WHHUMqhnTAAHRAAPEI-210_L3	FCC4TRWACXX-WHHUMqhnTAAGRAAPEI-209_L6	adenocarcinoma	male	Han	56.2739726	IV	"NA"	2a	0	1a	yes	40	20	NA	surgery	7	NA	NA	NA	NA	NA	NA	NA	NA	WildType	NA	NA	NA	NA	NA	NA	NA	NA	MT	0.3689975	WildType	-0.015465835785833304	0.0890339595257472	0.08838013088402938	PP	Unknown	1
6029	WGC022276D	WGC022277D	FCC5781ACXX-WHHUMexgEAALRAAPEI-215_L3	FCC5781ACXX-WHHUMexgEAAKRAAPEI-214_L3	adenocarcinoma	male	Han	60.74246575	III	"NA"	3	2	0	yes	30	15	NA	surgery	8	NA	NA	NA	NA	NA	NA	NA	NA	WildType	NA	NA	NA	NA	NA	NA	NA	NA	WT	0.6108182	WildType	-0.20781054298687576	0.09908215074901953	0.19991469593552652	PI	PI	1
6048	WGC030404D	WGC030405D	06048TA	06048NA	adenocarcinoma	male	Han	52.90684932	I	"NA"	2a	0	0	yes	30	40	NA	surgery	22	NA	NA	NA	NA	NA	NA	NA	NA	WildType	NA	NA	NA	NA	NA	NA	NA	NA	MT	0.34809938	WildType	0.2989413889154483	-0.2648117793278245	0.09658843746593221	TRU	Unknown	1
6051	WGC030412D	WGC030413D	06051TA	06051NA	adenocarcinoma	male	Han	56.43835616	I	"NA"	2a	0	0	yes	40	15	NA	surgery	22	NA	NA	NA	NA	NA	NA	NA	NA	WildType	NA	NA	NA	NA	NA	NA	NA	NA	MT	0.33588302	WildType	0.3636210833932185	-0.5173101997748217	0.24136155038542498	TRU	Unknown	1
6060	WGC036554D	WGC036555D	06060T1A	06060N1A	adenocarcinoma	female	Han	51.53972603	III	"NA"	3	2	0	no	"NA"	NA	NA	surgery	15	NA	NA	NA	NA	NA	NA	NA	NA	WildType	NA	NA	NA	NA	NA	NA	NA	NA	MT	0.41250113	WildType	0.13136601607953105	-0.030657001598736307	-0.1305013281978631	TRU	PI	3
6061	WGC040779D	WGC040780D	06061T1A	06061N1A	adenocarcinoma	female	Han	70.07671233	I	"NA"	2a	0	0	no	"NA"	NA	NA	surgery	17	NA	NA	NA	NA	NA	NA	NA	NA	OtherEGFR	EGFR	Missense_Mutation	SNV	L861Q	7	55259524	T	A	WT	0.43106642	WildType	0.683334839821901	-0.3780519636521244	-0.3929626069865976	TRU	Unknown	3
6062	WGC040783D	WGC040784D	06062T1A	06062N1A	adenocarcinoma	female	Han	73.96712329	I	"NA"	2a	0	0	no	"NA"	NA	NA	surgery	22	NA	NA	NA	NA	NA	NA	NA	NA	WildType	NA	NA	NA	NA	NA	NA	NA	NA	WT	0.3478475	WildType	0.5465341431676747	-0.41872768740488275	-0.18045731324828787	TRU	Unknown	3
308	WGC018650N	WGC016260N	FCC4L4NACXX-HUMknuTBAMRAAPEI-213_L7	FCC4L4NACXX-HUMknuTBANRAAPEI-214_L7	squamous carcinoma	male	Han	49.7369863	III	"NA"	3	1	0	yes	27	20	NA	surgery	4	NA	NA	NA	NA	NA	NA	NA	NA	WildType	NA	NA	NA	NA	NA	NA	NA	NA	MT	0.7682672	WildType	NA	NA	NA	NA	Unassigned	NA
313	WGC018652N	WGC016266N	FCC4L4NACXX-HUMknuTBAQRAAPEI-218_L8	FCC4L4NACXX-HUMknuTBARRAAPEI-219_L8	squamous carcinoma	male	Han	66.03287671	III	"NA"	4	2	0	yes	42	40	NA	surgery	4	NA	NA	NA	NA	NA	NA	NA	NA	WildType	NA	NA	NA	NA	NA	NA	NA	NA	MT	0.593803	WildType	NA	NA	NA	NA	Unassigned	NA
318	WGC018653N	WGC014589N	FCC4BRUACXX-HUMknuTBAARAAPEI-201_L1	FCC4MEFACXX-HUMknuTBACRABPEI-203_L8	squamous carcinoma	male	Han	57.4739726	I	"NA"	1a	0	0	yes	"NA"	UNK	NA	surgery	4	NA	NA	NA	NA	NA	NA	NA	NA	WildType	NA	NA	NA	NA	NA	NA	NA	NA	WT	0.78277415	WildType	NA	NA	NA	NA	Unassigned	NA
322	WGC018654N	WGC016278N	FCC4L4NACXX-HUMknuTBASRAAPEI-220_L8	FCC4L4NACXX-HUMknuTBATRAAPEI-221_L8	squamous carcinoma	male	Han	63.00273973	III	"NA"	3	1	0	yes	22	20	NA	surgery	4	NA	NA	NA	NA	NA	NA	NA	NA	WildType	NA	NA	NA	NA	NA	NA	NA	NA	MT	0.83404547	WildType	NA	NA	NA	NA	Unassigned	NA
323	WGC018655N	WGC016281N	FCC4L4NACXX-HUMknuTBAURAAPEI-222_L8	FCC4KT6ACXX-HUMknuTBAVRAAPEI-223_L3	squamous carcinoma	male	Han	58.15890411	III	"NA"	3	2	0	yes	32	40	NA	surgery	4	NA	NA	NA	NA	NA	NA	NA	NA	WildType	NA	NA	NA	NA	NA	NA	NA	NA	MT	0.67363614	WildType	NA	NA	NA	NA	Unassigned	NA
329	WGC018656N	WGC016284N	FCC4KT6ACXX-HUMknuTBAWRAAPEI-225_L3	FCC4KT6ACXX-HUMknuTBAXRAAPEI-227_L3	squamous carcinoma	male	Han	67	II	"NA"	2b	0	0	yes	45	60	NA	surgery	4	NA	NA	NA	NA	NA	NA	NA	NA	WildType	NA	NA	NA	NA	NA	NA	NA	NA	MT	0.5847661	WildType	NA	NA	NA	NA	Unassigned	NA
330	WGC018657N	WGC014590N	FCC4MEFACXX-HUMknuTBABRABPEI-202_L8	FCC4MEFACXX-HUMknuTBADRABPEI-204_L8	squamous carcinoma	male	Han	61.40547945	III	"NA"	2a	2	0	yes	42	20	NA	surgery	4	NA	NA	NA	NA	NA	NA	NA	NA	WildType	NA	NA	NA	NA	NA	NA	NA	NA	MT	0.5276591	WildType	NA	NA	NA	NA	Unassigned	NA
337	WGC040745D	WGC040746D	337T	337NRNA-2	squamous carcinoma	male	Han	50.88219178	I	"NA"	2a	0	0	yes	33	20	NA	surgery	16	NA	NA	NA	NA	NA	NA	NA	NA	WildType	NA	NA	NA	NA	NA	NA	NA	NA	MT	0.7022246	WildType	NA	NA	NA	NA	Unassigned	NA
339	WGC018661D	WGC016302D	339TRNA-2	339NRNA	squamous carcinoma	male	Han	79.35068493	I	"NA"	2a	0	0	yes	62	10	NA	surgery	11	NA	NA	NA	NA	NA	NA	NA	NA	WildType	NA	NA	NA	NA	NA	NA	NA	NA	MT	0.57503897	WildType	NA	NA	NA	NA	Unassigned	NA
340	WGC025146D	WGC014591D	340TRNA-2	340N-3	squamous carcinoma	male	Han	58.12328767	II	"NA"	3	0	0	yes	27	20	NA	surgery	11	NA	NA	NA	NA	NA	NA	NA	NA	WildType	NA	NA	NA	NA	NA	NA	NA	NA	MT	0.49521738	WildType	NA	NA	NA	NA	Unassigned	NA
347	WGC025156D	WGC025155D	347TRNA	347NRNA	squamous carcinoma	male	Han	57.93972603	III	"NA"	3	1	0	yes	27	20	NA	surgery	11	NA	NA	NA	NA	NA	NA	NA	NA	WildType	NA	NA	NA	NA	NA	NA	NA	NA	WT	0.6839432	WildType	NA	NA	NA	NA	Unassigned	NA
348	WGC025159D	WGC025157D	348TRNA	348NRNA	squamous carcinoma	male	Han	59.95890411	I	"NA"	2a	0	0	yes	42	20	NA	surgery	11	NA	NA	NA	NA	NA	NA	NA	NA	WildType	NA	NA	NA	NA	NA	NA	NA	NA	MT	0.59578365	WildType	NA	NA	NA	NA	Unassigned	NA
349	WGC025162D	WGC025161D	349TRNA	349NRNA	squamous carcinoma	male	Han	71.18630137	I	"NA"	2a	0	0	yes	"NA"	UNK	NA	surgery	11	NA	NA	NA	NA	NA	NA	NA	NA	WildType	NA	NA	NA	NA	NA	NA	NA	NA	MT	0.55446035	WildType	NA	NA	NA	NA	Unassigned	NA
350	WGC040747D	WGC040748D	350TRNA	350NRNA	squamous carcinoma	male	Han	54.34520548	II	"NA"	1b	1	0	yes	22	30	NA	surgery	16	NA	NA	NA	NA	NA	NA	NA	NA	WildType	NA	NA	NA	NA	NA	NA	NA	NA	WT	0.44713077	WildType	NA	NA	NA	NA	Unassigned	NA
351	WGC035481D	WGC035479D	351TRNA-3	351NRNA-4	squamous carcinoma	male	Han	65.51232877	II	"NA"	1b	1	0	yes	32	20	NA	surgery	14	NA	NA	NA	NA	NA	NA	NA	NA	WildType	NA	NA	NA	NA	NA	NA	NA	NA	MT	0.66560847	WildType	NA	NA	NA	NA	Unassigned	NA
355	WGC031048D	WGC025169D	355TRNA	355NRNA-3	squamous carcinoma	male	Han	61.58082192	III	"NA"	2a	2	0	yes	42	20	NA	surgery	18	NA	NA	NA	NA	NA	NA	NA	NA	WildType	NA	NA	NA	NA	NA	NA	NA	NA	MT	0.65490353	WildType	NA	NA	NA	NA	Unassigned	NA
361	WGC035489D	WGC035488D	361TRNA	361NRNA-3	squamous carcinoma	male	Han	67.68219178	III	"NA"	3	2	0	yes	39	20	NA	surgery	14	NA	NA	NA	NA	NA	NA	NA	NA	WildType	NA	NA	NA	NA	NA	NA	NA	NA	WT	0.733904	WildType	NA	NA	NA	NA	Unassigned	NA
362	WGC025183D	WGC025182D	362TRNA	362NRNA	squamous carcinoma	male	Han	70.20821918	II	"NA"	1b	1	0	yes	32	30	NA	surgery	11	NA	NA	NA	NA	NA	NA	NA	NA	WildType	NA	NA	NA	NA	NA	NA	NA	NA	WT	0.6305267	WildType	NA	NA	NA	NA	Unassigned	NA
363	WGC035492D	WGC035490D	363TRNA-2	363NRNA-3	squamous carcinoma	male	Han	62.34794521	I	"NA"	1b	0	0	yes	29	40	NA	surgery	14	NA	NA	NA	NA	NA	NA	NA	NA	WildType	NA	NA	NA	NA	NA	NA	NA	NA	MT	0.70520985	WildType	NA	NA	NA	NA	Unassigned	NA
368	WGC040749D	WGC040750D	368T	368N	squamous carcinoma	male	Han	63.78356164	II	"NA"	3	0	0	yes	42	20	NA	surgery	16	EGFR	disruptive_In_Frame_Del	INDEL	KELREA745K	7	55242464	AGGAATTAAGAGAAGC	A	Exon19_Del	NA	NA	NA	NA	NA	NA	NA	NA	MT	0.5502755	Mutant	NA	NA	NA	NA	Unassigned	NA
369	WGC025193D	WGC025192D	369TRNA	369NRNA	squamous carcinoma	male	Han	59.0630137	II	"NA"	3	0	0	yes	"NA"	UNK	NA	surgery	11	EGFR	In_Frame_Del	INDEL	ELREA746	7	55242465	GGAATTAAGAGAAGCA	G	Exon19_Del	NA	NA	NA	NA	NA	NA	NA	NA	MT	0.7201813	Mutant	NA	NA	NA	NA	Unassigned	NA
370	WGC040751D	WGC040752D	370T	370N	squamous carcinoma	male	Han	72.08493151	I	"NA"	2a	0	0	yes	47	20	NA	surgery	16	NA	NA	NA	NA	NA	NA	NA	NA	WildType	NA	NA	NA	NA	NA	NA	NA	NA	MT	0.6832591	WildType	NA	NA	NA	NA	Unassigned	NA
373	WGC025196D	WGC025194D	373TRNA	373NRNA	squamous carcinoma	male	Han	43.72876712	I	"NA"	2a	0	0	yes	22	80	NA	surgery	13	NA	NA	NA	NA	NA	NA	NA	NA	WildType	NA	NA	NA	NA	NA	NA	NA	NA	MT	0.63650924	WildType	NA	NA	NA	NA	Unassigned	NA
377	WGC025203D	WGC025202D	377TRNA	377NRNA	squamous carcinoma	male	Han	50.56712329	II	"NA"	2	0	0	yes	32	30	NA	surgery	11	NA	NA	NA	NA	NA	NA	NA	NA	WildType	NA	NA	NA	NA	NA	NA	NA	NA	WT	0.44879285	WildType	NA	NA	NA	NA	Unassigned	NA
393	WGC031051D	WGC031052D	393TRNA	393NRNA	squamous carcinoma	male	Han	59.94794521	I	"NA"	2a	0	0	yes	41	20	NA	surgery	13	NA	NA	NA	NA	NA	NA	NA	NA	WildType	NA	NA	NA	NA	NA	NA	NA	NA	MT	0.6163413	WildType	NA	NA	NA	NA	Unassigned	NA
394	WGC031053D	WGC031054D	394TRNA	394NRNA	squamous carcinoma	male	Han	69.97260274	II	"NA"	2a	1	0	yes	41	40	NA	surgery	13	NA	NA	NA	NA	NA	NA	NA	NA	WildType	NA	NA	NA	NA	NA	NA	NA	NA	MT	0.6007355	WildType	NA	NA	NA	NA	Unassigned	NA
396	WGC031055D	WGC031056D	396TRNA	396NRNA	squamous carcinoma	male	Han	69.71232877	II	"NA"	2b	0	0	yes	"NA"	UNK	NA	surgery	13	NA	NA	NA	NA	NA	NA	NA	NA	WildType	NA	NA	NA	NA	NA	NA	NA	NA	MT	0.7184091	WildType	NA	NA	NA	NA	Unassigned	NA
397	WGC031057D	WGC031058D	397TRNA-2	397NRNA	squamous carcinoma	male	Han	77.53150685	III	"NA"	3	2	0	yes	61	20	NA	surgery	14	NA	NA	NA	NA	NA	NA	NA	NA	WildType	NA	NA	NA	NA	NA	NA	NA	NA	MT	0.7892362	WildType	NA	NA	NA	NA	Unassigned	NA
398	WGC031059D	WGC031060D	398TRNA	398NRNA	squamous carcinoma	male	Han	59.82739726	II	"NA"	2a	1	0	yes	"NA"	UNK	NA	surgery	13	NA	NA	NA	NA	NA	NA	NA	NA	WildType	NA	NA	NA	NA	NA	NA	NA	NA	MT	0.7694696	WildType	NA	NA	NA	NA	Unassigned	NA
399	WGC031061D	WGC031062D	399TRNA	399NRNA	squamous carcinoma	male	Han	62.39726027	I	"NA"	2a	0	0	yes	51	40	NA	surgery	13	NA	NA	NA	NA	NA	NA	NA	NA	WildType	NA	NA	NA	NA	NA	NA	NA	NA	WT	0.756512	WildType	NA	NA	NA	NA	Unassigned	NA
400	WGC031063D	WGC031064D	400TRNA	400NRNA	squamous carcinoma	male	Han	74.13424658	III	"NA"	3	2	0	yes	41	20	NA	surgery	13	NA	NA	NA	NA	NA	NA	NA	NA	WildType	NA	NA	NA	NA	NA	NA	NA	NA	WT	0.7049491	WildType	NA	NA	NA	NA	Unassigned	NA
401	WGC031065D	WGC031066D	401TRNA	401NRNA	squamous carcinoma	male	Han	67.07123288	II	"NA"	2b	0	0	yes	41	20	NA	surgery	13	NA	NA	NA	NA	NA	NA	NA	NA	WildType	NA	NA	NA	NA	NA	NA	NA	NA	WT	0.5552658	WildType	NA	NA	NA	NA	Unassigned	NA
402	WGC031067D	WGC031068D	402TRNA	402NRNA	squamous carcinoma	male	Han	71.07945205	II	"NA"	3	0	0	yes	51	20	NA	surgery	13	NA	NA	NA	NA	NA	NA	NA	NA	WildType	NA	NA	NA	NA	NA	NA	NA	NA	MT	0.690895	WildType	NA	NA	NA	NA	Unassigned	NA
403	WGC035509D	WGC035508D	403TRNA	403NRNA-2	squamous carcinoma	male	Han	65.01917808	III	"NA"	2b	2	0	yes	"NA"	NA	NA	surgery	14	NA	NA	NA	NA	NA	NA	NA	NA	WildType	NA	NA	NA	NA	NA	NA	NA	NA	WT	0.46739867	WildType	NA	NA	NA	NA	Unassigned	NA
404	WGC031069D	WGC031070D	404TRNA	404NRNA	squamous carcinoma	male	Han	72.01369863	I	"NA"	2a	0	0	yes	41	60	NA	surgery	13	NA	NA	NA	NA	NA	NA	NA	NA	WildType	NA	NA	NA	NA	NA	NA	NA	NA	MT	0.5934015	WildType	NA	NA	NA	NA	Unassigned	NA
405	WGC035511D	WGC035510D	405TRNA	405NRNA-2	squamous carcinoma	male	Han	60.39452055	III	"NA"	3	2	0	yes	51	70	NA	surgery	14	NA	NA	NA	NA	NA	NA	NA	NA	WildType	NA	NA	NA	NA	NA	NA	NA	NA	WT	0.541949	WildType	NA	NA	NA	NA	Unassigned	NA
406	WGC044553D	WGC044554D	406TRNA-2	406NRNA	squamous carcinoma	female	Han	67.43835616	I	"NA"	1a	0	0	yes	41	30	NA	surgery	19	NA	NA	NA	NA	NA	NA	NA	NA	WildType	NA	NA	NA	NA	NA	NA	NA	NA	WT	0.27339423	WildType	NA	NA	NA	NA	Unassigned	NA
420	WGC031084D	WGC031085D	420TRNA	420NRNA	squamous carcinoma	male	Han	70.1260274	III	"NA"	2b	2	0	yes	"NA"	UNK	NA	surgery	13	NA	NA	NA	NA	NA	NA	NA	NA	WildType	NA	NA	NA	NA	NA	NA	NA	NA	MT	0.4449631	WildType	NA	NA	NA	NA	Unassigned	NA
423	WGC031086D	WGC031087D	423TRNA	423NRNA	squamous carcinoma	male	Han	57.4630137	I	"NA"	2a	0	0	yes	41	30	NA	surgery	13	NA	NA	NA	NA	NA	NA	NA	NA	WildType	NA	NA	NA	NA	NA	NA	NA	NA	MT	0.6385527	WildType	NA	NA	NA	NA	Unassigned	NA
489	WGC062656D	WGC062657D	489TRNA	489NRNA	squamous carcinoma	male	Han	62.60821918	III	"NA"	2a	2	0	no	"NA"	NA	NA	surgery	22	NA	NA	NA	NA	NA	NA	NA	NA	WildType	NA	NA	NA	NA	NA	NA	NA	NA	MT	0.6877604	WildType	NA	NA	NA	NA	Unassigned	NA
1004	WGC016243N	WGC016241N	FCC4BRUACXX-HUMknuTBAERAAPEI-205_L1	FCC4KT6ACXX-HUMknuTBAFRAAPEI-206_L4	squamous carcinoma	male	Han	72.37534247	III	"NA"	2a	2	0	yes	50	NA	NA	surgery	4	NA	NA	NA	NA	NA	NA	NA	NA	WildType	NA	NA	NA	NA	NA	NA	NA	NA	MT	0.5842772	WildType	NA	NA	NA	NA	Unassigned	NA
1005	WGC016246N	WGC016244N	FCC4KT6ACXX-HUMknuTBAGRAAPEI-207_L4	FCC4KT6ACXX-HUMknuTBAHRAAPEI-208_L4	squamous carcinoma	male	Han	72.66575342	I	"NA"	2a	0	0	yes	40	20	yes	surgery	4	NA	NA	NA	NA	NA	NA	NA	NA	WildType	NA	NA	NA	NA	NA	NA	NA	NA	MT	0.6957061	WildType	NA	NA	NA	NA	Unassigned	NA
1010	WGC024477D	WGC018668D	01010TRNA	01010NRNA	squamous carcinoma	male	Han	75.1369863	I	"NA"	16	0	0	yes	60	40	NA	surgery	10	NA	NA	NA	NA	NA	NA	NA	NA	WildType	NA	NA	NA	NA	NA	NA	NA	NA	WT	0.38217553	WildType	NA	NA	NA	NA	Unassigned	NA
1011	WGC024478D	WGC018669D	01011TRNA	01011NRNA	squamous carcinoma	male	Han	52.29315068	II	"NA"	26	0	0	yes	40	NA	NA	surgery	10	NA	NA	NA	NA	NA	NA	NA	NA	WildType	NA	NA	NA	NA	NA	NA	NA	NA	WT	0.45071465	WildType	NA	NA	NA	NA	Unassigned	NA
1022	WGC021829N	WGC021830N	01022T	01022N	squamous carcinoma	male	Han	66.39726027	I	"NA"	2a	0	0	yes	47	20	NA	surgery	6	NA	NA	NA	NA	NA	NA	NA	NA	WildType	NA	NA	NA	NA	NA	NA	NA	NA	MT	0.33270505	WildType	NA	NA	NA	NA	Unassigned	NA
1058	WGC035471D	WGC035470D	01058TRNA	01058NRNA	squamous carcinoma	male	Han	63.48493151	III	"NA"	4	0	0	yes	30	20	NA	surgery	14	NA	NA	NA	NA	NA	NA	NA	NA	OtherEGFR	EGFR	Missense_Mutation	SNV	D855N	7	55259505	G	A	MT	0.502289	WildType	NA	NA	NA	NA	Unassigned	NA
1063	WGC040767D	WGC040768D	01063T	01063N	squamous carcinoma	male	Han	63.21917808	II	"NA"	2a	1	0	yes	40	20	NA	surgery	16	NA	NA	NA	NA	NA	NA	NA	NA	WildType	NA	NA	NA	NA	NA	NA	NA	NA	MT	0.6014684	WildType	NA	NA	NA	NA	Unassigned	NA
1067	WGC040769D	WGC040770D	01067T	01067N	squamous carcinoma	male	Han	66.93150685	II	"NA"	2b	0	0	yes	40	NA	NA	surgery	16	NA	NA	NA	NA	NA	NA	NA	NA	WildType	NA	NA	NA	NA	NA	NA	NA	NA	WT	0.44627556	WildType	NA	NA	NA	NA	Unassigned	NA
1068	WGC040771D	WGC040772D	01068T	01068N	squamous carcinoma	male	Han	61.29863014	III	"NA"	3	1	0	yes	40	20	NA	surgery	16	NA	NA	NA	NA	NA	NA	NA	NA	WildType	NA	NA	NA	NA	NA	NA	NA	NA	MT	0.6497096	WildType	NA	NA	NA	NA	Unassigned	NA
2004	WGC013674NB	WGC013676NB	02004T	02004N	squamous carcinoma	male	Han	63.36986301	II	"NA"	2	0	0	yes	40	20	NA	surgery	1	NA	NA	NA	NA	NA	NA	NA	NA	WildType	NA	NA	NA	NA	NA	NA	NA	NA	MT	0.5026933	WildType	NA	NA	NA	NA	Unassigned	NA
2005	WGC013821N	WGC013822N	02005T	02005N	squamous carcinoma	male	Han	66.33424658	II	"NA"	1	2	0	yes	40	40	NA	surgery	1	NA	NA	NA	NA	NA	NA	NA	NA	WildType	NA	NA	NA	NA	NA	NA	NA	NA	MT	0.45788673	WildType	NA	NA	NA	NA	Unassigned	NA
2006	WGC014037N	WGC014038N	02006T1B	02006N1B	squamous carcinoma	male	Han	54.89041096	II	"NA"	2	0	0	yes	30	40	NA	surgery	1	NA	NA	NA	NA	NA	NA	NA	NA	WildType	NA	NA	NA	NA	NA	NA	NA	NA	MT	0.7000507	WildType	NA	NA	NA	NA	Unassigned	NA
2007	WGC014113N	WGC014114N	02007T1B	02007N1B	squamous carcinoma	male	Han	59.86575342	II	"NA"	2	0	0	yes	40	40	NA	surgery	2	NA	NA	NA	NA	NA	NA	NA	NA	WildType	NA	NA	NA	NA	NA	NA	NA	NA	MT	0.52357227	WildType	NA	NA	NA	NA	Unassigned	NA
2009	WGC015681N	WGC015682N	02009T1A	02009N1A	squamous carcinoma	male	Han	57.34794521	I	"NA"	2	0	0	yes	20	20	NA	surgery	3	NA	NA	NA	NA	NA	NA	NA	NA	WildType	NA	NA	NA	NA	NA	NA	NA	NA	WT	0.27915218	WildType	NA	NA	NA	NA	Unassigned	NA
2010	WGC017539N	WGC017540N	02010T1A	02010N1A	squamous carcinoma	male	Han	68.87945205	II	"NA"	2b	1	0	yes	40	40	NA	surgery	4	NA	NA	NA	NA	NA	NA	NA	NA	WildType	NA	NA	NA	NA	NA	NA	NA	NA	MT	0.6892295	WildType	NA	NA	NA	NA	Unassigned	NA
2015	WGC018780N	WGC018781N	02015T1A	02015N1A	squamous carcinoma	male	Han	67.70136986	I	"NA"	1b	0	0	yes	30	20	NA	surgery	7	NA	NA	NA	NA	NA	NA	NA	NA	WildType	NA	NA	NA	NA	NA	NA	NA	NA	MT	0.4028299	WildType	NA	NA	NA	NA	Unassigned	NA
2028	WGC023368D	WGC023369D	02028T1A	02028N1A	squamous carcinoma	male	Han	63.86027397	III	"NA"	3	1	0	yes	30	20	NA	surgery	22	NA	NA	NA	NA	NA	NA	NA	NA	WildType	NA	NA	NA	NA	NA	NA	NA	NA	MT	0.6512392	WildType	NA	NA	NA	NA	Unassigned	NA
2031	WGC024377D	WGC024378D	02031T1A	02031N1A	squamous carcinoma	male	Han	55.95890411	II	"NA"	1b	0	0	yes	40	20	NA	surgery	22	NA	NA	NA	NA	NA	NA	NA	NA	WildType	NA	NA	NA	NA	NA	NA	NA	NA	MT	0.4016362	WildType	NA	NA	NA	NA	Unassigned	NA
2033	WGC033152D	WGC033153D	02033TA	02033NA	squamous carcinoma	male	Han	61.75342466	I	"NA"	2a	0	0	yes	31	20	NA	surgery	22	NA	NA	NA	NA	NA	NA	NA	NA	OtherEGFR	EGFR	stop_gained	SNV	K346*	7	55224255	A	T	MT	0.517752	WildType	NA	NA	NA	NA	Unassigned	NA
2034	WGC035380D	WGC035381D	02034T1A	02034N1A	squamous carcinoma	male	Han	68.39726027	II	"NA"	2b	0	0	yes	31	60	NA	surgery	17	NA	NA	NA	NA	NA	NA	NA	NA	WildType	NA	NA	NA	NA	NA	NA	NA	NA	MT	0.6410683	WildType	NA	NA	NA	NA	Unassigned	NA
2036	WGC040031D	WGC040032D	02036T1A	02036N1A	squamous carcinoma	male	Han	68.66849315	I	"NA"	2	0	0	yes	40	40	NA	surgery	17	NA	NA	NA	NA	NA	NA	NA	NA	OtherEGFR	EGFR	Missense_Mutation	SNV	G901R	7	55260534	G	A	WT	0.48098806	WildType	NA	NA	NA	NA	Unassigned	NA
2037	WGC040461D	WGC040462D	02037T1A	02037N1A	squamous carcinoma	male	Han	58.20547945	I	"NA"	2a	0	0	yes	31	40	NA	surgery	17	NA	NA	NA	NA	NA	NA	NA	NA	WildType	NA	NA	NA	NA	NA	NA	NA	NA	WT	0.28307384	WildType	NA	NA	NA	NA	Unassigned	NA
3001	WGC013931N	WGC013932N	03001T	03001N	squamous carcinoma	male	Han	63.70410959	I	"NA"	2a	0	0	yes	30	20	NA	surgery	1	NA	NA	NA	NA	NA	NA	NA	NA	WildType	NA	NA	NA	NA	NA	NA	NA	NA	MT	0.582988	WildType	NA	NA	NA	NA	Unassigned	NA
3005	WGC014935N	WGC014936N	03005T1A	03005N1A	squamous carcinoma	male	Han	61.48493151	I	"NA"	1b	0	0	yes	40	20	NA	surgery	2	NA	NA	NA	NA	NA	NA	NA	NA	WildType	NA	NA	NA	NA	NA	NA	NA	NA	MT	0.45361137	WildType	NA	NA	NA	NA	Unassigned	NA
3007	WGC015376N	WGC015377N	03007T1A	03007N1A	squamous carcinoma	male	Han	41.65205479	IV	"NA"	2b	2	1	yes	21	20	NA	surgery	3	NA	NA	NA	NA	NA	NA	NA	NA	WildType	NA	NA	NA	NA	NA	NA	NA	NA	MT	0.487015	WildType	NA	NA	NA	NA	Unassigned	NA
3009	WGC015769N	WGC015770N	03009T1A	03009N1A	squamous carcinoma	male	Han	65.87945205	III	"NA"	2b	2	0	yes	50	20	NA	surgery	3	NA	NA	NA	NA	NA	NA	NA	NA	WildType	NA	NA	NA	NA	NA	NA	NA	NA	WT	0.7049385	WildType	NA	NA	NA	NA	Unassigned	NA
3010	WGC016227N	WGC016228N	03010T1A	03010N1A	squamous carcinoma	male	Han	57.37260274	II	"NA"	3	0	0	yes	20	20	NA	surgery	3	NA	NA	NA	NA	NA	NA	NA	NA	WildType	NA	NA	NA	NA	NA	NA	NA	NA	MT	0.6489038	WildType	NA	NA	NA	NA	Unassigned	NA
3016	WGC018948N	WGC018949N	03020T1A	03020N1A	squamous carcinoma	male	Han	59.85753425	I	"NA"	2	0	0	yes	40	20	yes	surgery	5	NA	NA	NA	NA	NA	NA	NA	NA	OtherEGFR	EGFR	Silent	SNV	T1046	7	55269451	C	T	MT	0.6278337	WildType	NA	NA	NA	NA	Unassigned	NA
3018	WGC018956N	WGC018957N	03022T1A	03022N1A	squamous carcinoma	NA	Other	62.97808219	I	"NA"	2a	0	0	yes	40	40	NA	surgery	5	NA	NA	NA	NA	NA	NA	NA	NA	WildType	NA	NA	NA	NA	NA	NA	NA	NA	MT	0.7334336	WildType	NA	NA	NA	NA	Unassigned	NA
3021	WGC019681N	WGC019682N	06013T1A	06013N1A	squamous carcinoma	male	Han	49.59726027	III	"NA"	4	1	0	yes	20	20	NA	surgery	5	NA	NA	NA	NA	NA	NA	NA	NA	WildType	NA	NA	NA	NA	NA	NA	NA	NA	MT	0.68556803	WildType	NA	NA	NA	NA	Unassigned	NA
3023	WGC020125D	WGC020126D	FCC5781ACXX-WHHUMexgEAAFRAAPEI-209_L2	FCC5781ACXX-WHHUMexgEAAERAAPEI-208_L1	squamous carcinoma	male	Han	61.81643836	I	"NA"	2	0	0	yes	30	20	NA	surgery	8	NA	NA	NA	NA	NA	NA	NA	NA	WildType	NA	NA	NA	NA	NA	NA	NA	NA	MT	0.46484566	WildType	NA	NA	NA	NA	Unassigned	NA
3027	WGC022268D	WGC022269D	03027T1A_FCC5775ACXX_L6_WHHUMjyqEAAFRAAPEI-213	03027N1A_FCC4LYLACXX_L7_WHHUMjyqEAAERAAPEI-212	squamous carcinoma	male	Han	70.17260274	II	"NA"	2	0	0	yes	40	40	NA	surgery	9	NA	NA	NA	NA	NA	NA	NA	NA	WildType	NA	NA	NA	NA	NA	NA	NA	NA	WT	0.3831747	WildType	NA	NA	NA	NA	Unassigned	NA
3030	WGC023703D	WGC023704D	03030T1A	03030N1A	squamous carcinoma	male	Han	72.37260274	II	"NA"	2	2	0	yes	40	40	NA	surgery	10	NA	NA	NA	NA	NA	NA	NA	NA	WildType	NA	NA	NA	NA	NA	NA	NA	NA	MT	0.557982	WildType	NA	NA	NA	NA	Unassigned	NA
3031	WGC023785D	WGC023786D	03031T1A	03031N1A	squamous carcinoma	male	Han	56.01369863	I	"NA"	2a	0	0	yes	40	20	yes	surgery	10	NA	NA	NA	NA	NA	NA	NA	NA	WildType	NA	NA	NA	NA	NA	NA	NA	NA	MT	0.38742754	WildType	NA	NA	NA	NA	Unassigned	NA
3033	WGC024607D	WGC024608D	03033TA	03033NA	squamous carcinoma	male	Han	57.24657534	II	"NA"	2a	1	0	yes	38	30	NA	surgery	12	NA	NA	NA	NA	NA	NA	NA	NA	WildType	NA	NA	NA	NA	NA	NA	NA	NA	MT	0.7049152	WildType	NA	NA	NA	NA	Unassigned	NA
3034	WGC028332D	WGC028333D	03034TA	03034NA	squamous carcinoma	male	Han	58.10136986	II	"NA"	2	0	0	yes	20	40	NA	surgery	22	NA	NA	NA	NA	NA	NA	NA	NA	WildType	NA	NA	NA	NA	NA	NA	NA	NA	MT	0.86290354	WildType	NA	NA	NA	NA	Unassigned	NA
3036	WGC034042D	WGC034043D	03036T1A	03036N1A	squamous carcinoma	male	Han	61.76986301	III	"NA"	4	2	0	yes	30	20	NA	surgery	15	NA	NA	NA	NA	NA	NA	NA	NA	WildType	NA	NA	NA	NA	NA	NA	NA	NA	WT	0.6590558	WildType	NA	NA	NA	NA	Unassigned	NA
3055	WGC046126D	WGC046127D	03055T1A	03055N1B	squamous carcinoma	male	Han	67.42739726	II	"NA"	2	0	0	no	"NA"	NA	NA	surgery	20	NA	NA	NA	NA	NA	NA	NA	NA	WildType	NA	NA	NA	NA	NA	NA	NA	NA	WT	0.3645577	WildType	NA	NA	NA	NA	Unassigned	NA
4003	WGC014204N	WGC014205N	04003T1B	04003N1B	squamous carcinoma	male	Han	66.07671233	III	"NA"	3	2	0	yes	40	20	NA	surgery	2	NA	NA	NA	NA	NA	NA	NA	NA	WildType	NA	NA	NA	NA	NA	NA	NA	NA	MT	0.31356284	WildType	NA	NA	NA	NA	Unassigned	NA
4004	WGC018338N	WGC018339N	03016T1A	03016N1A	squamous carcinoma	male	Han	62.03561644	II	"NA"	2	1	0	yes	40	20	NA	surgery	6	NA	NA	NA	NA	NA	NA	NA	NA	WildType	NA	NA	NA	NA	NA	NA	NA	NA	MT	0.7482279	WildType	NA	NA	NA	NA	Unassigned	NA
4005	WGC018607N	WGC018608N	03017T1A	03017N1A	squamous carcinoma	male	Han	62.38356164	II	"NA"	2a	1	0	yes	41	40	NA	surgery	6	NA	NA	NA	NA	NA	NA	NA	NA	WildType	NA	NA	NA	NA	NA	NA	NA	NA	MT	0.6404092	WildType	NA	NA	NA	NA	Unassigned	NA
4008	WGC019688D	WGC019689D	FCC5781ACXX-WHHUMexgEAADRAAPEI-207_L1	FCC5781ACXX-WHHUMexgEAACRAAPEI-206_L1	squamous carcinoma	male	Han	49.58082192	I	"NA"	2	0	0	yes	20	20	NA	surgery	8	NA	NA	NA	NA	NA	NA	NA	NA	WildType	NA	NA	NA	NA	NA	NA	NA	NA	MT	0.653092	WildType	NA	NA	NA	NA	Unassigned	NA
4009	WGC021310D	WGC021311D	04009T1A_FCC4LYLACXX_L7_WHHUMjyqEAABRAAPEI-209	04009N1A_FCC4LYLACXX_L7_WHHUMjyqEAAARAAPEI-208	squamous carcinoma	male	Han	59.96438356	III	"NA"	3	2	0	yes	50	20	NA	surgery	9	NA	NA	NA	NA	NA	NA	NA	NA	WildType	NA	NA	NA	NA	NA	NA	NA	NA	MT	0.71598566	WildType	NA	NA	NA	NA	Unassigned	NA
4011	WGC024460D	WGC024461D	04011T1A	04011N1A	squamous carcinoma	male	Han	51.30410959	II	"NA"	3	0	0	yes	30	30	NA	surgery	11	NA	NA	NA	NA	NA	NA	NA	NA	WildType	NA	NA	NA	NA	NA	NA	NA	NA	WT	0.30494884	WildType	NA	NA	NA	NA	Unassigned	NA
4012	WGC024464D	WGC024465D	04012T1A	04012N1A	squamous carcinoma	male	Han	65.95068493	II	"NA"	3	0	0	yes	50	40	NA	surgery	11	NA	NA	NA	NA	NA	NA	NA	NA	WildType	NA	NA	NA	NA	NA	NA	NA	NA	WT	0.31551656	WildType	NA	NA	NA	NA	Unassigned	NA
5008	WGC020025N	WGC020026N	03018T1A	03018N1A	squamous carcinoma	male	Han	58.04109589	II	"NA"	3	0	0	yes	30	60	NA	surgery	5	NA	NA	NA	NA	NA	NA	NA	NA	WildType	NA	NA	NA	NA	NA	NA	NA	NA	MT	0.78003632999999994	WildType	NA	NA	NA	NA	Unassigned	NA
5014	WGC022936D	WGC022937D	FCC5781ACXX-WHHUMexgEAANRAAPEI-218_L3	FCC5781ACXX-WHHUMexgEAAMRAAPEI-216_L3	squamous carcinoma	male	Han	59.74520548	II	"NA"	2b	0	0	yes	31	40	NA	surgery	9	NA	NA	NA	NA	NA	NA	NA	NA	WildType	NA	NA	NA	NA	NA	NA	NA	NA	WT	0.6902531	WildType	NA	NA	NA	NA	Unassigned	NA
5015	WGC024236D	WGC024237D	05015T1A	05015N1A	squamous carcinoma	male	Han	67.12328767	III	"NA"	2b	2	0	yes	47	20	NA	surgery	12	NA	NA	NA	NA	NA	NA	NA	NA	WildType	NA	NA	NA	NA	NA	NA	NA	NA	MT	0.7300747	WildType	NA	NA	NA	NA	Unassigned	NA
5016	WGC024341D	WGC024342D	05016T1A	05016N1A	squamous carcinoma	male	Han	77.41369863	II	"NA"	1	0	0	yes	50	30	NA	surgery	12	NA	NA	NA	NA	NA	NA	NA	NA	WildType	NA	NA	NA	NA	NA	NA	NA	NA	MT	0.6175075	WildType	NA	NA	NA	NA	Unassigned	NA
5018	WGC027610D	WGC027611D	05018TA	05018NA	squamous carcinoma	male	Han	74.52054795	II	"NA"	3	0	0	yes	50	20	NA	surgery	12	NA	NA	NA	NA	NA	NA	NA	NA	WildType	NA	NA	NA	NA	NA	NA	NA	NA	MT	0.72612923	WildType	NA	NA	NA	NA	Unassigned	NA
5021	WGC034864D	WGC034865D	05021T1A	05021N1A	squamous carcinoma	male	Han	65.28493151	III	"NA"	3	2	0	yes	20	20	NA	surgery	18	NA	NA	NA	NA	NA	NA	NA	NA	WildType	NA	NA	NA	NA	NA	NA	NA	NA	WT	0.36704025	WildType	NA	NA	NA	NA	Unassigned	NA
6001	WGC017790N	WGC017791N	06001T1A	06001N1A	squamous carcinoma	male	Han	50.35068493	I	"NA"	1	0	0	yes	30	30	NA	surgery	4	NA	NA	NA	NA	NA	NA	NA	NA	WildType	NA	NA	NA	NA	NA	NA	NA	NA	WT	0.29235813	WildType	NA	NA	NA	NA	Unassigned	NA
6002	WGC017941N	WGC017942N	06002T1A	06002N1A	squamous carcinoma	male	Han	64.96712329	I	"NA"	1	0	0	yes	40	50	NA	surgery	4	NA	NA	NA	NA	NA	NA	NA	NA	WildType	NA	NA	NA	NA	NA	NA	NA	NA	MT	0.77879846	WildType	NA	NA	NA	NA	Unassigned	NA
6003	WGC018197D	WGC018198D	FCC5781ACXX-WHHUMexgEAABRAAPEI-205_L1	FCC5781ACXX-WHHUMexgEAAARAAPEI-203_L1	squamous carcinoma	male	Han	58.63013699	I	"NA"	1	0	0	yes	40	20	NA	surgery	8	NA	NA	NA	NA	NA	NA	NA	NA	WildType	NA	NA	NA	NA	NA	NA	NA	NA	MT	0.6433972	WildType	NA	NA	NA	NA	Unassigned	NA
6005	WGC018787D	WGC018788D	06005T1A	06005N1A	squamous carcinoma	male	Han	58.30958904	II	"NA"	2	1	0	yes	40	40	NA	surgery	12	NA	NA	NA	NA	NA	NA	NA	NA	WildType	NA	NA	NA	NA	NA	NA	NA	NA	MT	0.47016326	WildType	NA	NA	NA	NA	Unassigned	NA
6008	WGC019121N	WGC019122N	04004T1A	04004N1A	squamous carcinoma	male	Han	65.48219178	I	"NA"	2	0	0	yes	50	80	NA	surgery	5	NA	NA	NA	NA	NA	NA	NA	NA	WildType	NA	NA	NA	NA	NA	NA	NA	NA	MT	0.44718385	WildType	NA	NA	NA	NA	Unassigned	NA
6009	WGC019125N	WGC019126N	04005T1A	04005N1A	squamous carcinoma	male	Han	63.19178082	II	"NA"	1	1	0	yes	30	20	NA	surgery	5	NA	NA	NA	NA	NA	NA	NA	NA	WildType	NA	NA	NA	NA	NA	NA	NA	NA	MT	0.26222607	WildType	NA	NA	NA	NA	Unassigned	NA
6010	WGC019129N	WGC019130N	06008T1A	06008N1A	squamous carcinoma	male	Han	61.28219178	I	"NA"	2	0	0	yes	40	40	yes	surgery	5	NA	NA	NA	NA	NA	NA	NA	NA	WildType	NA	NA	NA	NA	NA	NA	NA	NA	MT	0.49854678	WildType	NA	NA	NA	NA	Unassigned	NA
6013	WGC020115N	WGC020116N	06009T1A	06009N1A	squamous carcinoma	male	Han	60.69315068	III	"NA"	2	2	0	yes	40	20	NA	surgery	5	EGFR	disruptive_In_Frame_Del	INDEL	KELREA745K	7	55242464	AGGAATTAAGAGAAGC	A	Exon19_Del	NA	NA	NA	NA	NA	NA	NA	NA	MT	0.3943406	Mutant	NA	NA	NA	NA	Unassigned	NA
6014	WGC020119N	WGC020120N	06010T1A	06010N1A	squamous carcinoma	male	Han	75.30410959	II	"NA"	2	0	0	yes	40	20	NA	surgery	5	EGFR	Missense_Mutation	SNV	L858R	7	55259515	T	G	L858R	NA	NA	NA	NA	NA	NA	NA	NA	WT	0.52951294	Mutant	NA	NA	NA	NA	Unassigned	NA
6020	WGC021810N	WGC021811N	FCC4TD6ACXX-WHHUMqhnTAAFRAAPEI-208_L3	FCC4TD6ACXX-WHHUMqhnTAAERAAPEI-207_L3	squamous carcinoma	male	Han	58.52876712	I	"NA"	2a	0	0	yes	48	60	NA	surgery	7	NA	NA	NA	NA	NA	NA	NA	NA	WildType	NA	NA	NA	NA	NA	NA	NA	NA	MT	0.26592588	WildType	NA	NA	NA	NA	Unassigned	NA
6022	WGC021818D	WGC021819D	06022T1A_FCC4LYLACXX_L7_WHHUMjyqEAADRAAPEI-211	06022N1A_FCC4LYLACXX_L7_WHHUMjyqEAACRAAPEI-210	squamous carcinoma	male	Han	63.35616438	II	"NA"	3	0	0	yes	40	20	NA	surgery	9	NA	NA	NA	NA	NA	NA	NA	NA	WildType	NA	NA	NA	NA	NA	NA	NA	NA	MT	0.6608891	WildType	NA	NA	NA	NA	Unassigned	NA
6024	WGC022065N	WGC022066N	FCC4U18ACXX-WHHUMqhnTAAJRAAPEI-212_L7	FCC4TRWACXX-WHHUMqhnTAAIRAAPEI-211_L6	squamous carcinoma	male	Han	53.96712329	II	"NA"	2a	1	0	yes	40	20	NA	surgery	7	NA	NA	NA	NA	NA	NA	NA	NA	WildType	NA	NA	NA	NA	NA	NA	NA	NA	MT	0.71029377	WildType	NA	NA	NA	NA	Unassigned	NA
6027	WGC022168N	WGC022169N	FCC4U18ACXX-WHHUMqhnTAANRAAPEI-216_L7	FCC4TRWACXX-WHHUMqhnTAAMRAAPEI-215_L6	squamous carcinoma	male	Other	63.7369863	I	"NA"	2a	0	0	yes	40	20	NA	surgery	7	NA	NA	NA	NA	NA	NA	NA	NA	WildType	NA	NA	NA	NA	NA	NA	NA	NA	WT	0.26015314	WildType	NA	NA	NA	NA	Unassigned	NA
6028	WGC022172N	WGC022173N	FCC4TD6ACXX-WHHUMqhnTAAPRAAPEI-219_L3	FCC4TD6ACXX-WHHUMqhnTAAORAAPEI-218_L3	squamous carcinoma	male	Han	77.57260274	I	"NA"	2a	0	0	yes	40	10	NA	surgery	7	NA	NA	NA	NA	NA	NA	NA	NA	WildType	NA	NA	NA	NA	NA	NA	NA	NA	MT	0.694339	WildType	NA	NA	NA	NA	Unassigned	NA
6033	WGC023713D	WGC023714D	06033T1A_FCC5775ACXX_L6_WHHUMjyqEAAJRAAPEI-218	06033N1A_FCC5775ACXX_L6_WHHUMjyqEAAIRAAPEI-216	squamous carcinoma	male	Han	53.14794521	II	"NA"	2b	0	0	yes	40	40	NA	surgery	9	NA	NA	NA	NA	NA	NA	NA	NA	WildType	NA	NA	NA	NA	NA	NA	NA	NA	MT	0.73603547	WildType	NA	NA	NA	NA	Unassigned	NA
6034	WGC023717D	WGC023718D	06034T1A	06034N1A	squamous carcinoma	female	Han	64.14794521	I	"NA"	1a	0	0	yes	40	20	NA	surgery	10	NA	NA	NA	NA	NA	NA	NA	NA	WildType	NA	NA	NA	NA	NA	NA	NA	NA	MT	0.75685500000000006	WildType	NA	NA	NA	NA	Unassigned	NA
6037	WGC024440D	WGC024441D	06037T1A	06037N1A	squamous carcinoma	male	Han	63.46027397	I	"NA"	2a	0	0	yes	45	30	NA	surgery	11	NA	NA	NA	NA	NA	NA	NA	NA	WildType	NA	NA	NA	NA	NA	NA	NA	NA	WT	0.7016703	WildType	NA	NA	NA	NA	Unassigned	NA
6053	WGC030420D	WGC030421D	06053TA	06053NA	squamous carcinoma	male	Han	55.37808219	II	"NA"	2a	1	0	yes	39	20	NA	surgery	22	NA	NA	NA	NA	NA	NA	NA	NA	WildType	NA	NA	NA	NA	NA	NA	NA	NA	MT	0.50724405	WildType	NA	NA	NA	NA	Unassigned	NA
6055	WGC033479D	WGC033480D	06055TA	06055NA	squamous carcinoma	female	Han	72.89315068	I	"NA"	1a	0	0	yes	50	10	NA	surgery	22	NA	NA	NA	NA	NA	NA	NA	NA	WildType	NA	NA	NA	NA	NA	NA	NA	NA	MT	0.6196285	WildType	NA	NA	NA	NA	Unassigned	NA
6057	WGC036542D	WGC036543D	06057T1A	06057N1A	squamous carcinoma	male	Han	70.35068493	II	"NA"	2a	1	0	no	"NA"	NA	NA	surgery	15	NA	NA	NA	NA	NA	NA	NA	NA	WildType	NA	NA	NA	NA	NA	NA	NA	NA	MT	0.60580784	WildType	NA	NA	NA	NA	Unassigned	NA
6058	WGC036546D	WGC036547D	06058T1A	06058N1A	squamous carcinoma	male	Han	66.805479450000007	I	"NA"	2a	0	0	yes	37	15	NA	surgery	15	NA	NA	NA	NA	NA	NA	NA	NA	WildType	NA	NA	NA	NA	NA	NA	NA	NA	MT	0.46134883	WildType	NA	NA	NA	NA	Unassigned	NA
6059	WGC036550D	WGC036551D	06059T1A	06059N1A	squamous carcinoma	female	Han	65.7260274	III	"NA"	2a	2	0	yes	40	10	NA	surgery	15	EGFR	Missense_Mutation	SNV	L858R	7	55259515	T	G	L858R	NA	NA	NA	NA	NA	NA	NA	NA	MT	0.46800953	Mutant	NA	NA	NA	NA	Unassigned	NA
