Tumor_Sample_Barcode	GEP
GSK001	0.37786496921718615
GSK002	-0.021353478775159085
GSK003	-0.543110761293718
GSK004	0.7730977414714891
GSK005	-0.24222517293668433
GSK006	0.5192679477545428
GSK008	-1.201371112417253
GSK009	-0.7396490967270529
GSK010	-0.26314210842483826
GSK011	0.3937230512434382
GSK012	0.13507411905492742
GSK013	-0.2715986680731416
GSK014	0.7292378144887482
GSK015	-0.8392884000977715
GSK016	-0.5620113032082371
GSK017	0.49155684590744153
GSK018	-1.1778029983687914
GSK019	0.09844393227809105
GSK020	-1.4707825622518051
GSK021	0.14433816972613506
GSK022	-0.9761048454668764
GSK023	0.0529798530290595
GSK024	1.0359280813119884
GSK025	-1.60303603025456
GSK026	-0.1941410474867476
GSK027	0.8059544950475068
GSK028	-0.10394533500880704
GSK029	0.009302909307113055
GSK030	-0.15553361065048474
GSK031	-0.7111746511036601
GSK032	-0.1667707532353406
GSK033	0.27457325451737236
GSK034	-0.5221872182340173
GSK035	-0.42063341724037245
GSK036	1.3576901635718936
GSK037	-1.5556916895129622
GSK038	-0.7835770550768003
GSK039	0.05301016210419421
GSK040	-0.5147874873475188
GSK050	-0.9503434236541298
GSK051	0.8903546760936694
GSK052	1.2106797409034105
GSK053	-0.3585074460003206
GSK054	1.6803315674046444
GSK055	5.896373326796378e-4
GSK057	-1.176421105692643
GSK058	-2.0255386236489
GSK060	-1.2961487177808464
GSK061	-1.7919070261762144
GSK062	-0.3991955232836046
GSK064	-0.4262319657263868
GSK065	-2.312156080751146
GSK066	-1.8515864364287526
GSK067	0.27818827668955093
GSK073	0.21698896175446197
GSK074	-0.8416318697009337
GSK075	-0.0958176844075847
GSK076	-0.6744790745849185
GSK077	-0.5222783156427323
GSK078	-0.08676761026805607
GSK079	0.5199782521197567
GSK080	0.3507584661876091
GSK081	0.6248013649737885
GSK082	0.18948940002876039
GSK083	-0.0231740598358319
GSK084	-1.2375313221734112
GSK085	0.7116964323233623
GSK086	0.38307067607701384
GSK087	-1.355630298966821
GSK088	-0.5856289679941858
GSK089	-0.05251339200900143
GSK090	-0.2645577689623404
GSK091	0.15853222030507857
GSK092	-1.3356439898634305
GSK093	0.11364960433870563
GSK094	-0.6963912881425215
GSK095	-0.6364534140820961
GSK096	-0.042874447224176215
GSK097	0.4013103616976567
GSK098	0.3713023438676943
GSK099	-0.6379691794489802
GSK100	1.2160107247787124
GSK202	-1.2718266166001004
GSK203	-2.469667733955453
GSK204	-0.3315075476955659
GSK205	-0.48898601746446546
GSK206	1.628471603260832
GSK207	-1.5029033802512548
GSK209	-1.0911755108627945
GSK210	-1.8012846138526444
GSK211	-0.6477493678955044
GSK212	-0.8285995579033523
GSK213	0.06640294487636561
GSK214	-0.681137107001764
GSK216	-1.3358964791399326
GSK218	-1.560829777148372
GSK222	-1.0739786231054491
GSK224	-1.376657821124807
GSK225	-0.4690024515675315
GSK226	-0.12338402550260391
GSK227	0.7981141427051144
GSK228	-1.3299532296641448
GSK229	-0.24280507145625005
GSK230	-1.0746563899698682
GSK231	1.0260392495686586
GSK232	-0.07496835564895517
GSK233	-0.0955424581323813
GSK234	0.14952617625772016
GSK235	-0.350496590968554
GSK236	-0.6450809892834871
GSK237	0.8534269773209826
GSK238	-0.5643122021577771
GSK239	-1.4956153295659207
GSK240	0.1646806507969788
GSK242	-0.7434977641730398
GSK243	-0.16007237862887033
GSK244	-0.29536009013130515
GSK245	-0.5642130890392036
GSK246	-0.7482855554806307
GSK247	-0.7961175099012734
GSK248	0.071625142390982
GSK249	-0.4956748214636773
GSK250	-1.0897445367318976
GSK251	-0.43611067351481736
GSK252	-2.7373760533708147
GSK254	-0.13431410324159682
GSK257	-0.06624466171019056
GSK258	-0.16246141973147388
GSK259	-1.5327518242071332
GSK261	0.09756961975622602
GSK262	0.530627395031571
GSK265	0.17788057353751724
GSK268	1.0887280431328605
GSK269	1.2407800886637435
GSK272	-0.588819397442709
GSK273	0.4604381935097843
GSK277	-1.1937327160095086
GSK278	-0.4845786726851603
GSK279	-0.7307850629968344
GSK280	-0.2780405303222526
GSK281	-1.3638286217598532
GSK282	-0.665482784224199
GSK283	-0.5424626674513046
GSK284	-1.6970274689668072
GSK285	-1.4450692931960534
GSK286	-0.4699334482928006
GSK287	0.5710025086247124
GSK288	0.29085816240248186
GSK292	0.7492964869089576
GSK293	0.8823382711752232
GSK294	-2.070989545456261
GSK297	0.1583469021272954
GSK299	-0.9027092136747352
GSK301	-1.2013385172410997
GSK302	-1.4966938469144202
GSK303	-0.3680097902037646
GSK304	-0.8016639171716616
GSK305	0.05446323008097595
GSK306	-1.6809146914190412
GSK307	0.34689484690115713
GSK308	0.3443956276337964
GSK309	-0.8283199901477073
GSK310	0.9945239022108414
GSK311	0.05959651461856588
GSK312	0.5422060281063725
GSK313	-0.4850394574722424
GSK314	-0.9522520990819701
GSK315	-0.1919235053703954
GSK316	0.8365354354635137
GSK317	0.4990159782680627
GSK318	-0.17686580063838545
