Patient.ID	EGFR	EGFRmut	Purity	Ploidy	Smoker	Stage	Exon19	L858R	OtherEGFR	OS_Month	OS_Status	GD	bronchioid	magnoid	squamoid	subtype_wilkerson	event_3q
BGI-EX01	WildType/NonAct	WildType	0.24	4.7	Yes	III	No	No	No	20	Alive	Yes	NA	NA	NA	NA	Amp
BGI-EX02	Mutant	L858R	0.17	4.7	No	III	No	Yes	No	13	Alive	Yes	NA	NA	NA	NA	Neutral
BGI-EX03	WildType/NonAct	WildType	0.14	5.3	Yes	III	No	No	No	12	Alive	Yes	NA	NA	NA	NA	Amp
BGI-EX04	Mutant	Exon19	0.3	3.5	No	III	Del	No	No	6	Alive	Yes	NA	NA	NA	NA	Amp
BGI-EX05	WildType/NonAct	WildType	0.13	5.7	Yes	III	No	No	No	4	Dead	Yes	NA	NA	NA	NA	Neutral
BGI-EX06	WildType/NonAct	WildType	0.58	2.3	Yes	I	No	No	No	17	Alive	No	NA	NA	NA	NA	Neutral
BGI-EX07	WildType/NonAct	WildType	0.16	2.4	Yes	II	No	No	No	17	Alive	Yes	NA	NA	NA	NA	Neutral
BGI-EX08	WildType/NonAct	WildType	0.23	4.1	Yes	IV	No	No	No	16	Alive	Yes	NA	NA	NA	NA	Amp
BGI-EX09	WildType/NonAct	WildType	0.3	3.7	Yes	III	No	No	No	13	Dead	Yes	NA	NA	NA	NA	Del
BGI-RS01	WildType/NonAct	WildType	0.16	3.3	No	III	No	No	No	37	Dead	Yes	NA	NA	NA	NA	Neutral
BGI-RS02	WildType/NonAct	OtherEGFR	0.22	3.9	No	III	No	No	p.S768I;p.V774M;p.S768I;p.V774M	23	Dead	Yes	NA	NA	NA	NA	Neutral
BGI-RS03	WildType/NonAct	WildType	0.17	5.3	Yes	III	No	No	No	67	Alive	Yes	NA	NA	NA	NA	Neutral
BGI-RS04	WildType/NonAct	WildType	0.25	2	Yes	III	No	No	No	50	Dead	No	NA	NA	NA	NA	Neutral
BGI-RS05	WildType/NonAct	WildType	0.16	2.6	Yes	III	No	No	No	26	Dead	Yes	NA	NA	NA	NA	Amp
BGI-RS06	WildType/NonAct	WildType	0.16	4.3	Yes	III	No	No	No	59	Alive	Yes	NA	NA	NA	NA	Neutral
BGI-RS07	WildType/NonAct	WildType	0.18	3	No	III	No	No	No	6	Dead	Yes	NA	NA	NA	NA	Neutral
BGI-RS08	WildType/NonAct	WildType	0.14	2.6	No	III	No	No	No	65	Alive	No	NA	NA	NA	NA	Neutral
BGI-RS09	WildType/NonAct	WildType	0.12	5.1	No	IV	No	No	No	12	Dead	Yes	NA	NA	NA	NA	Neutral
BGI-RS10	WildType/NonAct	WildType	0.18	5.9	No	III	No	No	No	20	Dead	Yes	NA	NA	NA	NA	Neutral
BGI-RS11	WildType/NonAct	WildType	0.16	3.6	No	III	No	No	No	61	Alive	Yes	NA	NA	NA	NA	Neutral
BGI-RS12	WildType/NonAct	WildType	0.19	3.3	No	III	No	No	No	66	Alive	Yes	NA	NA	NA	NA	Neutral
BGI-RS13	WildType/NonAct	OtherEGFR	0.18	2.9	No	IV	No	No	p.E548Q	29	Dead	No	NA	NA	NA	NA	Amp
BGI-RS14	WildType/NonAct	WildType	0.31	5.2	Yes	III	No	No	No	60	Dead	Yes	NA	NA	NA	NA	Del
BGI-RS15	WildType/NonAct	WildType	0.16	2.3	No	III	No	No	No	41	Dead	No	NA	NA	NA	NA	Neutral
BGI-RS16	Mutant	Exon19	0.26	6.1	No	III	Del	No	No	78	Alive	Yes	NA	NA	NA	NA	Neutral
BGI-RS17	WildType/NonAct	OtherEGFR	0.16	4.4	No	III	No	No	p.L861Q	47	Alive	Yes	NA	NA	NA	NA	Del
BGI-RS18	Mutant	Exon19	0.17	2.5	Yes	III	Del	No	No	NA	Dead	No	NA	NA	NA	NA	Neutral
BGI-RS19	WildType/NonAct	WildType	0.15	3.5	Yes	I	No	No	No	67	Alive	Yes	NA	NA	NA	NA	Del
BGI-RS20	WildType/NonAct	WildType	0.62	6.1	No	III	No	No	No	12	Dead	Yes	NA	NA	NA	NA	Del
BGI-RS21	WildType/NonAct	WildType	0.21	4.6	No	III	No	No	No	61	Alive	Yes	NA	NA	NA	NA	Amp
BGI-RS22	WildType/NonAct	WildType	0.14	2.5	No	IV	No	No	No	24	Dead	Yes	NA	NA	NA	NA	Neutral
BGI-RS23	WildType/NonAct	WildType	0.28	4.6	No	III	No	No	No	80	Alive	Yes	NA	NA	NA	NA	Neutral
BGI-RS24	Mutant	Exon19	0.48	3.8	NA	II	Del	No	No	55	Alive	Yes	NA	NA	NA	NA	Del
BGI-RS25	WildType/NonAct	WildType	0.25	5.5	No	III	No	No	No	22	Dead	Yes	NA	NA	NA	NA	Del
BGI-RS26	WildType/NonAct	WildType	0.18	2.3	Yes	III	No	No	No	59	Alive	No	NA	NA	NA	NA	Amp
BGI-RS27	WildType/NonAct	WildType	0.59	4.7	No	III	No	No	No	20	Dead	Yes	NA	NA	NA	NA	Neutral
BGI-RS28	WildType/NonAct	WildType	0.26	3.5	No	I	No	No	No	32	Dead	Yes	NA	NA	NA	NA	Amp
BGI-RS29	WildType/NonAct	WildType	0.19	2.5	No	I	No	No	No	54	Alive	Yes	NA	NA	NA	NA	Neutral
BGI-RS30	Mutant	Exon19	0.26	4.5	Yes	I	Del	No	No	59	Dead	Yes	NA	NA	NA	NA	Del
BGI-RS31	WildType/NonAct	WildType	0.22	2.3	Yes	I	No	No	No	28	Dead	No	NA	NA	NA	NA	Neutral
BGI-RS32	Mutant	Exon19	0.22	4.4	No	I	Del	No	No	17	Dead	Yes	NA	NA	NA	NA	Neutral
BGI-RS33	WildType/NonAct	WildType	0.28	6	Yes	I	No	No	No	6	Dead	Yes	NA	NA	NA	NA	Neutral
BGI-RS34	WildType/NonAct	WildType	0.18	2.7	Yes	I	No	No	No	55	Dead	Yes	NA	NA	NA	NA	Neutral
BGI-RS35	Mutant	Exon19	0.33	3.7	No	I	Del	No	No	49	Dead	Yes	NA	NA	NA	NA	Neutral
BGI-RS36	WildType/NonAct	WildType	0.18	4.9	Yes	II	No	No	No	61	Alive	Yes	NA	NA	NA	NA	Neutral
BGI-RS37	WildType/NonAct	WildType	0.13	2.8	No	I	No	No	No	56	Alive	No	NA	NA	NA	NA	Neutral
BGI-RS38	Mutant	L858R	0.57	2.9	Yes	II	No	Yes	No	62	Alive	Yes	NA	NA	NA	NA	Neutral
BGI-RS39	Mutant	Exon19	0.55	3.7	No	II	Del	No	No	45	Dead	Yes	NA	NA	NA	NA	Del
BGI-RS40	WildType/NonAct	WildType	0.6	3.5	No	II	No	No	No	22	Alive	Yes	NA	NA	NA	NA	Del
BGI-RS41	WildType/NonAct	WildType	0.14	2.4	No	I	No	No	No	70	Alive	Yes	NA	NA	NA	NA	Neutral
BGI-RS42	WildType/NonAct	WildType	0.2	2.6	Yes	I	No	No	No	63	Alive	Yes	NA	NA	NA	NA	Amp
BGI-RS44	WildType/NonAct	OtherEGFR	0.2	2.7	Yes	I	No	No	p.E709A	58	Alive	Yes	NA	NA	NA	NA	Neutral
BGI-RS45	WildType/NonAct	WildType	0.2	2.8	No	III	No	No	No	28	Dead	Yes	NA	NA	NA	NA	Neutral
BGI-RS46	WildType/NonAct	WildType	0.2	2.4	No	II	No	No	No	58	Dead	Yes	NA	NA	NA	NA	Amp
BGI-RS47	WildType/NonAct	WildType	0.2	2.7	No	II	No	No	No	56	Alive	Yes	NA	NA	NA	NA	Neutral
BGI-RS48	WildType/NonAct	WildType	0.24	4.6	No	II	No	No	No	NA	Dead	Yes	NA	NA	NA	NA	Del
BGI-RS49	WildType/NonAct	WildType	0.18	2.7	Yes	II	No	No	No	61	Alive	Yes	NA	NA	NA	NA	Amp
BGI-RS50	WildType/NonAct	WildType	0.58	3.2	No	II	No	No	No	5	Dead	Yes	NA	NA	NA	NA	Amp
BGI-RS51	WildType/NonAct	WildType	0.39	2.1	Yes	III	No	No	No	35	Alive	No	NA	NA	NA	NA	Neutral
BGI-RS52	WildType/NonAct	WildType	0.12	5.3	No	II	No	No	No	48	Alive	Yes	NA	NA	NA	NA	Del
BGI-RS53	WildType/NonAct	WildType	0.16	4.1	No	I	No	No	No	74	Alive	Yes	NA	NA	NA	NA	Del
BGI-RS54	Mutant	L858R	0.23	4.3	Yes	II	No	Yes	No	49	Alive	Yes	NA	NA	NA	NA	Neutral
BGI-RS55	WildType/NonAct	WildType	0.32	3.9	No	II	No	No	No	57	Alive	Yes	NA	NA	NA	NA	Neutral
BGI-RS56	WildType/NonAct	WildType	0.16	3.2	No	II	No	No	No	58	Alive	Yes	NA	NA	NA	NA	Del
BGI-RS57	WildType/NonAct	WildType	0.38	3.5	Yes	II	No	No	No	10	Dead	Yes	NA	NA	NA	NA	Neutral
BGI-RS58	Mutant	L858R	0.15	5.3	Yes	I	No	Yes	No	60	Alive	Yes	NA	NA	NA	NA	Neutral
BGI-RS59	WildType/NonAct	WildType	0.29	3.5	No	II	No	No	No	NA	NA	Yes	NA	NA	NA	NA	Neutral
BGI-RS60	WildType/NonAct	OtherEGFR	0.25	4.9	Yes	I	No	No	p.R973L	62	Alive	Yes	NA	NA	NA	NA	Amp
BGI-WG01	WildType/NonAct	WildType	0.28	2.8	NA	III	No	No	No	4	Dead	Yes	NA	NA	NA	NA	Amp
BGI-WG02	WildType/NonAct	WildType	0.14	2.4	Yes	III	No	No	No	6	Dead	No	NA	NA	NA	NA	Neutral
BGI-WG03	Mutant	Exon19	0.43	6.5	No	III	Del	No	No	16	Alive	Yes	NA	NA	NA	NA	Neutral
BGI-WG04	WildType/NonAct	WildType	0.54	2	No	IV	No	No	No	17	Alive	No	NA	NA	NA	NA	Neutral
BGI-WG05	Mutant	L858R	0.31	2.7	NA	III	No	Yes	No	14	Alive	Yes	NA	NA	NA	NA	Neutral
BGI-WG06	WildType/NonAct	WildType	0.34	2.2	No	III	No	No	No	13	Alive	No	NA	NA	NA	NA	Neutral
BGI-WG07	WildType/NonAct	WildType	0.13	2.3	NA	III	No	No	No	15	Alive	No	NA	NA	NA	NA	Neutral
BGI-WG08	WildType/NonAct	WildType	0.19	5.2	Yes	III	No	No	No	16	Alive	Yes	NA	NA	NA	NA	Amp
BGI-WG09	WildType/NonAct	WildType	0.14	2.4	Yes	III	No	No	No	16	Alive	No	NA	NA	NA	NA	Neutral
BGI-WG10	WildType/NonAct	OtherEGFR	0.29	2.6	Yes	III	No	No	p.A566S	15	Alive	Yes	NA	NA	NA	NA	Amp
BGI-WG11	WildType/NonAct	OtherEGFR	0.2	6.3	No	III	No	No	p.L861Q	16	Alive	Yes	NA	NA	NA	NA	Del
BGI-WG12	Mutant	L858R	0.17	2.7	No	III	No	Yes	No	13	Alive	Yes	NA	NA	NA	NA	Neutral
BGI-WG13	Mutant	L858R	0.18	4.9	No	III	No	Yes	No	13	Alive	Yes	NA	NA	NA	NA	Del
BGI-WG14	Mutant	L858R	0.24	4	No	III	No	Yes	No	5	Alive	Yes	NA	NA	NA	NA	Neutral
BGI-WG15	WildType/NonAct	WildType	0.18	3	Yes	III	No	No	No	7	Alive	Yes	NA	NA	NA	NA	Del
BGI-WG16	Mutant	L858R	0.23	4.8	No	III	No	Yes	No	5	Alive	Yes	NA	NA	NA	NA	Amp
BGI-WG17	Mutant	Exon19	0.41	6	No	III	Del	No	No	8	Alive	Yes	NA	NA	NA	NA	Del
BGI-WG18	WildType/NonAct	WildType	0.4	3.7	No	III	No	No	No	7	Alive	Yes	NA	NA	NA	NA	Neutral
BGI-WG19	WildType/NonAct	WildType	0.16	2.4	No	III	No	No	No	8	Alive	No	NA	NA	NA	NA	Neutral
BGI-WG20	WildType/NonAct	WildType	0.37	2.1	No	III	No	No	No	7	Alive	No	NA	NA	NA	NA	Neutral
BGI-WG21	WildType/NonAct	WildType	0.15	2.4	No	II	No	No	No	6	Alive	Yes	NA	NA	NA	NA	Neutral
BGI-WG22	Mutant	L858R	0.23	2.9	No	III	No	Yes	No	24	Alive	Yes	NA	NA	NA	NA	Neutral
BGI-WG23	WildType/NonAct	WildType	0.43	2.2	No	III	No	No	No	16	Alive	No	NA	NA	NA	NA	Neutral
BGI-WG24	Mutant	Exon19	0.63	3.6	Yes	IV	Del	No	No	17	Alive	Yes	NA	NA	NA	NA	Neutral
GSK001	WildType/NonAct	WildType	0.38	2.9	Yes	II	No	No	No	70.63333333	Dead	Yes	-0.679761741	0.415044888	0.498105096	PI	Neutral
GSK002	WildType/NonAct	WildType	NA	NA	No	III	No	No	No	9.133333333	Dead	NA	-0.497446159	0.320790295	0.359900816	PI	Neutral
GSK003	Mutant	Exon19	0.34	4.8	No	III	Del	No	No	1.8	Dead	Yes	-0.275517834	0.224305032	0.081932699	PP	Neutral
GSK004	Mutant	L858R	0.34	4.5	No	I	No	Yes	No	47.46666667	Dead	Yes	-0.319865287	-0.024788777	0.423910621	PI	Neutral
GSK005	WildType/NonAct	OtherEGFR	0.22	5.4	Yes	III	No	No	p.769_770insASV	12.5	Dead	Yes	-0.622138911	0.375240539	0.365770438	PP	Neutral
GSK006	WildType/NonAct	WildType	0.28	3.7	No	I	No	No	No	5.166666667	Dead	Yes	0.081231691	-0.135366877	0.078745866	TRU	Neutral
GSK008	WildType/NonAct	WildType	0.51	2	No	II	No	No	No	35.33333333	Dead	No	-0.606688461	0.498225338	0.267962918	PP	Neutral
GSK009	WildType/NonAct	WildType	0.62	2.6	No	I	No	No	No	36.06666667	Dead	No	-0.143955825	0.354786898	-0.262492321	PP	Neutral
GSK010	Mutant	L858R	0.2	6.4	No	III	No	Yes	No	38.76666667	Dead	Yes	-0.441832823	0.328091507	0.187319591	PP	Neutral
GSK011	WildType/NonAct	WildType	0.17	3.2	Yes	I	No	No	No	21.8	Dead	Yes	-0.790358787	0.552389592	0.489687094	PP	Neutral
GSK012	WildType/NonAct	WildType	0.15	2.4	No	IV	No	No	No	34.4	Dead	No	-0.134137143	-0.112396343	0.341429526	PI	Amp
GSK013	WildType/NonAct	WildType	0.29	2.1	Yes	II	No	No	No	23	Dead	No	-0.371678451	-0.077015463	0.594587132	PI	Neutral
GSK014	WildType/NonAct	WildType	0.29	2.1	Yes	II	No	No	No	9.966666667	Dead	No	0.104263682	0.088081973	-0.078122389	TRU	Neutral
GSK015	WildType/NonAct	OtherEGFR	0.6	3.6	Yes	I	No	No	p.G719S;p.S768I;p.G719S;p.S768I	31.66666667	Dead	Yes	-0.752889327	0.59038198	0.330575641	PP	Neutral
GSK016	WildType/NonAct	WildType	0.47	2.1	Yes	III	No	No	No	14.86666667	Dead	No	-0.01742253	0.465688058	-0.434118705	PP	Del
GSK017	WildType/NonAct	WildType	0.15	3.2	Yes	I	No	No	No	30.33333333	Dead	Yes	0.198859352	-0.273072037	0.120729906	TRU	Neutral
GSK018	WildType/NonAct	WildType	0.63	3.3	Yes	III	No	No	No	100.5666667	Alive	Yes	-0.706604494	0.596874817	0.206399844	PP	Neutral
GSK019	WildType/NonAct	WildType	0.37	2	Yes	II	No	No	No	122.9	Alive	No	0.296149401	0.071986699	-0.405970568	TRU	Del
GSK020	Mutant	Exon19	0.74	2.6	No	I	Del	No	No	122.7	Alive	Yes	0.226720757	0.072422624	-0.455572273	TRU	Neutral
GSK021	Mutant	L858R	0.23	2.6	No	II	No	Yes	p.L62R;p.L858R;No	121.9666667	Alive	No	-0.128407805	0.078615579	0.023587691	PP	Neutral
GSK022	Mutant	Exon19	0.78	3.7	No	III	Del	No	No	116.4333333	Alive	Yes	0.136507567	0.168427664	-0.472820376	PP	Del
GSK023	WildType/NonAct	WildType	0.17	2	No	I	No	No	No	91.03333333	Dead	No	0.013240618	-0.1834087	0.225816354	PI	Neutral
GSK024	WildType/NonAct	WildType	0.22	4.2	No	I	No	No	No	112.1	Alive	Yes	-0.293296951	0.059918927	0.360445916	PI	Neutral
GSK025	Mutant	Exon19	0.27	3.4	No	I	Del	No	No	111.3666667	Alive	Yes	-0.653022862	0.458404839	0.320051974	PP	Neutral
GSK026	WildType/NonAct	WildType	0.25	4.1	Yes	I	No	No	No	110.5666667	Alive	Yes	0.138258622	0.034174513	-0.241918465	TRU	Neutral
GSK027	WildType/NonAct	WildType	0.24	2.1	No	I	No	No	No	57.73333333	Alive	No	-0.023395916	-0.300984235	0.452439378	PI	Neutral
GSK028	WildType/NonAct	WildType	0.32	3.8	Yes	I	No	No	No	105.3	Alive	Yes	-0.732124341	0.355578761	0.568322481	PI	Amp
GSK029	WildType/NonAct	WildType	0.23	2.1	Yes	I	No	No	No	108	Alive	No	0.554732293	-0.433341398	-0.148236217	TRU	Neutral
GSK030	WildType/NonAct	WildType	0.15	2.1	No	I	No	No	No	108.4666667	Alive	No	0.426408491	-0.461221963	-0.013134631	TRU	Neutral
GSK031	Mutant	Exon19	0.22	2.2	Yes	I	Del	No	No	102.2	Alive	No	0.511374635	-0.323222664	-0.349157815	TRU	Del
GSK032	WildType/NonAct	WildType	0.33	2.2	Yes	I	No	No	No	101.9	Alive	No	0.339272113	-0.242053501	-0.055368228	TRU	Neutral
GSK033	WildType/NonAct	WildType	0.28	2.2	No	I	No	No	No	103.5333333	Alive	No	0.556964852	-0.45075753	-0.145623107	TRU	Neutral
GSK034	WildType/NonAct	WildType	0.37	2.1	Yes	III	No	No	No	104.9333333	Alive	No	-0.70309659	0.443979824	0.416995686	PP	Neutral
GSK035	Mutant	Exon19	0.36	3.1	No	III	Del	No	No	104.2666667	Alive	Yes	0.247100976	-0.155003441	-0.182773173	TRU	Neutral
GSK036	WildType/NonAct	WildType	0.2	2.3	Yes	III	No	No	No	75.73333333	Alive	No	-0.25869324	0.078879374	0.37137475	PI	Neutral
GSK037	Mutant	L858R	0.41	3.7	No	II	No	Yes	p.V843I;p.L858R;No	97.03333333	Alive	Yes	-0.329441951	0.077549709	0.280514704	PI	Del
GSK038	Mutant	L858R	0.33	3.6	Yes	I	No	Yes	No	98.56666667	Alive	Yes	-0.323036418	0.323545341	0.014348666	PP	Neutral
GSK039	WildType/NonAct	WildType	0.3	2.1	No	I	No	No	No	95.16666667	Alive	No	0.444647239	-0.404099045	-0.090324609	TRU	Neutral
GSK040	Mutant	L858R	0.34	3.7	No	I	No	Yes	No	94.76666667	Alive	Yes	0.43195941	-0.124346881	-0.4134719	TRU	Del
GSK042	WildType/NonAct	WildType	0.25	2	No	III	No	No	No	26.6	Dead	No	NA	NA	NA	NA	Neutral
GSK045	WildType/NonAct	WildType	0.26	2.2	Yes	III	No	No	No	6.366666667	Dead	No	NA	NA	NA	NA	Neutral
GSK046	WildType/NonAct	WildType	0.57	5.1	Yes	IV	No	No	No	1.633333333	Dead	Yes	NA	NA	NA	NA	Amp
GSK047	WildType/NonAct	WildType	0.78	3	Yes	IV	No	No	No	0.833333333	Dead	Yes	NA	NA	NA	NA	Amp
GSK048	WildType/NonAct	WildType	0.76	3.2	Yes	IV	No	No	No	0.7	Dead	Yes	NA	NA	NA	NA	Neutral
GSK049	WildType/NonAct	WildType	0.37	4.9	Yes	II	No	No	No	47.96666667	Dead	Yes	NA	NA	NA	NA	Neutral
GSK050	WildType/NonAct	WildType	0.81	2.2	Yes	III	No	No	No	30.8	Dead	No	-0.252577097	0.346128946	-0.132242397	PP	Amp
GSK051	WildType/NonAct	WildType	0.14	2.4	Yes	I	No	No	No	26.16666667	Alive	Yes	-0.389329018	0.119585796	0.46653092	PI	Amp
GSK052	WildType/NonAct	WildType	0.31	3.5	No	I	No	No	No	34.16666667	Alive	Yes	0.118979712	-0.264274433	0.267916188	PI	Amp
GSK053	WildType/NonAct	WildType	0.29	2.1	Yes	I	No	No	No	36.26666667	Alive	No	0.173346441	-0.178180162	0.059815257	TRU	Neutral
GSK054	WildType/NonAct	WildType	0.16	2.7	No	I	No	No	No	32.9	Alive	Yes	-0.618340784	0.107362054	0.752889564	PI	Neutral
GSK055	WildType/NonAct	WildType	0.3	2	Yes	I	No	No	No	34.5	Alive	No	-0.602863266	0.176366386	0.618377921	PI	Neutral
GSK056	WildType/NonAct	WildType	0.24	2.2	Yes	I	No	No	No	35.36666667	Alive	No	NA	NA	NA	NA	Neutral
GSK057	WildType/NonAct	WildType	0.3	3.6	Yes	I	No	No	No	37.3	Alive	Yes	-0.073691889	0.334499481	-0.172688868	PP	Neutral
GSK058	WildType/NonAct	WildType	0.49	2.9	Yes	II	No	No	No	38.93333333	Alive	Yes	-0.302959233	0.687339421	-0.325389522	PP	Neutral
GSK059	WildType/NonAct	WildType	0.38	2.2	Yes	II	No	No	No	37.66666667	Alive	No	NA	NA	NA	NA	Neutral
GSK060	Mutant	L858R	0.43	3.9	No	I	No	Yes	No	39.03333333	Alive	Yes	0.387376912	-0.097383441	-0.418973315	TRU	Neutral
GSK061	WildType/NonAct	WildType	0.72	3.3	No	II	No	No	No	25.76666667	Dead	Yes	-0.442381349	0.464377914	0.026328457	PP	Amp
GSK062	WildType/NonAct	WildType	0.24	3.7	Yes	IV	No	No	No	5.533333333	Dead	Yes	-0.531395079	0.642846414	0.025314451	PP	Amp
GSK063	Mutant	L858R	0.28	4.1	No	I	No	Yes	No	5.066666667	Dead	Yes	NA	NA	NA	NA	Neutral
GSK064	WildType/NonAct	WildType	0.24	2.2	No	III	No	No	No	54	Dead	No	0.517096363	-0.344772782	-0.273603874	TRU	Neutral
GSK065	WildType/NonAct	WildType	0.8	6.7	Yes	III	No	No	No	35.8	Dead	NA	-0.669179386	0.54538419	0.293376444	PP	Amp
GSK066	WildType/NonAct	WildType	0.28	4.4	No	I	No	No	No	46.63333333	Alive	Yes	-0.074778886	0.408763309	-0.359881415	PP	Del
GSK067	WildType/NonAct	WildType	0.1	2.3	No	I	No	No	No	61.6	Alive	No	0.659359873	-0.46272925	-0.279472559	TRU	Neutral
GSK068	WildType/NonAct	WildType	0.52	4	No	I	No	No	No	50.2	Alive	Yes	NA	NA	NA	NA	Del
GSK069	WildType/NonAct	WildType	0.38	2.2	Yes	II	No	No	No	53.1	Dead	No	NA	NA	NA	NA	Neutral
GSK070	WildType/NonAct	WildType	0.16	3.5	Yes	I	No	No	No	52.46666667	Alive	Yes	NA	NA	NA	NA	Neutral
GSK071	WildType/NonAct	WildType	0.38	3.6	Yes	I	No	No	No	58.26666667	Alive	Yes	NA	NA	NA	NA	Neutral
GSK072	WildType/NonAct	WildType	0.34	2.2	No	III	No	No	No	23.1	Dead	No	NA	NA	NA	NA	Neutral
GSK073	WildType/NonAct	WildType	0.2	3.8	Yes	II	No	No	No	24.53333333	Dead	Yes	0.3822283	-0.317208179	-0.145749041	TRU	Neutral
GSK074	WildType/NonAct	WildType	0.33	2.6	No	III	No	No	No	87.46666667	Alive	No	-0.130253571	0.067577228	-0.015394118	PP	Neutral
GSK075	WildType/NonAct	WildType	0.5	4	No	I	No	No	No	42	Dead	Yes	-0.592507432	0.540880922	0.133607905	PP	Neutral
GSK076	WildType/NonAct	WildType	0.35	4.6	Yes	I	No	No	No	46.26666667	Dead	Yes	-0.576105766	0.659788193	0.005585015	PP	Neutral
GSK077	WildType/NonAct	WildType	0.86	2.4	No	II	No	No	No	61.5	Alive	Yes	-0.353346836	0.302504702	0.051743275	PP	Neutral
GSK078	WildType/NonAct	WildType	0.72	2	Yes	I	No	No	No	89.8	Alive	No	0.179294491	-0.09327829	-0.21738936	TRU	Del
GSK079	WildType/NonAct	WildType	0.26	2.1	Yes	II	No	No	No	68.93333333	Alive	No	0.227678604	-0.420157479	0.234249945	PI	Neutral
GSK080	Mutant	L858R	0.18	2.9	Yes	I	No	Yes	No	1.5	Alive	Yes	0.120580063	-0.364514445	0.256840773	PI	Neutral
GSK081	WildType/NonAct	WildType	0.19	4.2	No	II	No	No	No	36.9	Alive	Yes	-0.182932461	0.135714391	0.074107835	PP	Amp
GSK082	WildType/NonAct	WildType	0.12	2.5	Yes	I	No	No	No	70.03333333	Alive	No	0.124247887	-0.212754058	0.103961681	TRU	Neutral
GSK083	WildType/NonAct	WildType	0.26	2.1	No	I	No	No	No	65.86666667	Alive	No	0.473830404	-0.3127314	-0.180928883	TRU	Neutral
GSK084	Mutant	L858R	0.46	3.2	No	I	No	Yes	No	64.1	Alive	Yes	0.264278758	0.152178828	-0.559602066	TRU	Del
GSK085	WildType/NonAct	WildType	0.13	2.8	No	I	No	No	No	61.46666667	Alive	Yes	0.545554381	-0.547548018	-0.001253783	TRU	Neutral
GSK086	WildType/NonAct	WildType	0.17	3.8	Yes	I	No	No	No	58.53333333	Alive	Yes	-0.384520455	0.245772645	0.234009721	PP	Amp
GSK087	WildType/NonAct	WildType	0.46	2.1	No	I	No	No	No	53.63333333	Alive	No	-0.027246963	0.239058713	-0.2844661	PP	Neutral
GSK088	Mutant	L858R	0.28	4.1	No	I	No	Yes	No	86.13333333	Alive	Yes	-0.048035428	0.047446078	-0.074720883	PP	Neutral
GSK089	WildType/NonAct	WildType	0.26	3.8	No	I	No	No	No	86.26666667	Alive	Yes	0.173141298	-0.010702479	-0.22190702	TRU	Neutral
GSK090	WildType/NonAct	WildType	0.17	4.6	No	II	No	No	No	84.43333333	Alive	Yes	-0.342498107	0.140991395	0.280400287	PI	Amp
GSK091	WildType/NonAct	OtherEGFR	0.19	3.5	No	III	No	No	p.709_710ET>D	80	Dead	Yes	-0.136984169	-0.152468524	0.411003508	PI	Neutral
GSK092	Mutant	Exon19	0.83	2.3	No	II	Del	No	No	83.76666667	Alive	No	0.169923335	0.156467131	-0.520038076	TRU	Neutral
GSK093	Mutant	Exon19	0.34	2.2	No	I	Del	No	No	82.83333333	Alive	No	0.073673172	-0.185124584	0.123970208	PI	Neutral
GSK094	Mutant	L858R	0.17	4.5	Yes	I	No	Yes	No;p.L858R;p.H870R	78.83333333	Alive	Yes	0.500788578	-0.099683959	-0.554877235	TRU	Del
GSK095	WildType/NonAct	WildType	0.5	2.6	Yes	I	No	No	No	74.86666667	Alive	Yes	0.644515474	-0.339468062	-0.48994352	TRU	Neutral
GSK096	Mutant	L858R	0.21	2.4	No	I	No	Yes	No	69.1	Alive	No	0.471778057	-0.445739404	-0.02082647	TRU	Neutral
GSK097	Mutant	Exon19	0.6	2.3	No	II	Del	No	No	69.2	Alive	No	-0.031945514	0.019895094	-0.013332099	PP	Neutral
GSK098	WildType/NonAct	OtherEGFR	0.17	2.1	No	I	No	No	p.G719S;p.L833V;p.G719S;p.L833V	67.26666667	Alive	No	0.4835973	-0.496212017	0.003203266	TRU	Neutral
GSK099	Mutant	Exon19	0.33	3.4	No	II	Del	No	No	68.8	Alive	Yes	-0.135235914	0.10570559	-0.001225989	PP	Neutral
GSK100	WildType/NonAct	WildType	0.31	2	No	I	No	No	No	66.8	Alive	No	-0.287298371	0.119085044	0.231054348	PI	Neutral
GSK121	WildType/NonAct	WildType	0.3	2.1	Yes	IV	No	No	No	5.233333333	Dead	No	NA	NA	NA	NA	Neutral
GSK126	WildType/NonAct	OtherEGFR	0.39	4.2	Yes	IV	No	No	p.G719C;p.S768I;p.V769L;p.G719C;p.S768I;p.V769L;p.G719C;p.S768I;p.V769L	17.2	Dead	Yes	NA	NA	NA	NA	Neutral
GSK141	Mutant	Exon19	0.66	2.4	No	IV	Del	No	No	27.76666667	Dead	No	NA	NA	NA	NA	Neutral
GSK145	WildType/NonAct	WildType	0.17	2.2	No	IV	No	No	No	29.6	Dead	No	NA	NA	NA	NA	Neutral
GSK201	Mutant	L858R	0.25	5	No	II	No	Yes	No	53.46666667	Alive	Yes	NA	NA	NA	NA	Neutral
GSK202	Mutant	L858R	0.36	5.7	No	I	No	Yes	No	56.7	Alive	Yes	-0.260953548	0.478871235	-0.212823305	PP	Amp
GSK203	Mutant	L858R	0.42	3.5	No	I	No	Yes	No	54.73333333	Alive	Yes	-0.083203185	0.344301883	-0.299956186	PP	Del
GSK204	WildType/NonAct	WildType	0.26	2.1	No	II	No	No	No	50.9	Alive	No	-0.531005953	0.205300636	0.489436887	PI	Neutral
GSK205	WildType/NonAct	WildType	0.27	2.1	No	I	No	No	No	50.93333333	Alive	No	0.428809843	-0.110125908	-0.372779083	TRU	Neutral
GSK206	Mutant	Exon19	0.14	2.9	No	I	Del	No	No	51	Alive	No	-0.592351145	0.183143714	0.589597457	PI	Amp
GSK207	Mutant	Exon19	0.43	4.8	No	I	Del	No	No	51.26666667	Alive	Yes	-0.145498757	0.270598918	-0.129482775	PP	Neutral
GSK208	Mutant	Exon19	0.35	3.5	No	I	Del	No	No	52.36666667	Alive	Yes	NA	NA	NA	NA	Del
GSK209	Mutant	L858R	0.19	3.4	No	I	No	Yes	No	49.93333333	Alive	Yes	0.232571937	0.194460934	-0.478527174	TRU	Amp
GSK210	Mutant	L858R	0.18	5.1	No	IV	No	Yes	No	20.06666667	Dead	Yes	-0.261399949	0.18791362	0.132825865	PP	Neutral
GSK211	WildType/NonAct	OtherEGFR	0.2	2	No	I	No	No	p.767_768insSVS	47.23333333	Alive	No	0.370531114	0.038561081	-0.585321031	TRU	Del
GSK212	Mutant	L858R	0.31	2.4	No	I	No	Yes	No	51.3	Alive	Yes	0.237143188	0.173246922	-0.480123495	TRU	Neutral
GSK213	Mutant	L858R	0.16	4.4	Yes	I	No	Yes	No	50.3	Alive	Yes	-0.054433313	0.2860658	-0.220496994	PP	Amp
GSK214	WildType/NonAct	WildType	0.32	2.1	No	I	No	No	No	46.3	Alive	No	0.483156572	-0.256612609	-0.393685558	TRU	Neutral
GSK215	WildType/NonAct	WildType	0.23	3.7	Yes	I	No	No	No	33.7	Dead	Yes	NA	NA	NA	NA	Neutral
GSK216	Mutant	L858R	0.49	1.9	No	I	No	Yes	No	49.96666667	Alive	No	0.415124076	-0.137541407	-0.455453597	TRU	Neutral
GSK217	WildType/NonAct	OtherEGFR	0.15	2.8	No	II	No	No	p.L861Q	46.86666667	Alive	No	NA	NA	NA	NA	Neutral
GSK218	Mutant	Exon19	0.71	2.9	No	I	Del	No	No	44.6	Alive	Yes	0.095467366	0.234009167	-0.431860052	PP	Neutral
GSK219	Mutant	L858R	0.44	3.5	No	I	No	Yes	No	41.96666667	Alive	Yes	NA	NA	NA	NA	Del
GSK220	WildType/NonAct	WildType	0.45	2.1	Yes	III	No	No	No	43	Alive	No	NA	NA	NA	NA	Neutral
GSK221	Mutant	L858R	0.39	5.6	No	II	No	Yes	No	35.06666667	Dead	Yes	NA	NA	NA	NA	Neutral
GSK222	Mutant	L858R	0.24	4.7	Yes	III	No	Yes	No	40.36666667	Alive	Yes	-0.369041016	0.469794182	-0.045230323	PP	Amp
GSK223	Mutant	L858R	0.21	3.7	No	I	No	Yes	No	39.46666667	Alive	Yes	NA	NA	NA	NA	Del
GSK224	Mutant	Exon19	0.45	2.8	Yes	I	Del	No	No	34.73333333	Alive	Yes	-0.249099418	0.259496675	0.017872	PP	Amp
GSK225	WildType/NonAct	OtherEGFR	0.31	3.8	No	I	No	No	p.709_710ET>D	37.7	Alive	Yes	-0.547027008	0.408065381	0.27575543	PP	Neutral
GSK226	Mutant	L858R	0.16	5.4	No	I	No	Yes	No	36.4	Alive	Yes	0.426034969	-0.219183378	-0.285880214	TRU	Del
GSK227	Mutant	L858R	0.25	3	Yes	I	No	Yes	p.L62R;p.L858R;No	34.93333333	Alive	Yes	-0.424642608	0.372270724	0.23596689	PP	Amp
GSK228	Mutant	Exon19	0.32	4.2	No	III	Del	No	No	31.43333333	Alive	Yes	-0.346328441	0.466577281	-0.072776356	PP	Amp
GSK229	WildType/NonAct	WildType	0.37	4.3	No	III	No	No	No	9.433333333	Alive	Yes	-0.329345974	0.314229089	0.037777867	PP	Neutral
GSK230	Mutant	L858R	0.37	4.4	No	III	No	Yes	No	33.8	Alive	Yes	-0.088580159	0.187486496	-0.072257461	PP	Del
GSK231	Mutant	L858R	0.35	3.5	No	I	No	Yes	No	34.2	Alive	Yes	-0.148451171	-0.074751143	0.275686705	PI	Amp
GSK232	Mutant	L858R	0.31	2.4	No	I	No	Yes	No	25.3	Dead	No	0.58980857	-0.354532861	-0.342476465	TRU	Neutral
GSK233	WildType/NonAct	OtherEGFR	0.54	2.2	Yes	NA	No	No	p.L833F;p.L861Q;p.L833F;p.L861Q	34.66666667	Alive	No	0.357799094	-0.272034831	-0.203407875	TRU	Neutral
GSK234	WildType/NonAct	WildType	0.27	2.1	No	I	No	No	No	33.16666667	Alive	No	0.495472104	-0.382718959	-0.145977519	TRU	Neutral
GSK235	Mutant	L858R	0.14	2.5	No	I	No	Yes	No	6.333333333	Alive	Yes	0.281276513	-0.276775831	-0.012864632	TRU	Neutral
GSK236	WildType/NonAct	WildType	0.17	4.5	Yes	I	No	No	No	33.4	Alive	Yes	-0.624815105	0.494697187	0.256498412	PP	Amp
GSK237	WildType/NonAct	WildType	0.29	2.1	Yes	I	No	No	No	31.5	Alive	No	-0.345236994	0.271750116	0.271123957	PP	Neutral
GSK238	Mutant	Exon19	0.19	3.7	No	II	Del	No	No	31.5	Alive	Yes	-0.504277371	0.024741413	0.618299585	PI	Amp
GSK239	WildType/NonAct	WildType	0.6	2.1	No	I	No	No	No	23.13333333	Dead	No	-0.131886864	0.207521604	-0.122440255	PP	Neutral
GSK240	WildType/NonAct	WildType	0.18	4	Yes	I	No	No	No	30.83333333	Alive	Yes	-0.495071374	0.271661545	0.334608274	PI	Amp
GSK241	Mutant	L858R	0.23	3.1	No	I	No	Yes	No	29.8	Alive	Yes	NA	NA	NA	NA	Del
GSK242	Mutant	Exon19	0.27	4.8	No	II	Del	No	No	29.13333333	Alive	Yes	0.1474222	-0.038443211	-0.122988767	TRU	Amp
GSK243	WildType/NonAct	WildType	0.4	5.4	No	III	No	No	No	26.16666667	Dead	Yes	0.264496141	-0.037784079	-0.3094849	TRU	Neutral
GSK244	Mutant	Exon19	0.12	2.9	No	I	Del	No	No	33.03333333	Alive	Yes	0.460283814	-0.259957555	-0.260285503	TRU	Neutral
GSK245	WildType/NonAct	WildType	0.2	2.5	No	III	No	No	No	30	Alive	Yes	0.354989367	-0.155890251	-0.247069129	TRU	Neutral
GSK246	WildType/NonAct	WildType	0.16	3.3	No	I	No	No	No	26.4	Alive	Yes	0.643732676	-0.303071205	-0.503065358	TRU	Neutral
GSK247	Mutant	L858R	0.38	5.4	No	I	No	Yes	p.D256Y;p.L858R;No	28.63333333	Alive	Yes	0.362840417	-0.07686725	-0.408116146	TRU	Amp
GSK248	Mutant	L858R	0.18	4.5	Yes	NA	No	Yes	No	28.73333333	Alive	Yes	0.315164615	-0.163381269	-0.146670981	TRU	Del
GSK249	Mutant	L858R	0.28	4	No	I	No	Yes	No	30.73333333	Alive	Yes	0.260115305	0.155781207	-0.462293496	TRU	Del
GSK250	WildType/NonAct	WildType	0.21	2.8	Yes	III	No	No	No	28.23333333	Alive	No	0.175336774	0.135627376	-0.328100168	TRU	Neutral
GSK251	Mutant	Exon19	0.21	2.4	No	III	Del	No	No	129.2666667	Alive	No	0.352045206	-0.170283862	-0.21395039	TRU	Neutral
GSK252	WildType/NonAct	WildType	NA	NA	No	III	No	No	No	118.9	Alive	NA	-0.245571611	0.168391957	0.150619662	PP	Neutral
GSK253	Mutant	Exon19	0.73	2.1	No	I	Del	No	No	118.1333333	Alive	No	NA	NA	NA	NA	Neutral
GSK254	Mutant	Exon19	0.13	2.4	No	I	Del	No	No	85.26666667	Dead	Yes	0.313861246	-0.306627491	-0.025346902	TRU	Neutral
GSK257	Mutant	L858R	0.2	2.5	No	III	No	Yes	No	50.9	Dead	Yes	-0.253261389	-0.026650137	0.399534997	PI	Neutral
GSK258	WildType/NonAct	WildType	NA	NA	Yes	III	No	No	No	16.16666667	Dead	NA	-0.435209462	0.329600833	0.220955127	PP	Neutral
GSK259	Mutant	Exon19	0.4	3.1	No	II	Del	No	No	99.36666667	Alive	Yes	0.187675918	0.028889609	-0.234896431	TRU	Del
GSK261	Mutant	Exon19	0.21	3.1	Yes	I	Del	No	No	55.66666667	Dead	Yes	-0.34849577	0.227882579	0.280953541	PI	Neutral
GSK262	Mutant	L858R	0.24	2.2	No	I	No	Yes	No	48.36666667	Dead	No	0.00540114	-0.107984256	0.22572615	PI	Neutral
GSK263	Mutant	Exon19	0.68	4.2	No	I	Del	No	No	88.86666667	Alive	Yes	NA	NA	NA	NA	Del
GSK264	WildType/NonAct	WildType	0.44	3.5	No	III	No	No	No	92.46666667	Alive	Yes	NA	NA	NA	NA	Neutral
GSK265	Mutant	L858R	0.13	2.1	No	III	No	Yes	No	92.9	Alive	Yes	-0.075462268	-0.219216269	0.446505486	PI	Neutral
GSK266	Mutant	Exon19	0.24	5.7	No	III	Del	No	No	43.43333333	Dead	Yes	NA	NA	NA	NA	Neutral
GSK268	Mutant	L858R	0.12	2.4	Yes	I	No	Yes	No	84.2	Alive	Yes	0.149867641	-0.182131666	0.142214641	TRU	Neutral
GSK269	WildType/NonAct	WildType	0.3	2.1	No	I	No	No	No	114.9	Dead	No	-0.099697579	-0.165363607	0.420426586	PI	Neutral
GSK270	WildType/NonAct	WildType	0.21	2.1	No	I	No	No	No	15.23333333	Dead	No	NA	NA	NA	NA	Neutral
GSK271	Mutant	L858R	0.4	3.3	No	I	No	Yes	No	74.23333333	Alive	Yes	NA	NA	NA	NA	Amp
GSK272	Mutant	Exon19	0.44	4.4	No	I	Del	No	No	34.83333333	Dead	Yes	-0.019664233	-0.0617297	0.03090582	PI	Del
GSK273	Mutant	Exon19	0.36	3.8	No	I	Del	No	No	29.53333333	Alive	Yes	-0.222042296	0.099656915	0.181285663	PI	Neutral
GSK274	Mutant	Exon19	0.36	1.9	No	II	Del	No	No	35.16666667	Dead	No	NA	NA	NA	NA	Neutral
GSK275	WildType/NonAct	WildType	0.59	2.1	No	I	No	No	No	52.96666667	Alive	No	NA	NA	NA	NA	Neutral
GSK277	Mutant	L858R	0.51	2.1	No	II	No	Yes	p.L62R;p.L858R;No	28.73333333	Dead	No	0.285131992	-0.010231996	-0.356424468	TRU	Neutral
GSK278	Mutant	L858R	0.48	2.8	No	IV	No	Yes	No	53.46666667	Alive	Yes	-0.501204376	0.419568523	0.209390521	PP	Amp
GSK279	Mutant	L858R	0.31	5.4	No	II	No	Yes	p.I759M;p.L858R;No	50.33333333	Alive	Yes	0.204663462	-0.013754289	-0.217916438	TRU	Del
GSK280	Mutant	L858R	0.5	3.8	No	I	No	Yes	No	51.33333333	Alive	Yes	0.423865987	-0.142193172	-0.35963997	TRU	Neutral
GSK281	Mutant	L858R	0.56	3.1	No	I	No	Yes	No	28.36666667	Alive	Yes	0.378995695	-0.006769438	-0.474529816	TRU	Del
GSK282	Mutant	L858R	0.3	2.3	Yes	I	No	Yes	No	28.03333333	Alive	No	0.609890883	-0.279594631	-0.481606265	TRU	Neutral
GSK283	WildType/NonAct	OtherEGFR	0.57	2.3	No	I	No	No	p.L833V;p.H835L;p.L833V;p.H835L	26.96666667	Alive	No	0.642089247	-0.331469222	-0.483994122	TRU	Neutral
GSK284	WildType/NonAct	OtherEGFR	0.67	3.6	Yes	I	No	No	p.G724A;p.S768I;p.G724A;p.S768I	27.43333333	Alive	Yes	0.463872519	-0.047632144	-0.60368776	TRU	Neutral
GSK285	Mutant	Exon19	0.67	2.8	No	II	Del	No	No	21.86666667	Alive	Yes	0.365736604	0.040009462	-0.536313878	TRU	Del
GSK286	Mutant	Exon19	0.24	5.6	No	III	Del	No	No	13.13333333	Dead	Yes	-0.003658378	0.249154952	-0.355964069	PP	Neutral
GSK287	Mutant	Exon19	0.28	5.8	No	I	Del	No	No	27.9	Alive	Yes	0.149941425	-0.040555498	-0.068449224	TRU	Neutral
GSK288	Mutant	Exon19	0.26	3.9	No	II	Del	No	No	26.83333333	Alive	Yes	0.342723165	-0.231534369	-0.114454075	TRU	Neutral
GSK289	Mutant	Exon19	0.2	6.1	No	II	Del	No	No	26.53333333	Alive	Yes	NA	NA	NA	NA	Del
GSK291	WildType/NonAct	WildType	0.26	2.1	No	I	No	No	No	40.5	Dead	No	NA	NA	NA	NA	Neutral
GSK292	WildType/NonAct	WildType	0.3	2.1	Yes	III	No	No	No	22.96666667	Dead	No	0.342940347	-0.388093723	0.088556502	TRU	Neutral
GSK293	WildType/NonAct	WildType	0.34	3.6	Yes	II	No	No	No	59.46666667	Alive	Yes	-0.350131072	0.025873854	0.407674418	PI	Del
GSK294	WildType/NonAct	WildType	0.78	2.1	No	I	No	No	No	51.13333333	Alive	No	-0.534433841	0.534815968	0.094364321	PP	Del
GSK295	WildType/NonAct	WildType	0.46	2.1	No	I	No	No	No	47.36666667	Alive	No	NA	NA	NA	NA	Neutral
GSK297	WildType/NonAct	WildType	0.24	4.7	Yes	II	No	No	No	27.76666667	Alive	Yes	-0.589579727	0.34224922	0.381079036	PI	Amp
GSK298	WildType/NonAct	WildType	0.24	2.1	Yes	IV	No	No	No	7.6	Dead	No	NA	NA	NA	NA	Neutral
GSK299	WildType/NonAct	OtherEGFR	0.64	2.1	No	I	No	No	p.768_769insVDS	49.06666667	Alive	No	0.022997793	0.167912768	-0.312955513	PP	Neutral
GSK300	Mutant	L858R	0.17	3.1	No	II	No	Yes	No	46.56666667	Alive	Yes	NA	NA	NA	NA	Del
GSK301	Mutant	Exon19	0.76	2.5	No	I	Del	No	No	48.76666667	Alive	No	0.115112702	0.142572127	-0.377646248	PP	Neutral
GSK302	WildType/NonAct	WildType	0.48	3.4	Yes	II	No	No	No	17.2	Dead	Yes	-0.679141473	0.646518236	0.159656198	PP	Neutral
GSK303	WildType/NonAct	WildType	0.29	2.2	Yes	I	No	No	No	46.46666667	Alive	No	-0.12971299	0.321686237	-0.109844178	PP	Neutral
GSK304	WildType/NonAct	WildType	0.16	2.6	Yes	II	No	No	No	27.6	Dead	No	-0.025914797	0.319069836	-0.382446534	PP	Neutral
GSK305	Mutant	L858R	0.17	4.4	No	II	No	Yes	No	29.66666667	Alive	Yes	-0.243788152	-0.024704408	0.401100163	PI	Neutral
GSK306	Mutant	Exon19	0.73	2	No	I	Del	No	No	21.66666667	Alive	No	0.355408711	-0.126865459	-0.370890817	TRU	Neutral
GSK307	Mutant	L858R	0.12	2.6	No	I	No	Yes	p.V834L;p.L858R;No	25.06666667	Alive	Yes	0.295591055	-0.391894215	0.19496989	TRU	Neutral
GSK308	Mutant	L858R	0.16	4	No	III	No	Yes	No	24.76666667	Alive	Yes	0.442221726	-0.348937119	-0.046320522	TRU	Neutral
GSK309	WildType/NonAct	WildType	0.28	3.3	No	III	No	No	No	23.5	Alive	Yes	0.019837527	-0.067081393	0.086214823	PI	Neutral
GSK310	WildType/NonAct	WildType	0.14	3.4	Yes	I	No	No	No	5.633333333	Dead	Yes	-0.158044853	-0.194769308	0.520708802	PI	Neutral
GSK311	WildType/NonAct	WildType	0.26	2.1	Yes	I	No	No	No	21.3	Alive	No	0.478351394	-0.351055953	-0.121410943	TRU	Neutral
GSK312	Mutant	L858R	0.18	2.6	No	I	No	Yes	No	22.43333333	Alive	No	-0.367959888	0.149806251	0.385859002	PI	Neutral
GSK313	Mutant	Exon19	0.37	5	Yes	III	Del	No	No	24.06666667	Alive	Yes	-0.265464931	0.071236259	0.309725515	PI	Del
GSK314	WildType/NonAct	WildType	0.84	2.1	No	I	No	No	No	21.2	Alive	No	0.161246925	0.146286788	-0.401873474	TRU	Neutral
GSK315	WildType/NonAct	WildType	0.24	2.1	Yes	I	No	No	No	20.3	Alive	No	0.388710906	-0.150259207	-0.311214456	TRU	Neutral
GSK316	WildType/NonAct	WildType	0.18	4.8	Yes	I	No	No	No	17.8	Alive	Yes	-0.276263561	0.209219146	0.248532236	PI	Neutral
GSK317	Mutant	Exon19	0.12	2.4	No	I	Del	No	No	22.3	Alive	No	-0.211110236	-0.174421691	0.544699025	PI	Neutral
GSK318	WildType/NonAct	WildType	0.42	3.3	Yes	III	No	No	No	18.1	Dead	Yes	0.474057798	-0.138162757	-0.409793065	TRU	Neutral