Hugo_Symbol	Tumor_Sample_Barcode	Variant_Classification
ZNF322	BGI-EX02	Amplification
TRIM27	BGI-EX02	Amplification
HLA-A	BGI-EX02	Amplification
TRIM31	BGI-EX02	Amplification
DDR1	BGI-EX02	Amplification
HLA-B	BGI-EX02	Amplification
TNF	BGI-EX02	Amplification
EHMT2	BGI-EX02	Amplification
NOTCH4	BGI-EX02	Amplification
DAXX	BGI-EX02	Amplification
LEMD2	BGI-EX02	Amplification
HMGA1	BGI-EX02	Amplification
SPDEF	BGI-EX02	Amplification
TEAD3	BGI-EX02	Amplification
SRPK1	BGI-EX02	Amplification
MAPK14	BGI-EX02	Amplification
CDKN1A	BGI-EX02	Amplification
PIM1	BGI-EX02	Amplification
CCND3	BGI-EX02	Amplification
VEGFA	BGI-EX02	Amplification
UNCX	BGI-EX02	Amplification
NUDT1	BGI-EX02	Amplification
LFNG	BGI-EX02	Amplification
CARD11	BGI-EX02	Amplification
PMS2	BGI-EX02	Amplification
RAC1	BGI-EX02	Amplification
NDUFA4	BGI-EX02	Amplification
TMEM106B	BGI-EX02	Amplification
ETV1	BGI-EX02	Amplification
SOSTDC1	BGI-EX02	Amplification
AGR2	BGI-EX02	Amplification
TWIST1	BGI-EX02	Amplification
TMEM196	BGI-EX02	Amplification
IL6	BGI-EX02	Amplification
HOXA4	BGI-EX02	Amplification
HOXA5	BGI-EX02	Amplification
FKBP9	BGI-EX02	Amplification
SFRP4	BGI-EX02	Amplification
RALA	BGI-EX02	Amplification
INHBA	BGI-EX02	Amplification
GLI3	BGI-EX02	Amplification
IKZF1	BGI-EX02	Amplification
EGFR	BGI-EX02	Amplification
ZNF479	BGI-EX02	Amplification
CCNE1	BGI-EX02	Amplification
TSHZ3	BGI-EX02	Amplification
PDCD5	BGI-EX02	Amplification
RHPN2	BGI-EX02	Amplification
CEBPA	BGI-EX02	Amplification
WTIP	BGI-EX02	Amplification
SBSN	BGI-EX02	Amplification
PSENEN	BGI-EX02	Amplification
SPRED3	BGI-EX02	Amplification
RASGRP4	BGI-EX02	Amplification
SIRT2	BGI-EX02	Amplification
PAK4	BGI-EX02	Amplification
DLL3	BGI-EX02	Amplification
PIAS3	BGI-EX04	Amplification
CHD1L	BGI-EX04	Amplification
APH1A	BGI-EX04	Amplification
SETDB1	BGI-EX04	Amplification
TNFAIP8L2	BGI-EX04	Amplification
SELENBP1	BGI-EX04	Amplification
S100A7	BGI-EX04	Amplification
S100A4	BGI-EX04	Amplification
GATAD2B	BGI-EX04	Amplification
HAX1	BGI-EX04	Amplification
SHC1	BGI-EX04	Amplification
MUC1	BGI-EX04	Amplification
KIAA0907	BGI-EX04	Amplification
RIT1	BGI-EX04	Amplification
GDF2	BGI-EX04	Amplification
MAPK8	BGI-EX04	Amplification
CADM1	BGI-EX04	Amplification
ARCN1	BGI-EX04	Amplification
BCL9L	BGI-EX04	Amplification
CBL	BGI-EX04	Amplification
ARHGEF12	BGI-EX04	Amplification
CHEK1	BGI-EX04	Amplification
ETS1	BGI-EX04	Amplification
FLI1	BGI-EX04	Amplification
KCNJ5	BGI-EX04	Amplification
KDM5A	BGI-EX04	Amplification
WNT5B	BGI-EX04	Amplification
FOXM1	BGI-EX04	Amplification
TEAD4	BGI-EX04	Amplification
CCND2	BGI-EX04	Amplification
CHD4	BGI-EX04	Amplification
PTPN6	BGI-EX04	Amplification
WIF1	BGI-EX04	Amplification
HMGA2	BGI-EX04	Amplification
MDM2	BGI-EX04	Amplification
YEATS4	BGI-EX04	Amplification
RAB3IP	BGI-EX04	Amplification
PTPRB	BGI-EX04	Amplification
LGR5	BGI-EX04	Amplification
IKZF1	BGI-RS16	Amplification
EGFR	BGI-RS16	Amplification
ZNF479	BGI-RS16	Amplification
AXIN2	BGI-RS17	Amplification
DDX5	BGI-RS17	Amplification
PRKCA	BGI-RS17	Amplification
SMURF2	BGI-RS17	Amplification
PRKAR1A	BGI-RS17	Amplification
SOX9	BGI-RS17	Amplification
RAB37	BGI-RS17	Amplification
GRB2	BGI-RS17	Amplification
LLGL2	BGI-RS17	Amplification
ITGB4	BGI-RS17	Amplification
H3F3B	BGI-RS17	Amplification
TRIM47	BGI-RS17	Amplification
TRIM65	BGI-RS17	Amplification
CYGB	BGI-RS17	Amplification
JMJD6	BGI-RS17	Amplification
SRSF2	BGI-RS17	Amplification
BIRC5	BGI-RS17	Amplification
SOCS3	BGI-RS17	Amplification
CBX4	BGI-RS17	Amplification
RPTOR	BGI-RS17	Amplification
SIRT7	BGI-RS17	Amplification
RFNG	BGI-RS17	Amplification
CSNK1D	BGI-RS17	Amplification
ZNF750	BGI-RS17	Amplification
CDH13	BGI-RS18	Deletion
COTL1	BGI-RS18	Deletion
FOXF1	BGI-RS18	Deletion
FBXO31	BGI-RS18	Deletion
STK11	BGI-RS18	Deletion
DAZAP1	BGI-RS18	Deletion
DOT1L	BGI-RS18	Deletion
TLE2	BGI-RS18	Deletion
AES	BGI-RS18	Deletion
GNA11	BGI-RS18	Deletion
NFIC	BGI-RS18	Deletion
MAP2K2	BGI-RS18	Deletion
PIAS4	BGI-RS18	Deletion
ZBTB7A	BGI-RS18	Deletion
APH1A	BGI-WG03	Amplification
SETDB1	BGI-WG03	Amplification
TNFAIP8L2	BGI-WG03	Amplification
SELENBP1	BGI-WG03	Amplification
WWTR1	BGI-WG05	Amplification
RAP2B	BGI-WG05	Amplification
SEC62	BGI-WG05	Amplification
PRKCI	BGI-WG05	Amplification
EIF5A2	BGI-WG05	Amplification
ECT2	BGI-WG05	Amplification
TBL1XR1	BGI-WG05	Amplification
UNCX	BGI-WG05	Amplification
NUDT1	BGI-WG05	Amplification
LFNG	BGI-WG05	Amplification
CARD11	BGI-WG05	Amplification
PMS2	BGI-WG05	Amplification
RAC1	BGI-WG05	Amplification
NDUFA4	BGI-WG05	Amplification
TMEM106B	BGI-WG05	Amplification
ETV1	BGI-WG05	Amplification
SOSTDC1	BGI-WG05	Amplification
AGR2	BGI-WG05	Amplification
TWIST1	BGI-WG05	Amplification
TMEM196	BGI-WG05	Amplification
IL6	BGI-WG05	Amplification
HOXA4	BGI-WG05	Amplification
HOXA5	BGI-WG05	Amplification
FOSL1	BGI-WG05	Amplification
MALAT1	BGI-WG05	Amplification
RELA	BGI-WG05	Amplification
RIN1	BGI-WG05	Amplification
RBM4	BGI-WG05	Amplification
RCE1	BGI-WG05	Amplification
KDM2A	BGI-WG05	Amplification
PPP1CA	BGI-WG05	Amplification
ARHGAP5	BGI-WG05	Amplification
BAZ1A	BGI-WG05	Amplification
PSMA6	BGI-WG05	Amplification
NKX2-1	BGI-WG05	Amplification
NKX2-8	BGI-WG05	Amplification
FOXA1	BGI-WG05	Amplification
FKBP3	BGI-WG05	Amplification
FANCM	BGI-WG05	Amplification
SOS2	BGI-WG05	Amplification
SAV1	BGI-WG05	Amplification
PTGDR	BGI-WG05	Amplification
MAPK1IP1L	BGI-WG05	Amplification
SIX1	BGI-WG05	Amplification
HIF1A	BGI-WG05	Amplification
SDHA	BGI-WG10	Amplification
HOXA4	BGI-WG10	Amplification
HOXA5	BGI-WG10	Amplification
FKBP9	BGI-WG10	Amplification
NRG1	BGI-WG10	Amplification
ZNF703	BGI-WG10	Amplification
BRF2	BGI-WG10	Amplification
WHSC1L1	BGI-WG10	Amplification
FGFR1	BGI-WG10	Amplification
IDO1	BGI-WG10	Amplification
SFRP1	BGI-WG10	Amplification
ANK1	BGI-WG10	Amplification
KAT6A	BGI-WG10	Amplification
DKK4	BGI-WG10	Amplification
FNTA	BGI-WG10	Amplification
IKBKB	BGI-WG10	Amplification
MCM4	BGI-WG10	Amplification
SNAI2	BGI-WG10	Amplification
SCRIB	BGI-WG10	Amplification
BAZ1A	BGI-WG10	Amplification
PSMA6	BGI-WG10	Amplification
NKX2-1	BGI-WG10	Amplification
NKX2-8	BGI-WG10	Amplification
MRC2	BGI-WG10	Amplification
LIMD2	BGI-WG10	Amplification
CD79B	BGI-WG10	Amplification
AXIN2	BGI-WG10	Amplification
DDX5	BGI-WG10	Amplification
PRKCA	BGI-WG10	Amplification
SMURF2	BGI-WG10	Amplification
PIAS3	BGI-WG11	Amplification
CHD1L	BGI-WG11	Amplification
APH1A	BGI-WG11	Amplification
SETDB1	BGI-WG11	Amplification
TNFAIP8L2	BGI-WG11	Amplification
SELENBP1	BGI-WG11	Amplification
S100A7	BGI-WG11	Amplification
S100A4	BGI-WG11	Amplification
GATAD2B	BGI-WG11	Amplification
HAX1	BGI-WG11	Amplification
SHC1	BGI-WG11	Amplification
MUC1	BGI-WG11	Amplification
USP22	BGI-WG11	Amplification
KSR1	BGI-WG11	Amplification
EYA2	BGI-WG11	Amplification
NCOA3	BGI-WG11	Amplification
SULF2	BGI-WG11	Amplification
SNAI1	BGI-WG11	Amplification
NFATC2	BGI-WG11	Amplification
SALL4	BGI-WG11	Amplification
AURKA	BGI-WG11	Amplification
CTCFL	BGI-WG11	Amplification
GNAS	BGI-WG11	Amplification
CDH4	BGI-WG11	Amplification
TCFL5	BGI-WG11	Amplification
PTK6	BGI-WG11	Amplification
MCPH1	BGI-WG13	Deletion
TNKS	BGI-WG13	Deletion
SOX7	BGI-WG13	Deletion
GATA4	BGI-WG13	Deletion
DLC1	BGI-WG13	Deletion
TUSC3	BGI-WG13	Deletion
MTUS1	BGI-WG13	Deletion
LZTS1	BGI-WG13	Deletion
DOK2	BGI-WG13	Deletion
SFTPC	BGI-WG13	Deletion
EGR3	BGI-WG13	Deletion
RHOBTB2	BGI-WG13	Deletion
NEFM	BGI-WG13	Deletion
FZD3	BGI-WG13	Deletion
LEPROTL1	BGI-WG13	Deletion
NRG1	BGI-WG13	Deletion
WIF1	BGI-WG13	Amplification
HMGA2	BGI-WG13	Amplification
MDM2	BGI-WG13	Amplification
YEATS4	BGI-WG13	Amplification
RAB3IP	BGI-WG13	Amplification
PTPRB	BGI-WG13	Amplification
LGR5	BGI-WG13	Amplification
SOCS6	BGI-WG13	Amplification
SIRT2	BGI-WG13	Amplification
PAK4	BGI-WG13	Amplification
DLL3	BGI-WG13	Amplification
CNTD2	BGI-WG13	Amplification
AKT2	BGI-WG13	Amplification
NUMBL	BGI-WG13	Amplification
AXL	BGI-WG13	Amplification
ZNF223	BGI-WG13	Amplification
CBLC	BGI-WG13	Amplification
RELB	BGI-WG13	Amplification
ERCC2	BGI-WG13	Amplification
PPP1R13L	BGI-WG13	Amplification
EMP3	BGI-WG13	Amplification
GRIN2D	BGI-WG13	Amplification
SDHA	BGI-WG14	Amplification
TERT	BGI-WG14	Amplification
CLPTM1L	BGI-WG14	Amplification
CNTNAP2	BGI-WG14	Amplification
CUL1	BGI-WG14	Amplification
EZH2	BGI-WG14	Amplification
CDK5	BGI-WG14	Amplification
AURKA	BGI-WG14	Amplification
CTCFL	BGI-WG14	Amplification
GNAS	BGI-WG14	Amplification
CDH4	BGI-WG14	Amplification
TCFL5	BGI-WG14	Amplification
PTK6	BGI-WG14	Amplification
EGFR	BGI-WG16	Amplification
TERT	BGI-WG17	Amplification
CLPTM1L	BGI-WG17	Amplification
ZNF703	BGI-WG17	Amplification
BRF2	BGI-WG17	Amplification
WHSC1L1	BGI-WG17	Amplification
FGFR1	BGI-WG17	Amplification
IDO1	BGI-WG17	Amplification
SFRP1	BGI-WG17	Amplification
ANK1	BGI-WG17	Amplification
KAT6A	BGI-WG17	Amplification
DKK4	BGI-WG17	Amplification
FNTA	BGI-WG17	Amplification
IKBKB	BGI-WG17	Amplification
MCM4	BGI-WG17	Amplification
SNAI2	BGI-WG17	Amplification
CXCL14	BGI-WG22	Amplification
TGFBI	BGI-WG22	Amplification
WNT8A	BGI-WG22	Amplification
KIF20A	BGI-WG22	Amplification
EGR1	BGI-WG22	Amplification
SOS2	BGI-WG22	Amplification
SAV1	BGI-WG22	Amplification
PTGDR	BGI-WG22	Amplification
MAPK1IP1L	BGI-WG22	Amplification
MACF1	BGI-WG24	Amplification
HEYL	BGI-WG24	Amplification
TRIT1	BGI-WG24	Amplification
RLF	BGI-WG24	Amplification
YBX1	BGI-WG24	Amplification
SLC2A1	BGI-WG24	Amplification
MPL	BGI-WG24	Amplification
KDM4A	BGI-WG24	Amplification
ARTN	BGI-WG24	Amplification
NOTCH2	BGI-WG24	Deletion
RASAL2	BGI-WG24	Amplification
ARPC5	BGI-WG24	Amplification
HMCN1	BGI-WG24	Amplification
PTGS2	BGI-WG24	Amplification
CDC73	BGI-WG24	Amplification
CRB1	BGI-WG24	Amplification
PTPRC	BGI-WG24	Amplification
NR5A2	BGI-WG24	Amplification
KIF14	BGI-WG24	Amplification
ELF3	BGI-WG24	Amplification
BTG2	BGI-WG24	Amplification
MDM4	BGI-WG24	Amplification
IKBKE	BGI-WG24	Amplification
IL24	BGI-WG24	Amplification
IRF6	BGI-WG24	Amplification
ATF3	BGI-WG24	Amplification
FLVCR1	BGI-WG24	Amplification
SMYD2	BGI-WG24	Amplification
PTPN14	BGI-WG24	Amplification
H3F3A	BGI-WG24	Amplification
PSEN2	BGI-WG24	Amplification
SNAP47	BGI-WG24	Amplification
WNT9A	BGI-WG24	Amplification
WNT3A	BGI-WG24	Amplification
TRIM11	BGI-WG24	Amplification
DISC1	BGI-WG24	Amplification
CHRM3	BGI-WG24	Amplification
RGS7	BGI-WG24	Amplification
AKT3	BGI-WG24	Amplification
TRIM58	BGI-WG24	Amplification
SEC62	BGI-WG24	Amplification
PRKCI	BGI-WG24	Amplification
EIF5A2	BGI-WG24	Amplification
ECT2	BGI-WG24	Amplification
TBL1XR1	BGI-WG24	Amplification
ZMAT3	BGI-WG24	Amplification
PIK3CA	BGI-WG24	Amplification
FXR1	BGI-WG24	Amplification
KLHL5	BGI-WG24	Amplification
N4BP2	BGI-WG24	Amplification
UCHL1	BGI-WG24	Amplification
PHOX2B	BGI-WG24	Amplification
SHISA3	BGI-WG24	Amplification
RICTOR	BGI-WG24	Amplification
DAB2	BGI-WG24	Amplification
ARHGAP26	BGI-WG24	Amplification
NR3C1	BGI-WG24	Amplification
SPINK5	BGI-WG24	Amplification
AFAP1L1	BGI-WG24	Amplification
CSF1R	BGI-WG24	Amplification
PDGFRB	BGI-WG24	Amplification
TCOF1	BGI-WG24	Amplification
FAT2	BGI-WG24	Amplification
SPARC	BGI-WG24	Amplification
LARP1	BGI-WG24	Amplification
SOX30	BGI-WG24	Amplification
PTTG1	BGI-WG24	Amplification
WWC1	BGI-WG24	Amplification
SLIT3	BGI-WG24	Amplification
NPM1	BGI-WG24	Amplification
DUSP1	BGI-WG24	Amplification
DRD1	BGI-WG24	Amplification
FGFR4	BGI-WG24	Amplification
NSD1	BGI-WG24	Amplification
MXD3	BGI-WG24	Amplification
MAML1	BGI-WG24	Amplification
SCGB3A1	BGI-WG24	Amplification
FLT4	BGI-WG24	Amplification
COPS5	BGI-WG24	Amplification
MSC	BGI-WG24	Amplification
HNF4G	BGI-WG24	Amplification
HEY1	BGI-WG24	Amplification
FABP4	BGI-WG24	Amplification
PAG1	BGI-WG24	Amplification
CNBD1	BGI-WG24	Amplification
NBN	BGI-WG24	Amplification
CDH17	BGI-WG24	Amplification
CCNE2	BGI-WG24	Amplification
MTDH	BGI-WG24	Amplification
STK3	BGI-WG24	Amplification
PABPC1	BGI-WG24	Amplification
NCALD	BGI-WG24	Amplification
UBR5	BGI-WG24	Amplification
KLF10	BGI-WG24	Amplification
FZD6	BGI-WG24	Amplification
TMEM74	BGI-WG24	Amplification
CSMD3	BGI-WG24	Amplification
RAD21	BGI-WG24	Amplification
TNFRSF11B	BGI-WG24	Amplification
NOV	BGI-WG24	Amplification
DEPTOR	BGI-WG24	Amplification
PTK2	BGI-WG24	Amplification
PTP4A3	BGI-WG24	Amplification
SCRIB	BGI-WG24	Amplification
DAPK1	BGI-WG24	Amplification
SHC3	BGI-WG24	Amplification
PTPN3	BGI-WG24	Amplification
MDM2	BGI-WG24	Amplification
YEATS4	BGI-WG24	Amplification
RAB3IP	BGI-WG24	Amplification
PTPRB	BGI-WG24	Amplification
LGR5	BGI-WG24	Amplification
LATS2	BGI-WG24	Deletion
FGF9	BGI-WG24	Deletion
TC2N	BGI-WG24	Amplification
ATXN3	BGI-WG24	Amplification
BRD7	BGI-WG24	Amplification
CYLD	BGI-WG24	Amplification
RBL2	BGI-WG24	Amplification
MMP2	BGI-WG24	Amplification
SRCIN1	BGI-WG24	Amplification
LASP1	BGI-WG24	Amplification
CDK12	BGI-WG24	Amplification
PPP1R1B	BGI-WG24	Amplification
ERBB2	BGI-WG24	Amplification
CDC6	BGI-WG24	Amplification
RARA	BGI-WG24	Amplification
TNS4	BGI-WG24	Amplification
PMS2	GSK003	Amplification
ACHE	GSK003	Amplification
EPHB4	GSK003	Amplification
CDK4	GSK003	Amplification
DTX3	GSK003	Amplification
WIF1	GSK003	Amplification
HMGA2	GSK003	Amplification
DACH1	GSK003	Amplification
KLF5	GSK003	Amplification
KLF12	GSK003	Amplification
LMO7	GSK003	Amplification
SPRY2	GSK003	Amplification
TSHR	GSK003	Amplification
TC2N	GSK003	Amplification
ATXN3	GSK003	Amplification
DICER1	GSK003	Amplification
YY1	GSK003	Amplification
DLK1	GSK003	Amplification
HSP90AA1	GSK003	Amplification
TRAF3	GSK003	Amplification
AKT1	GSK003	Amplification
JAG2	GSK003	Amplification
GREM1	GSK003	Deletion
PDK1	GSK005	Amplification
CIR1	GSK005	Amplification
ATF2	GSK005	Amplification
NFE2L2	GSK005	Amplification
TTN	GSK005	Amplification
FRZB	GSK005	Amplification
ITGAV	GSK005	Amplification
PMS1	GSK005	Amplification
GLS	GSK005	Amplification
STAT1	GSK005	Amplification
UNCX	GSK005	Amplification
NUDT1	GSK005	Amplification
LFNG	GSK005	Amplification
CARD11	GSK005	Amplification
PMS2	GSK005	Amplification
RAC1	GSK005	Amplification
NDUFA4	GSK005	Amplification
EGFR	GSK005	Amplification
ZNF479	GSK005	Deletion
FZD9	GSK005	Deletion
MLXIPL	GSK005	Deletion
CLDN3	GSK005	Deletion
CLDN4	GSK005	Deletion
GTF2I	GSK005	Deletion
DTX2	GSK005	Deletion
PTPN12	GSK005	Deletion
HGF	GSK005	Deletion
GRM3	GSK005	Deletion
FZD1	GSK005	Amplification
CDK6	GSK005	Amplification
SAMD9	GSK005	Amplification
PON1	GSK005	Amplification
PDK4	GSK005	Amplification
TRRAP	GSK005	Amplification
CPSF4	GSK005	Amplification
SMO	GSK005	Amplification
TMEM209	GSK005	Amplification
AKR1B10	GSK005	Amplification
TRIM24	GSK005	Amplification
HIPK2	GSK005	Amplification
BRAF	GSK005	Amplification
SHH	GSK005	Amplification
PTK6	GSK005	Amplification
SDHA	GSK010	Amplification
TERT	GSK010	Amplification
CLPTM1L	GSK010	Amplification
SEMA5A	GSK010	Amplification
CTNND2	GSK010	Amplification
DNAH5	GSK010	Amplification
DAB2	GSK010	Amplification
EGFR	GSK010	Amplification
ZNF479	GSK010	Amplification
SMARCA2	GSK010	Amplification
JAK2	GSK010	Amplification
CD274	GSK010	Amplification
PDCD1LG2	GSK010	Amplification
IL33	GSK010	Amplification
UHRF2	GSK010	Amplification
GLDC	GSK010	Amplification
PTPRD	GSK010	Amplification
NFIB	GSK010	Deletion
PSIP1	GSK010	Deletion
BNC2	GSK010	Deletion
RPS6	GSK010	Deletion
IFNB1	GSK010	Deletion
CDKN2A	GSK010	Deletion
CDKN2B	GSK010	Deletion
CHEK2	GSK010	Deletion
ZNRF3	GSK010	Deletion
NF2	GSK010	Deletion
DDR2	GSK022	Amplification
FMO2	GSK022	Amplification
RASAL2	GSK022	Amplification
ARPC5	GSK022	Amplification
HMCN1	GSK022	Amplification
PTGS2	GSK022	Amplification
CDC73	GSK022	Amplification
CRB1	GSK022	Amplification
PTPRC	GSK022	Amplification
NR5A2	GSK022	Amplification
KIF14	GSK022	Amplification
ELF3	GSK022	Amplification
BTG2	GSK022	Amplification
MDM4	GSK022	Amplification
IKBKE	GSK022	Amplification
IL24	GSK022	Amplification
IRF6	GSK022	Amplification
ATF3	GSK022	Amplification
FLVCR1	GSK022	Amplification
SMYD2	GSK022	Amplification
PTPN14	GSK022	Amplification
H3F3A	GSK022	Amplification
PSEN2	GSK022	Amplification
SNAP47	GSK022	Amplification
WNT9A	GSK022	Amplification
WNT3A	GSK022	Amplification
TRIM11	GSK022	Amplification
DISC1	GSK022	Amplification
CHRM3	GSK022	Amplification
RGS7	GSK022	Amplification
AKT3	GSK022	Amplification
TRIM58	GSK022	Amplification
LIMD1	GSK022	Amplification
CCR9	GSK022	Amplification
SETD2	GSK022	Amplification
CARD11	GSK022	Amplification
ZNF479	GSK022	Amplification
CUX1	GSK022	Amplification
FABP4	GSK022	Amplification
PAG1	GSK022	Amplification
MUC5B	GSK022	Amplification
ZNF429	GSK022	Amplification
SDHA	GSK035	Amplification
TERT	GSK035	Amplification
CLPTM1L	GSK035	Amplification
SPRY4	GSK035	Amplification
ARHGAP26	GSK035	Amplification
NR3C1	GSK035	Amplification
SPINK5	GSK035	Amplification
AFAP1L1	GSK035	Amplification
CSF1R	GSK035	Amplification
PDGFRB	GSK035	Amplification
TCOF1	GSK035	Amplification
FAT2	GSK035	Amplification
SPARC	GSK035	Amplification
LARP1	GSK035	Amplification
SOX30	GSK035	Amplification
PTTG1	GSK035	Amplification
WWC1	GSK035	Amplification
SLIT3	GSK035	Amplification
NPM1	GSK035	Amplification
DUSP1	GSK035	Amplification
DRD1	GSK035	Amplification
FGFR4	GSK035	Amplification
NSD1	GSK035	Amplification
MXD3	GSK035	Amplification
MAML1	GSK035	Amplification
SCGB3A1	GSK035	Amplification
FLT4	GSK035	Amplification
FABP4	GSK035	Deletion
PAG1	GSK035	Deletion
CBWD3	GSK035	Deletion
MUC5B	GSK035	Deletion
USP22	GSK035	Deletion
KSR1	GSK035	Deletion
ZNF429	GSK035	Amplification
CCNE1	GSK035	Amplification
TSHZ3	GSK035	Amplification
PDCD5	GSK035	Amplification
RHPN2	GSK035	Amplification
CEBPA	GSK035	Amplification
WTIP	GSK035	Amplification
SBSN	GSK035	Amplification
PSENEN	GSK035	Amplification
SPRED3	GSK035	Amplification
RASGRP4	GSK035	Amplification
SIRT2	GSK035	Amplification
PAK4	GSK035	Amplification
DLL3	GSK035	Amplification
LILRB2	GSK035	Deletion
IL6	GSK091	Amplification
HOXA4	GSK091	Amplification
HOXA5	GSK091	Amplification
FKBP9	GSK091	Amplification
SFRP4	GSK091	Amplification
RALA	GSK091	Amplification
INHBA	GSK091	Amplification
GLI3	GSK091	Amplification
IKZF1	GSK091	Amplification
EGFR	GSK091	Amplification
ZNF479	GSK091	Amplification
KDM5A	GSK091	Deletion
WNT5B	GSK091	Deletion
FOXM1	GSK091	Deletion
TEAD4	GSK091	Deletion
CCND2	GSK091	Deletion
CHD4	GSK091	Deletion
PTPN6	GSK091	Deletion
CLEC4C	GSK091	Deletion
MFAP5	GSK091	Deletion
LRP6	GSK091	Deletion
CDKN1B	GSK091	Deletion
GPRC5A	GSK091	Deletion
ATF7IP	GSK091	Deletion
PTPRO	GSK091	Deletion
RRAD	GSK091	Amplification
CBFB	GSK091	Amplification
TPPP3	GSK091	Amplification
CTCF	GSK091	Amplification
CDH1	GSK091	Amplification
JUNB	GSK091	Amplification
CALR	GSK091	Amplification
CACNA1A	GSK091	Amplification
PRKACA	GSK091	Amplification
NOTCH3	GSK091	Amplification
RASAL3	GSK091	Amplification
KLF2	GSK091	Amplification
JAK3	GSK091	Amplification
PIK3R2	GSK091	Amplification
GDF15	GSK091	Amplification
ZNF429	GSK091	Amplification
CCNE1	GSK091	Amplification
TSHZ3	GSK091	Amplification
PDCD5	GSK091	Amplification
RHPN2	GSK091	Amplification
CEBPA	GSK091	Amplification
WTIP	GSK091	Amplification
TRIM28	GSK091	Deletion
SDHA	GSK126	Amplification
TERT	GSK126	Amplification
CLPTM1L	GSK126	Amplification
SEMA5A	GSK126	Amplification
CTNND2	GSK126	Amplification
DNAH5	GSK126	Amplification
CDH10	GSK126	Amplification
DROSHA	GSK126	Amplification
GOLPH3	GSK126	Amplification
IL7R	GSK126	Amplification
SKP2	GSK126	Amplification
NIPBL	GSK126	Amplification
RICTOR	GSK126	Amplification
DAB2	GSK126	Amplification
CSMD3	GSK126	Amplification
RAD21	GSK126	Amplification
TNFRSF11B	GSK126	Amplification
NOV	GSK126	Amplification
DEPTOR	GSK126	Amplification
MYC	GSK126	Amplification
FAM135B	GSK126	Amplification
PTK2	GSK126	Amplification
PTP4A3	GSK126	Amplification
SCRIB	GSK126	Amplification
CCNE1	GSK126	Amplification
TSHZ3	GSK126	Amplification
PDCD5	GSK126	Amplification
RHPN2	GSK126	Amplification
CEBPA	GSK126	Amplification
WTIP	GSK126	Amplification
SBSN	GSK126	Amplification
PSENEN	GSK126	Amplification
SPRED3	GSK126	Amplification
RASGRP4	GSK126	Amplification
SIRT2	GSK126	Amplification
PAK4	GSK126	Amplification
DLL3	GSK126	Amplification
CNTD2	GSK126	Amplification
AKT2	GSK126	Amplification
LRP6	GSK141	Deletion
CDKN1B	GSK141	Deletion
GPRC5A	GSK141	Deletion
ATF7IP	GSK141	Deletion
PTPRO	GSK141	Deletion
SDHA	GSK210	Amplification
TERT	GSK210	Amplification
CLPTM1L	GSK210	Amplification
SEMA5A	GSK210	Amplification
CTNND2	GSK210	Amplification
DNAH5	GSK210	Amplification
CDH12	GSK210	Amplification
CDH10	GSK210	Amplification
DROSHA	GSK210	Amplification
GOLPH3	GSK210	Amplification
IL7R	GSK210	Amplification
SKP2	GSK210	Amplification
NIPBL	GSK210	Amplification
RICTOR	GSK210	Amplification
DAB2	GSK210	Amplification
HLA-B	GSK210	Deletion
TNF	GSK210	Deletion
ACHE	GSK210	Deletion
EPHB4	GSK210	Deletion
MUC5B	GSK210	Deletion
MUC4	GSK220	Amplification
HLA-A	GSK220	Amplification
HLA-B	GSK220	Amplification
TNF	GSK220	Amplification
UNCX	GSK220	Amplification
NUDT1	GSK220	Amplification
LFNG	GSK220	Amplification
CARD11	GSK220	Amplification
ZNF479	GSK220	Amplification
FZD1	GSK220	Amplification
CDK6	GSK220	Amplification
SAMD9	GSK220	Amplification
TNKS	GSK220	Amplification
SOX7	GSK220	Amplification
GATA4	GSK220	Amplification
MUC5B	GSK220	Amplification
RPS15A	GSK220	Amplification
CRKL	GSK220	Amplification
LZTR1	GSK220	Amplification
S100A7	GSK222	Amplification
S100A4	GSK222	Amplification
GATAD2B	GSK222	Amplification
HAX1	GSK222	Amplification
SHC1	GSK222	Amplification
MUC1	GSK222	Amplification
KIAA0907	GSK222	Amplification
RIT1	GSK222	Amplification
MEF2D	GSK222	Amplification
IQGAP3	GSK222	Amplification
HDGF	GSK222	Amplification
NTRK1	GSK222	Amplification
INSRR	GSK222	Amplification
PEA15	GSK222	Amplification
NCSTN	GSK222	Amplification
F11R	GSK222	Amplification
DDR2	GSK222	Amplification
MUC5B	GSK222	Deletion
ETNK1	GSK222	Amplification
SOX5	GSK222	Amplification
KRAS	GSK222	Amplification
RASSF8	GSK222	Amplification
BHLHE41	GSK222	Amplification
ARNTL2	GSK222	Amplification
H3F3C	GSK222	Amplification
NDRG2	GSK222	Amplification
CHD8	GSK222	Amplification
METTL3	GSK222	Amplification
AJUBA	GSK222	Amplification
ARHGAP5	GSK222	Amplification
BAZ1A	GSK222	Amplification
PSMA6	GSK222	Amplification
NKX2-1	GSK222	Amplification
NKX2-8	GSK222	Amplification
FOXA1	GSK222	Amplification
FKBP3	GSK222	Amplification
FANCM	GSK222	Amplification
SOS2	GSK222	Amplification
SAV1	GSK222	Amplification
PTGDR	GSK222	Amplification
MAPK1IP1L	GSK222	Amplification
GREM1	GSK222	Deletion
IL1R2	GSK228	Amplification
FHL2	GSK228	Amplification
RGPD3	GSK228	Amplification
RANBP2	GSK228	Amplification
BCL2L11	GSK228	Amplification
IL37	GSK228	Amplification
HLA-B	GSK228	Deletion
TNF	GSK228	Deletion
ZNF479	GSK228	Deletion
LZTS1	GSK228	Deletion
DOK2	GSK228	Deletion
SFTPC	GSK228	Deletion
EGR3	GSK228	Deletion
RHOBTB2	GSK228	Deletion
NEFM	GSK228	Deletion
FZD3	GSK228	Deletion
LEPROTL1	GSK228	Deletion
NRG1	GSK228	Deletion
ZNF703	GSK228	Deletion
BRF2	GSK228	Deletion
MUC5B	GSK228	Deletion
JAG2	GSK228	Deletion
IGF1R	GSK228	Deletion
SDHA	GSK230	Amplification
TERT	GSK230	Amplification
CLPTM1L	GSK230	Amplification
SEMA5A	GSK230	Amplification
TNKS	GSK230	Deletion
SOX7	GSK230	Deletion
GATA4	GSK230	Deletion
MUC5B	GSK230	Deletion
USP22	GSK230	Amplification
KSR1	GSK230	Amplification
TNFAIP1	GSK230	Amplification
POLDIP2	GSK230	Amplification
FOXN1	GSK230	Amplification
SPAG5	GSK230	Amplification
TRAF4	GSK230	Amplification
TAOK1	GSK230	Amplification
LILRB2	GSK230	Deletion
APP	GSK230	Amplification
SOD1	GSK230	Amplification
SCAF4	GSK230	Amplification
RUNX1	GSK230	Amplification
ERG	GSK230	Amplification
ETS2	GSK230	Amplification
ABCG1	GSK230	Amplification
U2AF1	GSK230	Amplification
SIK1	GSK230	Amplification
PIAS3	GSK251	Amplification
CHD1L	GSK251	Amplification
APH1A	GSK251	Amplification
SETDB1	GSK251	Amplification
TNFAIP8L2	GSK251	Amplification
SELENBP1	GSK251	Amplification
S100A7	GSK251	Amplification
S100A4	GSK251	Amplification
GATAD2B	GSK251	Amplification
HAX1	GSK251	Amplification
SHC1	GSK251	Amplification
MUC1	GSK251	Amplification
KIAA0907	GSK251	Amplification
RIT1	GSK251	Amplification
MEF2D	GSK251	Amplification
IQGAP3	GSK251	Amplification
HDGF	GSK251	Amplification
NTRK1	GSK251	Amplification
INSRR	GSK251	Amplification
PEA15	GSK251	Amplification
NCSTN	GSK251	Amplification
F11R	GSK251	Amplification
BTG2	GSK251	Amplification
MDM4	GSK251	Amplification
IKBKE	GSK251	Amplification
IL24	GSK251	Amplification
IRF6	GSK251	Amplification
AKT3	GSK251	Amplification
TRIM58	GSK251	Amplification
ZNF479	GSK251	Deletion
FZD9	GSK251	Deletion
MLXIPL	GSK251	Deletion
CLDN3	GSK251	Deletion
CLDN4	GSK251	Deletion
GTF2I	GSK251	Deletion
DTX2	GSK251	Deletion
PTPN12	GSK251	Deletion
HGF	GSK251	Deletion
GRM3	GSK251	Deletion
DMTF1	GSK251	Deletion
ABCB4	GSK251	Deletion
FZD1	GSK251	Deletion
CDK6	GSK251	Deletion
SAMD9	GSK251	Deletion
PON1	GSK251	Deletion
PDK4	GSK251	Deletion
TRRAP	GSK251	Deletion
CPSF4	GSK251	Deletion
ACHE	GSK251	Deletion
EPHB4	GSK251	Deletion
ARHGEF10	GSK251	Deletion
MCPH1	GSK251	Deletion
TNKS	GSK251	Deletion
SOX7	GSK251	Deletion
GATA4	GSK251	Deletion
DLC1	GSK251	Deletion
TUSC3	GSK251	Deletion
MTUS1	GSK251	Deletion
LZTS1	GSK251	Deletion
DOK2	GSK251	Deletion
SFTPC	GSK251	Deletion
EGR3	GSK251	Deletion
RHOBTB2	GSK251	Deletion
NEFM	GSK251	Deletion
FZD3	GSK251	Deletion
LEPROTL1	GSK251	Deletion
NRG1	GSK251	Deletion
ZNF703	GSK251	Deletion
BRF2	GSK251	Deletion
WHSC1L1	GSK251	Deletion
FGFR1	GSK251	Deletion
IDO1	GSK251	Deletion
SFRP1	GSK251	Deletion
ANK1	GSK251	Deletion
KAT6A	GSK251	Deletion
DKK4	GSK251	Deletion
FNTA	GSK251	Deletion
IKBKB	GSK251	Deletion
MCM4	GSK251	Deletion
SNAI2	GSK251	Deletion
CBWD3	GSK251	Deletion
POLE	GSK251	Deletion
MUC4	GSK257	Amplification
CBWD3	GSK257	Deletion
CBWD3	GSK265	Deletion
MUC5B	GSK265	Amplification
CDK4	GSK265	Amplification
DTX3	GSK265	Amplification
WIF1	GSK265	Amplification
HMGA2	GSK265	Amplification
NDUFA4	GSK266	Amplification
TMEM106B	GSK266	Amplification
ETV1	GSK266	Amplification
SOSTDC1	GSK266	Amplification
AGR2	GSK266	Amplification
TWIST1	GSK266	Amplification
TMEM196	GSK266	Amplification
IL6	GSK266	Amplification
HOXA4	GSK266	Amplification
HOXA5	GSK266	Amplification
FKBP9	GSK266	Amplification
IKZF1	GSK266	Amplification
EGFR	GSK266	Amplification
ZNF479	GSK266	Amplification
TERT	GSK278	Amplification
CLPTM1L	GSK278	Amplification
SEMA5A	GSK278	Amplification
CTNND2	GSK278	Amplification
DNAH5	GSK278	Amplification
UNCX	GSK278	Amplification
NUDT1	GSK278	Amplification
LFNG	GSK278	Amplification
CARD11	GSK278	Amplification
PMS2	GSK278	Amplification
RAC1	GSK278	Amplification
NDUFA4	GSK278	Amplification
TMEM106B	GSK278	Amplification
ETV1	GSK278	Amplification
SOSTDC1	GSK278	Amplification
AGR2	GSK278	Amplification
TWIST1	GSK278	Amplification
TMEM196	GSK278	Amplification
IL6	GSK278	Amplification
RALA	GSK278	Amplification
INHBA	GSK278	Amplification
GLI3	GSK278	Amplification
IKZF1	GSK278	Amplification
EGFR	GSK278	Amplification
ZNF479	GSK278	Amplification
CCNE2	GSK278	Amplification
MTDH	GSK278	Amplification
STK3	GSK278	Amplification
PABPC1	GSK278	Amplification
NCALD	GSK278	Amplification
UBR5	GSK278	Amplification
KLF10	GSK278	Amplification
FZD6	GSK278	Amplification
TMEM74	GSK278	Amplification
CSMD3	GSK278	Amplification
RAD21	GSK278	Amplification
TNFRSF11B	GSK278	Amplification
NOV	GSK278	Amplification
DEPTOR	GSK278	Amplification
MYC	GSK278	Amplification
BNC2	GSK278	Amplification
RPS6	GSK278	Amplification
IFNB1	GSK278	Amplification
CDKN2A	GSK278	Amplification
CDKN2B	GSK278	Amplification
SOS2	GSK278	Amplification
SAV1	GSK278	Amplification
PTGDR	GSK278	Amplification
MAPK1IP1L	GSK278	Amplification
IFNB1	GSK286	Deletion
CDKN2A	GSK286	Deletion
CDKN2B	GSK286	Deletion
TOPORS	GSK286	Deletion
SBSN	GSK286	Amplification
PSENEN	GSK286	Amplification
SPRED3	GSK286	Amplification
RASGRP4	GSK286	Amplification
SIRT2	GSK286	Amplification
PAK4	GSK286	Amplification
DLL3	GSK286	Amplification
CNTD2	GSK286	Amplification
AKT2	GSK286	Amplification
NUMBL	GSK286	Amplification
AXL	GSK286	Deletion
LYPD4	GSK286	Deletion
CD79A	GSK286	Deletion
ERF	GSK286	Deletion
CIC	GSK286	Deletion
CEACAM1	GSK286	Deletion
ZNF223	GSK286	Deletion
CBLC	GSK286	Deletion
RELB	GSK286	Deletion
ERCC2	GSK286	Deletion
PPP1R13L	GSK286	Deletion
ERCC1	GSK286	Deletion
SLC1A5	GSK286	Deletion
ARHGAP35	GSK286	Deletion
EMP3	GSK286	Deletion
GRIN2D	GSK286	Deletion
BAX	GSK286	Deletion
TEAD2	GSK286	Deletion
AKT1S1	GSK286	Deletion
BCL2L12	GSK286	Deletion
POLD1	GSK286	Amplification
KLK10	GSK286	Amplification
PPP2R1A	GSK286	Amplification
ZNF479	GSK309	Amplification
EZH2	GSK309	Amplification
CDK5	GSK309	Amplification
RHEB	GSK309	Amplification
MLL3	GSK309	Amplification
SHH	GSK309	Amplification
EMX2	GSK309	Deletion
GRK5	GSK309	Deletion
FGFR2	GSK309	Deletion
DMBT1	GSK309	Deletion
CTBP2	GSK309	Deletion
MGMT	GSK309	Deletion
CDK4	GSK309	Amplification
DTX3	GSK309	Amplification
WIF1	GSK309	Amplification
HMGA2	GSK309	Amplification
MDM2	GSK309	Amplification
YEATS4	GSK309	Amplification
RAB3IP	GSK309	Amplification
PTPRB	GSK309	Amplification
LGR5	GSK309	Amplification
SPRED1	GSK309	Deletion
RASGRP1	GSK309	Deletion
THBS1	GSK309	Deletion
BUB1B	GSK309	Deletion
RAD51	GSK309	Deletion
DLL4	GSK309	Deletion
ITPKA	GSK309	Deletion
LTK	GSK309	Deletion
MGA	GSK309	Deletion
CCNDBP1	GSK309	Deletion
B2M	GSK309	Deletion
SHC4	GSK309	Deletion
USP8	GSK309	Deletion
APH1A	GSK313	Amplification
SETDB1	GSK313	Amplification
TNFAIP8L2	GSK313	Amplification
SELENBP1	GSK313	Amplification
S100A7	GSK313	Amplification
S100A4	GSK313	Amplification
GATAD2B	GSK313	Amplification
HAX1	GSK313	Amplification
SHC1	GSK313	Amplification
MUC1	GSK313	Amplification
KIAA0907	GSK313	Amplification
RIT1	GSK313	Amplification
MEF2D	GSK313	Amplification
IQGAP3	GSK313	Amplification
HDGF	GSK313	Amplification
NTRK1	GSK313	Amplification
INSRR	GSK313	Amplification
PEA15	GSK313	Amplification
NCSTN	GSK313	Amplification
F11R	GSK313	Amplification
DDR2	GSK313	Amplification
CCND3	GSK313	Amplification
VEGFA	GSK313	Amplification
NFKBIE	GSK313	Amplification
FKBP9	GSK313	Amplification
SFRP4	GSK313	Amplification
RALA	GSK313	Amplification
INHBA	GSK313	Amplification
GLI3	GSK313	Amplification
DKK4	GSK313	Amplification
FNTA	GSK313	Amplification
IKBKB	GSK313	Amplification
MCM4	GSK313	Amplification
SNAI2	GSK313	Amplification
SOX17	GSK313	Amplification
RP1	GSK313	Amplification
COPS5	GSK313	Amplification
PREX2	GSK313	Amplification
MSC	GSK313	Amplification
HNF4G	GSK313	Amplification
HEY1	GSK313	Amplification
FABP4	GSK313	Amplification
PAG1	GSK313	Amplification
CNBD1	GSK313	Amplification
NBN	GSK313	Amplification
CDH17	GSK313	Amplification
CCNE2	GSK313	Amplification
MTDH	GSK313	Amplification
STK3	GSK313	Amplification
PABPC1	GSK313	Amplification
NCALD	GSK313	Amplification
UBR5	GSK313	Amplification
KLF10	GSK313	Amplification
FZD6	GSK313	Amplification
TMEM74	GSK313	Amplification
CSMD3	GSK313	Amplification
RAD21	GSK313	Amplification
TNFRSF11B	GSK313	Amplification
NOV	GSK313	Amplification
DEPTOR	GSK313	Amplification
MYC	GSK313	Amplification
FAM135B	GSK313	Amplification
PTK2	GSK313	Amplification
PTP4A3	GSK313	Amplification
SCRIB	GSK313	Amplification
JAG1	GSK313	Amplification
RRBP1	GSK313	Amplification
CRNKL1	GSK313	Amplification
FOXA2	GSK313	Amplification
MMP24	GSK313	Amplification
CPNE1	GSK313	Amplification
PHF20	GSK313	Amplification
EPB41L1	GSK313	Amplification
RBL1	GSK313	Amplification
SRC	GSK313	Amplification
PLCG1	GSK313	Amplification
PTPRT	GSK313	Amplification
MYBL2	GSK313	Amplification
PI3	GSK313	Amplification
RBPJL	GSK313	Amplification
UBE2C	GSK313	Amplification
LRP1B	A003-IM18	Deletion
SEMA5A	A003-IM18	Amplification
CTNND2	A003-IM18	Amplification
DNAH5	A003-IM18	Amplification
CDH12	A003-IM18	Amplification
CDH10	A003-IM18	Amplification
DROSHA	A003-IM18	Amplification
GOLPH3	A003-IM18	Amplification
EGFR	A003-IM18	Amplification
MYC	A003-IM18	Amplification
LRP1B	A003-IM19	Deletion
CTNND2	A003-IM19	Amplification
DNAH5	A003-IM19	Amplification
CDH12	A003-IM19	Amplification
CDH10	A003-IM19	Amplification
DROSHA	A003-IM19	Amplification
GOLPH3	A003-IM19	Amplification
HACE1	A003-IM19	Deletion
EGFR	A003-IM19	Amplification
USP8	A003-IM19	Deletion
LRP1B	A003-T-B03	Deletion
CTNND2	A003-T-B03	Amplification
DNAH5	A003-T-B03	Amplification
CDH12	A003-T-B03	Amplification
CDH10	A003-T-B03	Amplification
DROSHA	A003-T-B03	Amplification
GOLPH3	A003-T-B03	Amplification
EGFR	A003-T-B03	Amplification
LRP1B	A003-T-B09	Deletion
SDHA	A003-T-B09	Amplification
TERT	A003-T-B09	Amplification
CLPTM1L	A003-T-B09	Amplification
SEMA5A	A003-T-B09	Amplification
CTNND2	A003-T-B09	Amplification
DNAH5	A003-T-B09	Amplification
CDH12	A003-T-B09	Amplification
CDH10	A003-T-B09	Amplification
DROSHA	A003-T-B09	Amplification
GOLPH3	A003-T-B09	Amplification
IL7R	A003-T-B09	Amplification
SKP2	A003-T-B09	Amplification
NIPBL	A003-T-B09	Amplification
RICTOR	A003-T-B09	Amplification
DAB2	A003-T-B09	Amplification
EGFR	A003-T-B09	Amplification
SAMSN1	A003-T-B09	Amplification
LRP1B	A003-T-B10	Deletion
SEMA5A	A003-T-B10	Amplification
CTNND2	A003-T-B10	Amplification
DNAH5	A003-T-B10	Amplification
CDH12	A003-T-B10	Amplification
CDH10	A003-T-B10	Amplification
DROSHA	A003-T-B10	Amplification
GOLPH3	A003-T-B10	Amplification
DAB2	A003-T-B10	Amplification
EGFR	A003-T-B10	Amplification
PIK3CA	A018-IM110	Amplification
CDH12	A018-IM110	Amplification
CDH10	A018-IM110	Amplification
IL6ST	A018-IM110	Amplification
APC	A018-IM110	Deletion
LARP1	A018-IM110	Amplification
PTTG1	A018-IM110	Amplification
NPM1	A018-IM110	Amplification
DUSP1	A018-IM110	Amplification
DRD1	A018-IM110	Amplification
FGFR4	A018-IM110	Amplification
NSD1	A018-IM110	Amplification
MXD3	A018-IM110	Amplification
HNF4G	A018-IM110	Amplification
HEY1	A018-IM110	Amplification
FABP4	A018-IM110	Amplification
PAG1	A018-IM110	Amplification
CNBD1	A018-IM110	Amplification
TMEM74	A018-IM110	Amplification
CSMD3	A018-IM110	Amplification
EPB41L3	A018-IM110	Amplification
ROCK1	A018-IM110	Amplification
CDH2	A018-IM110	Deletion
SALL4	A018-IM110	Amplification
TCFL5	A018-IM110	Amplification
PTK6	A018-IM110	Amplification
SEC62	A032-IM15	Amplification
DCUN1D1	A032-IM15	Amplification
IGF2BP2	A032-IM15	Amplification
TRA2B	A032-IM15	Amplification
NDUFA4	A032-IM15	Amplification
TMEM106B	A032-IM15	Amplification
ETV1	A032-IM15	Amplification
SOSTDC1	A032-IM15	Amplification
AGR2	A032-IM15	Amplification
TWIST1	A032-IM15	Amplification
TMEM196	A032-IM15	Amplification
IKZF1	A032-IM15	Amplification
EGFR	A032-IM15	Amplification
ZNF479	A032-IM15	Amplification
HGF	A032-IM15	Amplification
CDKN2A	A032-IM15	Deletion
CDKN2B	A032-IM15	Deletion
CLEC4C	A032-IM15	Amplification
MFAP5	A032-IM15	Amplification
ARID2	A032-IM15	Amplification
NR4A1	A032-IM15	Amplification
SMUG1	A032-IM15	Amplification
LRP1	A032-IM15	Amplification
MDM2	A032-IM15	Amplification
YEATS4	A032-IM15	Amplification
RAB3IP	A032-IM15	Amplification
SOX12	A032-IM15	Deletion
SRXN1	A032-IM15	Deletion
SIRPA	A032-IM15	Deletion
PCNA	A032-IM15	Deletion
JAG1	A032-IM15	Deletion
MRAS	A040-IM10	Amplification
PIK3CB	A040-IM10	Amplification
FOXL2	A040-IM10	Amplification
RASA2	A040-IM10	Amplification
ATR	A040-IM10	Amplification
WWTR1	A040-IM10	Amplification
RAP2B	A040-IM10	Amplification
SEC62	A040-IM10	Amplification
PRKCI	A040-IM10	Amplification
PMS2	A040-IM10	Amplification
RAC1	A040-IM10	Amplification
NDUFA4	A040-IM10	Amplification
TMEM106B	A040-IM10	Amplification
ETV1	A040-IM10	Amplification
SOSTDC1	A040-IM10	Amplification
AGR2	A040-IM10	Amplification
TWIST1	A040-IM10	Amplification
TMEM196	A040-IM10	Amplification
IL6	A040-IM10	Amplification
HOXA4	A040-IM10	Amplification
HOXA5	A040-IM10	Amplification
FKBP9	A040-IM10	Amplification
SFRP4	A040-IM10	Amplification
RALA	A040-IM10	Amplification
INHBA	A040-IM10	Amplification
GLI3	A040-IM10	Amplification
IKZF1	A040-IM10	Amplification
EGFR	A040-IM10	Amplification
ZNF479	A040-IM10	Amplification
ARHGEF10	A040-IM10	Deletion
MCPH1	A040-IM10	Deletion
TNKS	A040-IM10	Deletion
SOX7	A040-IM10	Deletion
GATA4	A040-IM10	Deletion
DLC1	A040-IM10	Deletion
TUSC3	A040-IM10	Deletion
MTUS1	A040-IM10	Deletion
LZTS1	A040-IM10	Deletion
DOK2	A040-IM10	Deletion
SFTPC	A040-IM10	Deletion
EGR3	A040-IM10	Deletion
RHOBTB2	A040-IM10	Deletion
NEFM	A040-IM10	Deletion
FZD3	A040-IM10	Deletion
LEPROTL1	A040-IM10	Deletion
NRG1	A040-IM10	Deletion
ZNF703	A040-IM10	Deletion
BRF2	A040-IM10	Deletion
WHSC1L1	A040-IM10	Deletion
FGFR1	A040-IM10	Deletion
IDO1	A040-IM10	Deletion
KAT6A	A040-IM10	Deletion
DKK4	A040-IM10	Deletion
FNTA	A040-IM10	Deletion
IKBKB	A040-IM10	Deletion
CCNE1	A040-IM10	Amplification
PDCD5	A040-IM10	Amplification
RHPN2	A040-IM10	Amplification
CEBPA	A040-IM10	Amplification
PAK4	A040-IM10	Amplification
DLL3	A040-IM10	Amplification
NUMBL	A040-IM10	Amplification
PARK7	A041-IM02	Deletion
ERRFI1	A041-IM02	Deletion
TMEM106B	A041-IM02	Amplification
ETV1	A041-IM02	Amplification
SOSTDC1	A041-IM02	Amplification
AGR2	A041-IM02	Amplification
TWIST1	A041-IM02	Amplification
TMEM196	A041-IM02	Amplification
IL6	A041-IM02	Amplification
HOXA4	A041-IM02	Amplification
HOXA5	A041-IM02	Amplification
HNF4G	A041-IM02	Amplification
MTDH	A041-IM02	Amplification
STK3	A041-IM02	Amplification
PABPC1	A041-IM02	Amplification
NCALD	A041-IM02	Amplification
UBR5	A041-IM02	Amplification
KLF10	A041-IM02	Amplification
FZD6	A041-IM02	Amplification
TMEM74	A041-IM02	Amplification
CSMD3	A041-IM02	Amplification
RAD21	A041-IM02	Amplification
TNFRSF11B	A041-IM02	Amplification
NOV	A041-IM02	Amplification
DEPTOR	A041-IM02	Amplification
MYC	A041-IM02	Amplification
FAM135B	A041-IM02	Amplification
PTK2	A041-IM02	Amplification
PTP4A3	A041-IM02	Amplification
CDKN2A	A041-IM02	Deletion
CDKN2B	A041-IM02	Deletion
WWOX	A041-IM02	Amplification
FKBP3	A042-IM03	Amplification
FANCM	A042-IM03	Amplification
JAG1	A042-IM03	Amplification
RAD17	A044-IM12	Deletion
FGFR4	A044-IM12	Deletion
NSD1	A044-IM12	Deletion
IKZF1	A044-IM12	Amplification
EGFR	A044-IM12	Amplification
ZNF479	A044-IM12	Amplification
FNTA	A044-IM12	Deletion
JAK2	A044-IM12	Deletion
CD274	A044-IM12	Deletion
PDCD1LG2	A044-IM12	Deletion
IL33	A044-IM12	Deletion
UHRF2	A044-IM12	Deletion
GLDC	A044-IM12	Deletion
PTPRD	A044-IM12	Deletion
RPS6	A044-IM12	Deletion
IFNB1	A044-IM12	Deletion
CDKN2A	A044-IM12	Deletion
CDKN2B	A044-IM12	Deletion
SIRT1	A044-IM12	Deletion
ATOH7	A044-IM12	Deletion
RUFY2	A044-IM12	Deletion
TET1	A044-IM12	Deletion
SLC35F2	A044-IM12	Deletion
ATM	A044-IM12	Deletion
CLEC4C	A044-IM12	Deletion
ARL11	A044-IM12	Deletion
NKX2-1	A044-IM12	Amplification
NKX2-8	A044-IM12	Amplification
FOXA1	A044-IM12	Amplification
USP8	A044-IM12	Deletion
CRB3	A044-IM12	Deletion
ZNF223	A044-IM12	Deletion
CHD1L	A047-IM20	Amplification
APH1A	A047-IM20	Amplification
SETDB1	A047-IM20	Amplification
TNFAIP8L2	A047-IM20	Amplification
SELENBP1	A047-IM20	Amplification
PEA15	A047-IM20	Amplification
NCSTN	A047-IM20	Amplification
F11R	A047-IM20	Amplification
DDR2	A047-IM20	Amplification
CRB1	A047-IM20	Amplification
PTPRC	A047-IM20	Amplification
SNAP47	A047-IM20	Amplification
WNT9A	A047-IM20	Amplification
WNT3A	A047-IM20	Amplification
TRIM11	A047-IM20	Amplification
DISC1	A047-IM20	Amplification
CTNND2	A047-IM20	Amplification
CDH12	A047-IM20	Amplification
CDH10	A047-IM20	Amplification
PRKCA	A047-IM20	Amplification
HES4	A047-IM21	Deletion
DVL1	A047-IM21	Deletion
SKI	A047-IM21	Deletion
HES5	A047-IM21	Deletion
TNFRSF14	A047-IM21	Deletion
PRDM16	A047-IM21	Deletion
TP73	A047-IM21	Deletion
CHD1L	A047-IM21	Amplification
APH1A	A047-IM21	Amplification
SETDB1	A047-IM21	Amplification
TNFAIP8L2	A047-IM21	Amplification
SELENBP1	A047-IM21	Amplification
S100A7	A047-IM21	Amplification
S100A4	A047-IM21	Amplification
GATAD2B	A047-IM21	Amplification
HAX1	A047-IM21	Amplification
SHC1	A047-IM21	Amplification
MUC1	A047-IM21	Amplification
KIAA0907	A047-IM21	Amplification
RIT1	A047-IM21	Amplification
MEF2D	A047-IM21	Amplification
IQGAP3	A047-IM21	Amplification
HDGF	A047-IM21	Amplification
NTRK1	A047-IM21	Amplification
INSRR	A047-IM21	Amplification
PEA15	A047-IM21	Amplification
NCSTN	A047-IM21	Amplification
F11R	A047-IM21	Amplification
DDR2	A047-IM21	Amplification
CRB1	A047-IM21	Amplification
PTPRC	A047-IM21	Amplification
SNAP47	A047-IM21	Amplification
WNT9A	A047-IM21	Amplification
WNT3A	A047-IM21	Amplification
TRIM11	A047-IM21	Amplification
DISC1	A047-IM21	Amplification
AKR1C1	A047-IM21	Deletion
LARP4B	A047-IM21	Deletion
ZMYND11	A047-IM21	Deletion
PFKFB3	A047-IM21	Deletion
ITIH5	A047-IM21	Deletion
GATA3	A047-IM21	Deletion
OPTN	A047-IM21	Deletion
PTER	A047-IM21	Deletion
BMI1	A047-IM21	Deletion
ZEB1	A047-IM21	Deletion
KIF5B	A047-IM21	Deletion
ITGB1	A047-IM21	Deletion
FZD8	A047-IM21	Deletion
HIF1A	A047-IM21	Amplification
STK11	A047-IM21	Deletion
DAZAP1	A047-IM21	Deletion
MAML2	A055-IM26	Deletion
PGR	A055-IM26	Deletion
YAP1	A055-IM26	Deletion
BIRC3	A055-IM26	Deletion
MMP10	A055-IM26	Deletion
MMP12	A055-IM26	Deletion
LASP1	A055-IM26	Amplification
CDK12	A055-IM26	Amplification
PPP1R1B	A055-IM26	Amplification
ERBB2	A055-IM26	Amplification
GNAS	A055-IM26	Deletion
CDH4	A055-IM26	Deletion
PDGFRA	A060-IM30	Amplification
TWIST1	A060-IM30	Amplification
TMEM196	A060-IM30	Amplification
IL6	A060-IM30	Amplification
HOXA4	A060-IM30	Amplification
HOXA5	A060-IM30	Amplification
FKBP9	A060-IM30	Amplification
SFRP4	A060-IM30	Amplification
EGFR	A060-IM30	Amplification
ZNF479	A060-IM30	Amplification
ARHGAP5	A060-IM30	Amplification
BAZ1A	A060-IM30	Amplification
PSMA6	A060-IM30	Amplification
NKX2-1	A060-IM30	Amplification
NKX2-8	A060-IM30	Amplification
FOXA1	A060-IM30	Amplification
CDH2	A060-IM30	Amplification
CTNND2	A079-IM01	Amplification
DNAH5	A079-IM01	Amplification
CDH12	A079-IM01	Amplification
CDH10	A079-IM01	Amplification
DROSHA	A079-IM01	Amplification
IKZF1	A079-IM01	Amplification
EGFR	A079-IM01	Amplification
DLC1	A079-IM01	Deletion
TUSC3	A079-IM01	Deletion
HEY1	A079-IM01	Amplification
FABP4	A079-IM01	Amplification
PAG1	A079-IM01	Amplification
CNBD1	A079-IM01	Amplification
NBN	A079-IM01	Amplification
CDH17	A079-IM01	Amplification
CCNE2	A079-IM01	Amplification
MTDH	A079-IM01	Amplification
STK3	A079-IM01	Amplification
PABPC1	A079-IM01	Amplification
NCALD	A079-IM01	Amplification
UBR5	A079-IM01	Amplification
KLF10	A079-IM01	Amplification
FZD6	A079-IM01	Amplification
TMEM74	A079-IM01	Amplification
CSMD3	A079-IM01	Amplification
PTK2	A079-IM01	Amplification
PTP4A3	A079-IM01	Amplification
SCRIB	A079-IM01	Amplification
SLIT2	A087-IM11	Amplification
TMEM106B	A087-IM11	Amplification
ETV1	A087-IM11	Amplification
CCNE1	A087-IM11	Amplification
IRF2	A096-IM138	Amplification
STK3	A096-IM138	Amplification
PABPC1	A096-IM138	Amplification
NCALD	A096-IM138	Amplification
UBR5	A096-IM138	Amplification
PTPRD	A096-IM138	Amplification
CDKN2A	A096-IM138	Amplification
CDKN2B	A096-IM138	Amplification
GNAQ	A096-IM138	Amplification
WIF1	A096-IM138	Amplification
HMGA2	A096-IM138	Amplification
MDM2	A096-IM138	Amplification
YEATS4	A096-IM138	Amplification
RAB3IP	A096-IM138	Amplification
PTPRB	A096-IM138	Amplification
LGR5	A096-IM138	Amplification
NAV3	A096-IM138	Amplification
PAWR	A096-IM138	Amplification
WWOX	A096-IM138	Amplification
CDH13	A096-IM138	Amplification
MYC	A151-IM116	Amplification
FAM135B	A151-IM116	Amplification
PTK2	A151-IM116	Amplification
PTP4A3	A151-IM116	Amplification
PTPRD	A151-IM116	Deletion
WIF1	A151-IM116	Amplification
HMGA2	A151-IM116	Amplification
MDM2	A151-IM116	Amplification
YEATS4	A151-IM116	Amplification
RAB3IP	A151-IM116	Amplification
NKX2-1	A151-IM116	Amplification
NKX2-8	A151-IM116	Amplification
FOXA1	A151-IM116	Amplification
CTCFL	A151-IM116	Amplification
CHD5	A152-T-S33	Amplification
RPL22	A152-T-S33	Amplification
ICMT	A152-T-S33	Amplification
HES3	A152-T-S33	Amplification
HES2	A152-T-S33	Amplification
PARK7	A152-T-S33	Amplification
ERRFI1	A152-T-S33	Amplification
ENO1	A152-T-S33	Amplification
PIK3CD	A152-T-S33	Amplification
MTOR	A152-T-S33	Amplification
MIIP	A152-T-S33	Amplification
CASP9	A152-T-S33	Amplification
SPEN	A152-T-S33	Amplification
EPHA2	A152-T-S33	Amplification
FABP3	A152-T-S33	Amplification
MACF1	A152-T-S33	Amplification
HEYL	A152-T-S33	Amplification
TRIT1	A152-T-S33	Amplification
RLF	A152-T-S33	Amplification
NDUFA4	A152-T-S33	Amplification
TMEM106B	A152-T-S33	Amplification
ETV1	A152-T-S33	Amplification
SOSTDC1	A152-T-S33	Amplification
AGR2	A152-T-S33	Amplification
TWIST1	A152-T-S33	Amplification
TMEM196	A152-T-S33	Amplification
EGFR	A152-T-S33	Amplification
ZNF479	A152-T-S33	Amplification
TNKS	A152-T-S33	Deletion
SOX7	A152-T-S33	Deletion
GATA4	A152-T-S33	Deletion
DLC1	A152-T-S33	Deletion
TUSC3	A152-T-S33	Deletion
FZD3	A152-T-S33	Deletion
LEPROTL1	A152-T-S33	Deletion
NRG1	A152-T-S33	Deletion
CNTN1	A152-T-S33	Amplification
CDK4	A152-T-S33	Amplification
DTX3	A152-T-S33	Amplification
HMGA2	A152-T-S33	Amplification
MDM2	A152-T-S33	Amplification
YEATS4	A152-T-S33	Amplification
RAB3IP	A152-T-S33	Amplification
LGR5	A152-T-S33	Amplification
PIK3CD	A152-T-S37	Amplification
MIIP	A152-T-S37	Amplification
CASP9	A152-T-S37	Amplification
SPEN	A152-T-S37	Amplification
EPHA2	A152-T-S37	Amplification
WNT4	A152-T-S37	Amplification
FABP3	A152-T-S37	Amplification
MACF1	A152-T-S37	Amplification
HEYL	A152-T-S37	Amplification
NDUFA4	A152-T-S37	Amplification
TMEM106B	A152-T-S37	Amplification
ETV1	A152-T-S37	Amplification
SOSTDC1	A152-T-S37	Amplification
AGR2	A152-T-S37	Amplification
TWIST1	A152-T-S37	Amplification
TMEM196	A152-T-S37	Amplification
EGFR	A152-T-S37	Amplification
ZNF479	A152-T-S37	Amplification
TNKS	A152-T-S37	Deletion
SOX7	A152-T-S37	Deletion
GATA4	A152-T-S37	Deletion
DLC1	A152-T-S37	Deletion
TUSC3	A152-T-S37	Deletion
MTUS1	A152-T-S37	Deletion
LZTS1	A152-T-S37	Deletion
DOK2	A152-T-S37	Deletion
SFTPC	A152-T-S37	Deletion
EGR3	A152-T-S37	Deletion
RHOBTB2	A152-T-S37	Deletion
NEFM	A152-T-S37	Deletion
FZD3	A152-T-S37	Deletion
LEPROTL1	A152-T-S37	Deletion
NRG1	A152-T-S37	Deletion
RAPGEF1	A152-T-S37	Deletion
TTF1	A152-T-S37	Deletion
TSC1	A152-T-S37	Deletion
CNTN1	A152-T-S37	Amplification
CDK4	A152-T-S37	Amplification
DTX3	A152-T-S37	Amplification
HMGA2	A152-T-S37	Amplification
MDM2	A152-T-S37	Amplification
YEATS4	A152-T-S37	Amplification
RAB3IP	A152-T-S37	Amplification
LGR5	A152-T-S37	Amplification
PIK3CD	A152-T-S42	Amplification
MIIP	A152-T-S42	Amplification
CASP9	A152-T-S42	Amplification
SPEN	A152-T-S42	Amplification
EPHA2	A152-T-S42	Amplification
WNT4	A152-T-S42	Amplification
FABP3	A152-T-S42	Amplification
CYR61	A152-T-S42	Deletion
HLA-B	A152-T-S42	Deletion
TNF	A152-T-S42	Deletion
EHMT2	A152-T-S42	Deletion
NOTCH4	A152-T-S42	Deletion
DAXX	A152-T-S42	Deletion
LEMD2	A152-T-S42	Deletion
HMGA1	A152-T-S42	Deletion
SPDEF	A152-T-S42	Deletion
TEAD3	A152-T-S42	Deletion
SRPK1	A152-T-S42	Deletion
MAPK14	A152-T-S42	Deletion
CDKN1A	A152-T-S42	Deletion
PIM1	A152-T-S42	Deletion
DNAH8	A152-T-S42	Deletion
CCND3	A152-T-S42	Deletion
VEGFA	A152-T-S42	Deletion
NFKBIE	A152-T-S42	Deletion
TFAP2B	A152-T-S42	Deletion
UFL1	A152-T-S42	Deletion
POU3F2	A152-T-S42	Deletion
CCNC	A152-T-S42	Deletion
HACE1	A152-T-S42	Deletion
PRDM1	A152-T-S42	Deletion
PDSS2	A152-T-S42	Deletion
FOXO3	A152-T-S42	Deletion
FYN	A152-T-S42	Deletion
MARCKS	A152-T-S42	Deletion
HDAC2	A152-T-S42	Deletion
ROS1	A152-T-S42	Deletion
GOPC	A152-T-S42	Deletion
GJA1	A152-T-S42	Deletion
HEY2	A152-T-S42	Deletion
MED23	A152-T-S42	Deletion
CTGF	A152-T-S42	Deletion
EYA4	A152-T-S42	Deletion
TCF21	A152-T-S42	Deletion
SGK1	A152-T-S42	Deletion
MYB	A152-T-S42	Deletion
BCLAF1	A152-T-S42	Deletion
TNFAIP3	A152-T-S42	Deletion
ECT2L	A152-T-S42	Deletion
SASH1	A152-T-S42	Deletion
LATS1	A152-T-S42	Deletion
NDUFA4	A152-T-S42	Amplification
TMEM106B	A152-T-S42	Amplification
ETV1	A152-T-S42	Amplification
SOSTDC1	A152-T-S42	Amplification
AGR2	A152-T-S42	Amplification
TWIST1	A152-T-S42	Amplification
TMEM196	A152-T-S42	Amplification
ARHGEF10	A152-T-S42	Deletion
TNKS	A152-T-S42	Deletion
SOX7	A152-T-S42	Deletion
GATA4	A152-T-S42	Deletion
DLC1	A152-T-S42	Deletion
TUSC3	A152-T-S42	Deletion
MTUS1	A152-T-S42	Deletion
LZTS1	A152-T-S42	Deletion
DOK2	A152-T-S42	Deletion
SFTPC	A152-T-S42	Deletion
EGR3	A152-T-S42	Deletion
RHOBTB2	A152-T-S42	Deletion
NEFM	A152-T-S42	Deletion
FZD3	A152-T-S42	Deletion
LEPROTL1	A152-T-S42	Deletion
NRG1	A152-T-S42	Deletion
MSC	A152-T-S42	Deletion
HNF4G	A152-T-S42	Deletion
HEY1	A152-T-S42	Deletion
FABP4	A152-T-S42	Deletion
PAG1	A152-T-S42	Deletion
SMARCA2	A152-T-S42	Deletion
JAK2	A152-T-S42	Deletion
CD274	A152-T-S42	Deletion
PDCD1LG2	A152-T-S42	Deletion
IL33	A152-T-S42	Deletion
UHRF2	A152-T-S42	Deletion
GLDC	A152-T-S42	Deletion
FBXW2	A152-T-S42	Deletion
RAB14	A152-T-S42	Deletion
GSN	A152-T-S42	Deletion
DAB2IP	A152-T-S42	Deletion
LHX6	A152-T-S42	Deletion
CRB2	A152-T-S42	Deletion
LHX2	A152-T-S42	Deletion
PPP6C	A152-T-S42	Deletion
MAPKAP1	A152-T-S42	Deletion
ANGPTL2	A152-T-S42	Deletion
ENG	A152-T-S42	Deletion
ST6GALNAC4	A152-T-S42	Deletion
ABL1	A152-T-S42	Deletion
RAPGEF1	A152-T-S42	Deletion
TTF1	A152-T-S42	Deletion
TSC1	A152-T-S42	Deletion
RALGDS	A152-T-S42	Deletion
BRD3	A152-T-S42	Deletion
LHX3	A152-T-S42	Deletion
NOTCH1	A152-T-S42	Deletion
EGFL7	A152-T-S42	Deletion
NRARP	A152-T-S42	Deletion
PTEN	A152-T-S42	Deletion
ANKRD22	A152-T-S42	Deletion
FAS	A152-T-S42	Deletion
IFIT3	A152-T-S42	Deletion
CPEB3	A152-T-S42	Deletion
CEP55	A152-T-S42	Deletion
PLCE1	A152-T-S42	Deletion
HELLS	A152-T-S42	Deletion
CYP2C8	A152-T-S42	Deletion
FRAT1	A152-T-S42	Deletion
FRAT2	A152-T-S42	Deletion
SFRP5	A152-T-S42	Deletion
WNT8B	A152-T-S42	Deletion
WT1	A152-T-S42	Deletion
CD44	A152-T-S42	Deletion
TRIM44	A152-T-S42	Deletion
TRAF6	A152-T-S42	Deletion
CNTN1	A152-T-S42	Amplification
CDK4	A152-T-S42	Amplification
DTX3	A152-T-S42	Amplification
HMGA2	A152-T-S42	Amplification
MDM2	A152-T-S42	Amplification
YEATS4	A152-T-S42	Amplification
RAB3IP	A152-T-S42	Amplification
LGR5	A152-T-S42	Amplification
NAV3	A152-T-S42	Deletion
PAWR	A152-T-S42	Deletion
KITLG	A152-T-S42	Deletion
DUSP6	A152-T-S42	Deletion
CYSLTR2	A152-T-S42	Deletion
ARL11	A152-T-S42	Deletion
INTS6	A152-T-S42	Deletion
PCDH17	A152-T-S42	Deletion
GRP	A152-T-S42	Deletion
BCL2	A152-T-S42	Deletion
SERPINB5	A152-T-S42	Deletion
SERPINB3	A152-T-S42	Deletion
SHC2	A152-T-S42	Deletion
STK11	A152-T-S42	Deletion
DAZAP1	A152-T-S42	Deletion
DOT1L	A152-T-S42	Deletion
TLE2	A152-T-S42	Deletion
AES	A152-T-S42	Deletion
GNA11	A152-T-S42	Deletion
NFIC	A152-T-S42	Deletion
MAP2K2	A152-T-S42	Deletion
PIAS4	A152-T-S42	Deletion
ZBTB7A	A152-T-S42	Deletion
UHRF1	A152-T-S42	Deletion
CRB3	A152-T-S42	Deletion
TRIP10	A152-T-S42	Deletion
VAV1	A152-T-S42	Deletion
INSR	A152-T-S42	Deletion
CD209	A152-T-S42	Deletion
MAP2K7	A152-T-S42	Deletion
PRAM1	A152-T-S42	Deletion
MUC16	A152-T-S42	Deletion
PIN1	A152-T-S42	Deletion
DNMT1	A152-T-S42	Deletion
KEAP1	A152-T-S42	Deletion
DNM2	A152-T-S42	Deletion
SMARCA4	A152-T-S42	Deletion
SPC24	A152-T-S42	Deletion
CACNA1A	A152-T-S42	Deletion
PRKACA	A152-T-S42	Deletion
NOTCH3	A152-T-S42	Deletion
RASAL3	A152-T-S42	Deletion
KLF2	A152-T-S42	Deletion
JAK3	A152-T-S42	Deletion
PIK3R2	A152-T-S42	Deletion
GDF15	A152-T-S42	Deletion
DGCR8	A152-T-S42	Amplification
CDC73	A180-IM126	Amplification
SLIT2	A244-IM69	Amplification
IRF2	A244-IM69	Amplification
CASP3	A244-IM69	Amplification
ACSL1	A244-IM69	Amplification
FAT1	A244-IM69	Amplification
CDKN2A	A244-IM69	Deletion
CDKN2B	A244-IM69	Deletion
NFKBIE	A438-IM70	Amplification
HACE1	A438-IM70	Amplification
PRDM1	A438-IM70	Amplification
PDSS2	A438-IM70	Amplification
MED23	A438-IM70	Amplification
CTGF	A438-IM70	Amplification
EYA4	A438-IM70	Amplification
TCF21	A438-IM70	Amplification
SGK1	A438-IM70	Amplification
TNFAIP3	A438-IM70	Amplification
ESR1	A438-IM70	Amplification
RGS17	A438-IM70	Amplification
NDUFA4	A438-IM70	Amplification
TMEM106B	A438-IM70	Amplification
ETV1	A438-IM70	Amplification
SOSTDC1	A438-IM70	Amplification
AGR2	A438-IM70	Amplification
TWIST1	A438-IM70	Amplification
TMEM196	A438-IM70	Amplification
DLC1	A438-IM70	Deletion
PTPRD	A438-IM70	Deletion
NFIB	A438-IM70	Deletion
CDKN2A	A438-IM70	Deletion
CDKN2B	A438-IM70	Deletion
RBM4	A438-IM70	Amplification
RCE1	A438-IM70	Amplification
KDM2A	A438-IM70	Amplification
CHKA	A438-IM70	Amplification
GAB2	A438-IM70	Amplification
MDM2	A438-IM70	Amplification
YEATS4	A438-IM70	Amplification
NPRL3	A438-IM70	Amplification
AXIN1	A438-IM70	Amplification
BRD7	A438-IM70	Amplification
CYLD	A438-IM70	Amplification
NFKBIE	A438-IM71	Amplification
TTK	A438-IM71	Amplification
HACE1	A438-IM71	Amplification
PRDM1	A438-IM71	Amplification
PDSS2	A438-IM71	Amplification
MED23	A438-IM71	Amplification
CTGF	A438-IM71	Amplification
EYA4	A438-IM71	Amplification
TCF21	A438-IM71	Amplification
SGK1	A438-IM71	Amplification
ESR1	A438-IM71	Amplification
RGS17	A438-IM71	Amplification
TMEM196	A438-IM71	Amplification
PTPRD	A438-IM71	Deletion
CDKN2A	A438-IM71	Deletion
RBM4	A438-IM71	Amplification
RCE1	A438-IM71	Amplification
KDM2A	A438-IM71	Amplification
CHKA	A438-IM71	Amplification
GAB2	A438-IM71	Amplification
MDM2	A438-IM71	Amplification
YEATS4	A438-IM71	Amplification
NPRL3	A438-IM71	Amplification
AXIN1	A438-IM71	Amplification
BRD7	A438-IM71	Amplification
CYLD	A438-IM71	Amplification
SLIT2	A443-IM77	Amplification
EGFR	A443-IM77	Amplification
GRM3	A443-IM77	Amplification
DMTF1	A443-IM77	Amplification
ABCB4	A443-IM77	Amplification
FZD1	A443-IM77	Amplification
CDK6	A443-IM77	Amplification
SOX17	A443-IM77	Amplification
RP1	A443-IM77	Amplification
LOX	A448-IM85	Amplification
SOX30	A448-IM85	Amplification
PTTG1	A448-IM85	Amplification
SLIT3	A448-IM85	Amplification
NPM1	A448-IM85	Amplification
DUSP1	A448-IM85	Amplification
DRD1	A448-IM85	Amplification
FGFR4	A448-IM85	Amplification
NSD1	A448-IM85	Amplification
MXD3	A448-IM85	Amplification
NDUFA4	A448-IM85	Amplification
TMEM106B	A448-IM85	Amplification
ETV1	A448-IM85	Amplification
SOSTDC1	A448-IM85	Amplification
AGR2	A448-IM85	Amplification
TWIST1	A448-IM85	Amplification
TMEM196	A448-IM85	Amplification
CNTNAP2	A448-IM85	Amplification
PTPRD	A448-IM85	Deletion
CDKN2A	A448-IM85	Deletion
MARK2	A448-IM85	Amplification
MDM2	A448-IM85	Amplification
YEATS4	A448-IM85	Amplification
RAB3IP	A448-IM85	Amplification
PTPRB	A448-IM85	Amplification
LGR5	A448-IM85	Amplification
PDCD5	A448-IM85	Amplification
RHPN2	A448-IM85	Amplification
CEBPA	A448-IM85	Amplification
WTIP	A448-IM85	Amplification
SBSN	A448-IM85	Amplification
PSENEN	A448-IM85	Amplification
SPRED3	A448-IM85	Amplification
RASGRP4	A448-IM85	Amplification
SIRT2	A448-IM85	Amplification
PAK4	A448-IM85	Amplification
DLL3	A448-IM85	Amplification
CNTD2	A448-IM85	Amplification
AKT2	A448-IM85	Amplification
NUMBL	A448-IM85	Amplification
DDR2	A449-IM86	Amplification
RASAL2	A449-IM86	Amplification
CDH12	A449-IM86	Amplification
CDH10	A449-IM86	Amplification
DROSHA	A449-IM86	Amplification
GOLPH3	A449-IM86	Amplification
IL7R	A449-IM86	Amplification
SKP2	A449-IM86	Amplification
SPRY2	A449-IM86	Amplification
GPC5	A449-IM86	Amplification
ITGBL1	A449-IM86	Amplification
NKX2-1	A449-IM86	Amplification
NKX2-8	A449-IM86	Amplification
FOXA1	A449-IM86	Amplification
CDK12	A449-IM86	Amplification
PPP1R1B	A449-IM86	Amplification
ERBB2	A449-IM86	Amplification
EYA2	A449-IM86	Amplification
SALL4	A449-IM86	Amplification
VHL	A452-IM93	Deletion
NDUFA4	A452-IM93	Amplification
TMEM106B	A452-IM93	Amplification
ETV1	A452-IM93	Amplification
SOSTDC1	A452-IM93	Amplification
AGR2	A452-IM93	Amplification
TWIST1	A452-IM93	Amplification
TMEM196	A452-IM93	Amplification
CDKN2A	A452-IM93	Deletion
CDKN2B	A452-IM93	Deletion
SDHA	A453-IM95	Amplification
TERT	A453-IM95	Amplification
CLPTM1L	A453-IM95	Amplification
CTNND2	A453-IM95	Amplification
CDH12	A453-IM95	Amplification
DROSHA	A453-IM95	Amplification
GOLPH3	A453-IM95	Amplification
SKP2	A453-IM95	Amplification
RICTOR	A453-IM95	Amplification
DAB2	A453-IM95	Amplification
APC	A453-IM95	Amplification
TNFAIP8	A453-IM95	Amplification
LOX	A453-IM95	Amplification
PTTG1	A453-IM95	Amplification
DUSP1	A453-IM95	Amplification
PTPRD	A453-IM95	Deletion
HOXC13	A453-IM95	Amplification
SMUG1	A453-IM95	Amplification
CDK4	A453-IM95	Amplification
DTX3	A453-IM95	Amplification
WIF1	A453-IM95	Amplification
MDM2	A453-IM95	Amplification
YEATS4	A453-IM95	Amplification
RAB3IP	A453-IM95	Amplification
PTPRB	A453-IM95	Amplification
LGR5	A453-IM95	Amplification
CDC73	A457-IM102	Amplification
CRB1	A457-IM102	Amplification
PTPRC	A457-IM102	Amplification
NR5A2	A457-IM102	Amplification
KIF14	A457-IM102	Amplification
CDH12	A457-IM102	Amplification
CDH10	A457-IM102	Amplification
PTPRD	A457-IM102	Deletion
IFNB1	A457-IM102	Deletion
CDKN2A	A457-IM102	Deletion
CDKN2B	A457-IM102	Deletion
YEATS4	A457-IM102	Amplification
CDC73	A457-IM103	Amplification
CRB1	A457-IM103	Amplification
PTPRC	A457-IM103	Amplification
NR5A2	A457-IM103	Amplification
CDH12	A457-IM103	Amplification
CDH10	A457-IM103	Amplification
PTPRD	A457-IM103	Deletion
IFNB1	A457-IM103	Deletion
CDKN2A	A457-IM103	Deletion
CDKN2B	A457-IM103	Deletion
APH1A	A459-IM107	Amplification
SETDB1	A459-IM107	Amplification
TNFAIP8L2	A459-IM107	Amplification
SELENBP1	A459-IM107	Amplification
GATAD2B	A459-IM107	Amplification
HAX1	A459-IM107	Amplification
SHC1	A459-IM107	Amplification
MUC1	A459-IM107	Amplification
KIAA0907	A459-IM107	Amplification
RIT1	A459-IM107	Amplification
MEF2D	A459-IM107	Amplification
IQGAP3	A459-IM107	Amplification
SEC62	A459-IM107	Amplification
PRKCI	A459-IM107	Amplification
EIF5A2	A459-IM107	Amplification
ECT2	A459-IM107	Amplification
TBL1XR1	A459-IM107	Amplification
ZMAT3	A459-IM107	Amplification
PIK3CA	A459-IM107	Amplification
SKIV2L2	A459-IM107	Amplification
IL6ST	A459-IM107	Amplification
RAD17	A459-IM107	Amplification
PMS2	A459-IM107	Amplification
RAC1	A459-IM107	Amplification
ZNF479	A459-IM107	Amplification
FZD9	A459-IM107	Amplification
MLXIPL	A459-IM107	Amplification
CLDN3	A459-IM107	Amplification
CLDN4	A459-IM107	Amplification
GTF2I	A459-IM107	Amplification
DTX2	A459-IM107	Amplification
PTPN12	A459-IM107	Amplification
HGF	A459-IM107	Amplification
NRG1	A459-IM107	Amplification
IDO1	A459-IM107	Amplification
BAZ1A	A459-IM107	Amplification
PSMA6	A459-IM107	Amplification
TC2N	A459-IM107	Amplification
ATXN3	A459-IM107	Amplification
SHC4	A459-IM107	Amplification
USP8	A459-IM107	Amplification
ADAM10	A459-IM107	Amplification
RNF111	A459-IM107	Amplification
GCNT3	A459-IM107	Amplification
IGF1R	A459-IM107	Deletion
DUSP22	A464-IM113	Amplification
FOXF2	A464-IM113	Amplification
FOXC1	A464-IM113	Amplification
DSP	A464-IM113	Amplification
SIRT5	A464-IM113	Amplification
RANBP9	A464-IM113	Amplification
E2F3	A464-IM113	Amplification
SOX4	A464-IM113	Amplification
TDP2	A464-IM113	Amplification
HIST1H3B	A464-IM113	Amplification
HIST1H1C	A464-IM113	Amplification
ZNF322	A464-IM113	Amplification
TRIM27	A464-IM113	Amplification
TFAP2B	A464-IM113	Amplification
BMP5	A464-IM113	Amplification
NDUFA4	A464-IM113	Amplification
TMEM106B	A464-IM113	Amplification
ETV1	A464-IM113	Amplification
SOSTDC1	A464-IM113	Amplification
AGR2	A464-IM113	Amplification
TWIST1	A464-IM113	Amplification
TMEM196	A464-IM113	Amplification
TMEM74	A464-IM113	Amplification
CSMD3	A464-IM113	Amplification
RAD21	A464-IM113	Amplification
TNFRSF11B	A464-IM113	Amplification
CDKN2A	A464-IM113	Deletion
CDKN2B	A464-IM113	Deletion
LMO1	A464-IM113	Amplification
STK33	A464-IM113	Amplification
ZNF143	A464-IM113	Amplification
MS4A3	A464-IM113	Amplification
SIK2	A464-IM113	Amplification
PPP2R1B	A464-IM113	Amplification
TMEM74	A464-IM114	Amplification
CSMD3	A464-IM114	Amplification
CDKN2A	A464-IM114	Deletion
CDKN2B	A464-IM114	Deletion
MS4A3	A464-IM114	Amplification
SIK2	A464-IM114	Amplification
PPP2R1B	A464-IM114	Amplification
SDHA	A469-IM122	Amplification
TERT	A469-IM122	Amplification
CLPTM1L	A469-IM122	Amplification
SEMA5A	A469-IM122	Amplification
CTNND2	A469-IM122	Amplification
DNAH5	A469-IM122	Amplification
CDH12	A469-IM122	Amplification
CDH10	A469-IM122	Amplification
DROSHA	A469-IM122	Amplification
GOLPH3	A469-IM122	Amplification
IL7R	A469-IM122	Amplification
SKP2	A469-IM122	Amplification
NIPBL	A469-IM122	Amplification
RICTOR	A469-IM122	Amplification
DAB2	A469-IM122	Amplification
TNFAIP3	A469-IM122	Amplification
ECT2L	A469-IM122	Amplification
UNCX	A469-IM122	Amplification
NUDT1	A469-IM122	Amplification
LFNG	A469-IM122	Amplification
CARD11	A469-IM122	Amplification
PMS2	A469-IM122	Amplification
RAC1	A469-IM122	Amplification
NDUFA4	A469-IM122	Amplification
TMEM106B	A469-IM122	Amplification
ETV1	A469-IM122	Amplification
SOSTDC1	A469-IM122	Amplification
AGR2	A469-IM122	Amplification
TWIST1	A469-IM122	Amplification
TMEM196	A469-IM122	Amplification
IL6	A469-IM122	Amplification
HOXA4	A469-IM122	Amplification
HOXA5	A469-IM122	Amplification
FKBP9	A469-IM122	Amplification
SFRP4	A469-IM122	Amplification
RALA	A469-IM122	Amplification
INHBA	A469-IM122	Amplification
GLI3	A469-IM122	Amplification
IKZF1	A469-IM122	Amplification
EGFR	A469-IM122	Amplification
FZD1	A469-IM122	Amplification
SAMD9	A469-IM122	Amplification
ACHE	A469-IM122	Amplification
EPHB4	A469-IM122	Amplification
CUX1	A469-IM122	Amplification
PTPRD	A469-IM122	Deletion
IFNB1	A469-IM122	Deletion
CDKN2A	A469-IM122	Deletion
CDKN2B	A469-IM122	Deletion
KDM5A	A469-IM122	Amplification
WNT5B	A469-IM122	Amplification
FOXM1	A469-IM122	Amplification
TEAD4	A469-IM122	Amplification
CCND2	A469-IM122	Amplification
CHD4	A469-IM122	Amplification
PTPN6	A469-IM122	Amplification
CLEC4C	A469-IM122	Amplification
MFAP5	A469-IM122	Amplification
LRP6	A469-IM122	Amplification
CDKN1B	A469-IM122	Amplification
GPRC5A	A469-IM122	Amplification
ATF7IP	A469-IM122	Amplification
PTPRO	A469-IM122	Amplification
JAG1	A469-IM122	Amplification
PRAME	A469-IM122	Amplification
BCR	A469-IM122	Amplification
SMARCB1	A469-IM122	Amplification
DDT	A469-IM122	Amplification
DRG1	A469-IM122	Amplification
TRIT1	A471-IM124	Amplification
FLT3	A471-IM124	Deletion
THRAP3	A475-IM131	Amplification
STK40	A475-IM131	Amplification
MACF1	A475-IM131	Amplification
HEYL	A475-IM131	Amplification
TRIT1	A475-IM131	Amplification
RLF	A475-IM131	Amplification
ZYG11A	A475-IM131	Amplification
PABPC1	A475-IM131	Amplification
NCALD	A475-IM131	Amplification
UBR5	A475-IM131	Amplification
KLF10	A475-IM131	Amplification
FZD6	A475-IM131	Amplification
TMEM74	A475-IM131	Amplification
PTK2	A475-IM131	Amplification
CDKN2A	A475-IM131	Deletion
CDKN2B	A475-IM131	Deletion
SIX1	A475-IM131	Amplification
TSHR	A475-IM131	Amplification
EPHA3	A038-IM140	Amplification
SDHA	A038-IM140	Amplification
CNTNAP2	A038-IM140	Deletion
KLF12	A038-IM140	Amplification
GPC5	A038-IM140	Amplification
PDCD5	A038-IM140	Amplification
RHPN2	A038-IM140	Amplification
CEBPA	A038-IM140	Amplification
SPRED3	A038-IM140	Amplification
RASGRP4	A038-IM140	Amplification
SIRT2	A038-IM140	Amplification
PAK4	A038-IM140	Amplification
DLL3	A038-IM140	Amplification
CNTD2	A038-IM140	Amplification
AKT2	A038-IM140	Amplification
NUMBL	A038-IM140	Amplification
SUSD2	A038-IM140	Amplification
RASA2	A040-IM08	Amplification
ATR	A040-IM08	Amplification
CCNE1	A040-IM08	Amplification
PSENEN	A040-IM08	Amplification
PAK4	A040-IM08	Amplification
DLL3	A040-IM08	Amplification
CNTD2	A040-IM08	Amplification
AKT2	A040-IM08	Amplification
NUMBL	A040-IM08	Amplification
NDUFA4	A040-IM09	Amplification
TMEM106B	A040-IM09	Amplification
ETV1	A040-IM09	Amplification
CCNE1	A040-IM09	Amplification
PDCD5	A040-IM09	Amplification
RHPN2	A040-IM09	Amplification
CEBPA	A040-IM09	Amplification
WTIP	A040-IM09	Amplification
SBSN	A040-IM09	Amplification
PSENEN	A040-IM09	Amplification
PAK4	A040-IM09	Amplification
DLL3	A040-IM09	Amplification
CNTD2	A040-IM09	Amplification
AKT2	A040-IM09	Amplification
NUMBL	A040-IM09	Amplification
FOXA2	A040-IM09	Amplification
DLC1	A040-IM141	Deletion
TUSC3	A040-IM141	Deletion
NRG1	A040-IM141	Deletion
CCNE1	A040-IM141	Amplification
PSENEN	A040-IM141	Amplification
PAK4	A040-IM141	Amplification
DLL3	A040-IM141	Amplification
NUMBL	A040-IM141	Amplification
PTPRD	A056-IM27	Deletion
RPS6	A056-IM27	Deletion
LATS2	A056-IM27	Deletion
SETD1B	A057-IM28	Deletion
CTIF	A057-IM28	Deletion
ZNRF3	A057-IM28	Deletion
CTNNA2	A058-IM29	Amplification
LRP1B	A058-IM29	Amplification
ITGAV	A058-IM29	Amplification
MITF	A058-IM29	Amplification
FOXP1	A058-IM29	Amplification
ROBO2	A058-IM29	Amplification
EPHA3	A058-IM29	Amplification
SLIT2	A058-IM29	Amplification
TDP2	A058-IM29	Amplification
HIST1H3B	A058-IM29	Amplification
HIST1H1C	A058-IM29	Amplification
ZNF322	A058-IM29	Amplification
TRIM27	A058-IM29	Amplification
UNCX	A058-IM29	Amplification
NUDT1	A058-IM29	Amplification
LFNG	A058-IM29	Amplification
CARD11	A058-IM29	Amplification
PMS2	A058-IM29	Amplification
RAC1	A058-IM29	Amplification
NDUFA4	A058-IM29	Amplification
TMEM106B	A058-IM29	Amplification
ETV1	A058-IM29	Amplification
SOSTDC1	A058-IM29	Amplification
AGR2	A058-IM29	Amplification
TWIST1	A058-IM29	Amplification
TMEM196	A058-IM29	Amplification
IL6	A058-IM29	Amplification
HOXA4	A058-IM29	Amplification
HOXA5	A058-IM29	Amplification
FKBP9	A058-IM29	Amplification
IKZF1	A058-IM29	Amplification
EGFR	A058-IM29	Amplification
ZNF479	A058-IM29	Amplification
HGF	A058-IM29	Amplification
GRM3	A058-IM29	Amplification
DMTF1	A058-IM29	Amplification
ABCB4	A058-IM29	Amplification
FZD1	A058-IM29	Amplification
CDK6	A058-IM29	Amplification
SAMD9	A058-IM29	Amplification
PON1	A058-IM29	Amplification
PDK4	A058-IM29	Amplification
TES	A058-IM29	Amplification
CAV1	A058-IM29	Amplification
MET	A058-IM29	Amplification
WNT2	A058-IM29	Amplification
CFTR	A058-IM29	Amplification
WNT16	A058-IM29	Amplification
PTPRZ1	A058-IM29	Amplification
POT1	A058-IM29	Amplification
DKK3	A058-IM29	Amplification
PARVA	A058-IM29	Amplification
TEAD1	A058-IM29	Amplification
RASSF10	A058-IM29	Amplification
FAT3	A058-IM29	Amplification
ETNK1	A058-IM29	Amplification
SOX5	A058-IM29	Amplification
H3F3C	A058-IM29	Amplification
LMO7	A058-IM29	Amplification
WWOX	A058-IM29	Amplification
RRBP1	A058-IM29	Amplification
CRNKL1	A058-IM29	Amplification
FOXA2	A058-IM29	Amplification
BCL2L1	A058-IM29	Amplification
ID1	A058-IM29	Amplification
TPX2	A058-IM29	Amplification
PDRG1	A058-IM29	Amplification
PLAGL2	A058-IM29	Amplification
ASXL1	A058-IM29	Amplification
DNMT3B	A058-IM29	Amplification
GNAS	A058-IM29	Amplification
CDH4	A058-IM29	Amplification
TXNRD2	A058-IM29	Amplification
DGCR8	A058-IM29	Amplification
CRKL	A058-IM29	Amplification
LZTR1	A058-IM29	Amplification
SHISA3	A083-IM04	Amplification
SPRY4	A083-IM04	Amplification
ARHGAP26	A083-IM04	Amplification
NR3C1	A083-IM04	Amplification
SOX30	A083-IM04	Amplification
PTTG1	A083-IM04	Amplification
WWC1	A083-IM04	Amplification
SLIT3	A083-IM04	Amplification
MCPH1	A083-IM04	Deletion
TNKS	A083-IM04	Deletion
SOX7	A083-IM04	Deletion
GATA4	A083-IM04	Deletion
DLC1	A083-IM04	Deletion
TUSC3	A083-IM04	Deletion
MTUS1	A083-IM04	Deletion
LZTS1	A083-IM04	Deletion
DOK2	A083-IM04	Deletion
SFTPC	A083-IM04	Deletion
EGR3	A083-IM04	Deletion
RHOBTB2	A083-IM04	Deletion
NEFM	A083-IM04	Deletion
FZD3	A083-IM04	Deletion
LEPROTL1	A083-IM04	Deletion
NRG1	A083-IM04	Deletion
ZNF703	A083-IM04	Deletion
BRF2	A083-IM04	Deletion
WHSC1L1	A083-IM04	Deletion
FGFR1	A083-IM04	Deletion
IDO1	A083-IM04	Deletion
SFRP1	A083-IM04	Deletion
ANK1	A083-IM04	Deletion
KAT6A	A083-IM04	Deletion
SOX17	A083-IM04	Amplification
RP1	A083-IM04	Amplification
HNF4G	A083-IM04	Amplification
FOXM1	A083-IM04	Amplification
TEAD4	A083-IM04	Amplification
LATS2	A083-IM04	Deletion
FGF9	A083-IM04	Deletion
CDX2	A083-IM04	Deletion
FLT3	A083-IM04	Deletion
FLT1	A083-IM04	Deletion
HMGB1	A083-IM04	Deletion
BRCA2	A083-IM04	Deletion
KL	A083-IM04	Deletion
NBEA	A083-IM04	Deletion
BAZ1A	A083-IM04	Amplification
PSMA6	A083-IM04	Amplification
NKX2-1	A083-IM04	Amplification
NKX2-8	A083-IM04	Amplification
FOXA1	A083-IM04	Amplification
PRKACA	A083-IM04	Amplification
ZNF429	A083-IM04	Amplification
PARK7	A085-IM07	Deletion
ERRFI1	A085-IM07	Deletion
ENO1	A085-IM07	Deletion
PIK3CD	A085-IM07	Deletion
MTOR	A085-IM07	Deletion
MIIP	A085-IM07	Deletion
PRDM2	A085-IM07	Deletion
CASP9	A085-IM07	Deletion
SPEN	A085-IM07	Deletion
EPHA2	A085-IM07	Deletion
NBPF1	A085-IM07	Deletion
MFAP2	A085-IM07	Deletion
RLF	A085-IM07	Deletion
CDH12	A085-IM07	Amplification
CDH10	A085-IM07	Amplification
DUSP1	A085-IM07	Amplification
DRD1	A085-IM07	Amplification
FGFR4	A085-IM07	Amplification
NSD1	A085-IM07	Amplification
MXD3	A085-IM07	Amplification
MAML1	A085-IM07	Amplification
UFL1	A085-IM07	Deletion
POU3F2	A085-IM07	Deletion
CCNC	A085-IM07	Deletion
HACE1	A085-IM07	Deletion
PRDM1	A085-IM07	Deletion
PDSS2	A085-IM07	Deletion
FOXO3	A085-IM07	Deletion
FYN	A085-IM07	Deletion
MARCKS	A085-IM07	Deletion
HDAC2	A085-IM07	Deletion
ROS1	A085-IM07	Deletion
GOPC	A085-IM07	Deletion
GJA1	A085-IM07	Deletion
HEY2	A085-IM07	Deletion
MED23	A085-IM07	Deletion
CTGF	A085-IM07	Deletion
EYA4	A085-IM07	Deletion
TCF21	A085-IM07	Deletion
SGK1	A085-IM07	Deletion
MYB	A085-IM07	Deletion
BCLAF1	A085-IM07	Deletion
TNFAIP3	A085-IM07	Deletion
ECT2L	A085-IM07	Deletion
SASH1	A085-IM07	Deletion
LATS1	A085-IM07	Deletion
ESR1	A085-IM07	Deletion
RGS17	A085-IM07	Deletion
OPRM1	A085-IM07	Deletion
ARID1B	A085-IM07	Deletion
PTPRD	A085-IM07	Deletion
STIM1	A085-IM07	Deletion
RRM1	A085-IM07	Deletion
CHD8	A085-IM07	Deletion
METTL3	A085-IM07	Deletion
NKX2-1	A085-IM07	Amplification
NKX2-8	A085-IM07	Amplification
FOXA1	A085-IM07	Amplification
PSEN1	A085-IM07	Deletion
NUMB	A085-IM07	Deletion
ROCK1	A085-IM07	Deletion
AXL	A085-IM07	Deletion
LYPD4	A085-IM07	Deletion
CD79A	A085-IM07	Deletion
ERF	A085-IM07	Deletion
CIC	A085-IM07	Deletion
CEACAM1	A085-IM07	Deletion
ZNF223	A085-IM07	Deletion
CBLC	A085-IM07	Deletion
RELB	A085-IM07	Deletion
ERCC2	A085-IM07	Deletion
PPP1R13L	A085-IM07	Deletion
ERCC1	A085-IM07	Deletion
SLC1A5	A085-IM07	Deletion
ARHGAP35	A085-IM07	Deletion
EMP3	A085-IM07	Deletion
GRIN2D	A085-IM07	Deletion
BAX	A085-IM07	Deletion
TEAD2	A085-IM07	Deletion
AKT1S1	A085-IM07	Deletion
BCL2L12	A085-IM07	Deletion
POLD1	A085-IM07	Deletion
KLK10	A085-IM07	Deletion
PPP2R1A	A085-IM07	Deletion
CNOT3	A085-IM07	Deletion
LILRB2	A085-IM07	Deletion
IL11	A085-IM07	Deletion
TRIM28	A085-IM07	Deletion
PDRG1	A085-IM07	Deletion
PLAGL2	A085-IM07	Deletion
ASXL1	A085-IM07	Deletion
DNMT3B	A085-IM07	Deletion
E2F1	A085-IM07	Deletion
ITCH	A085-IM07	Deletion
MMP24	A085-IM07	Deletion
CPNE1	A085-IM07	Deletion
PHF20	A085-IM07	Deletion
EPB41L1	A085-IM07	Deletion
RBL1	A085-IM07	Deletion
SRC	A085-IM07	Deletion
CTCFL	A085-IM07	Amplification
GNAS	A085-IM07	Amplification
NDUFA4	A089-IM14	Amplification
TMEM106B	A089-IM14	Amplification
ETV1	A089-IM14	Amplification
SOSTDC1	A089-IM14	Amplification
AGR2	A089-IM14	Amplification
TWIST1	A089-IM14	Amplification
TMEM196	A089-IM14	Amplification
HGF	A089-IM14	Amplification
CHRM3	A092-IM31	Amplification
RGS7	A092-IM31	Amplification
AKT3	A092-IM31	Amplification
TRIM58	A092-IM31	Amplification
SEC62	A092-IM31	Amplification
PRKCI	A092-IM31	Amplification
EIF5A2	A092-IM31	Amplification
ZMAT3	A092-IM31	Amplification
PIK3CA	A092-IM31	Amplification
HEY1	A092-IM31	Amplification
FABP4	A092-IM31	Amplification
PAG1	A092-IM31	Amplification
CNBD1	A092-IM31	Amplification
NBN	A092-IM31	Amplification
STK3	A092-IM31	Amplification
AKR1C1	A092-IM31	Amplification
CDKN2A	A093-IM33	Deletion
CDKN2B	A093-IM33	Deletion
STK3	A096-IM34	Amplification
PABPC1	A096-IM34	Amplification
NCALD	A096-IM34	Amplification
UBR5	A096-IM34	Amplification
PTPRD	A096-IM34	Amplification
CDKN2A	A096-IM34	Amplification
CDKN2B	A096-IM34	Amplification
GNAQ	A096-IM34	Amplification
KAT6B	A096-IM34	Deletion
WIF1	A096-IM34	Amplification
HMGA2	A096-IM34	Amplification
MDM2	A096-IM34	Amplification
YEATS4	A096-IM34	Amplification
RAB3IP	A096-IM34	Amplification
PTPRB	A096-IM34	Amplification
LGR5	A096-IM34	Amplification
NAV3	A096-IM34	Amplification
PAWR	A096-IM34	Amplification
USP8	A096-IM34	Deletion
TMEM106B	A097-IM35	Amplification
ETV1	A097-IM35	Amplification
CDKN2A	A097-IM35	Deletion
CDKN2B	A097-IM35	Deletion
CDK12	A097-IM35	Amplification
PPP1R1B	A097-IM35	Amplification
ERBB2	A097-IM35	Amplification
HMCN1	A244-IM68	Amplification
PTGS2	A244-IM68	Amplification
CDC73	A244-IM68	Amplification
CRB1	A244-IM68	Amplification
PTPRC	A244-IM68	Amplification
NR5A2	A244-IM68	Amplification
KIF14	A244-IM68	Amplification
SLIT2	A244-IM68	Amplification
MOB1B	A244-IM68	Amplification
EREG	A244-IM68	Amplification
EIF4E	A244-IM68	Amplification
PPP3CA	A244-IM68	Amplification
TET2	A244-IM68	Amplification
DKK2	A244-IM68	Amplification
FBXW7	A244-IM68	Amplification
SFRP2	A244-IM68	Amplification
DCHS2	A244-IM68	Amplification
FAM198B	A244-IM68	Amplification
RAPGEF2	A244-IM68	Amplification
SAP30	A244-IM68	Amplification
VEGFC	A244-IM68	Amplification
IRF2	A244-IM68	Amplification
CASP3	A244-IM68	Amplification
ACSL1	A244-IM68	Amplification
FAT1	A244-IM68	Amplification
SOX30	A244-IM68	Amplification
HGF	A244-IM68	Amplification
GRM3	A244-IM68	Amplification
DMTF1	A244-IM68	Amplification
ABCB4	A244-IM68	Amplification
FZD1	A244-IM68	Amplification
PIK3CG	A244-IM68	Amplification
TES	A244-IM68	Amplification
CAV1	A244-IM68	Amplification
MET	A244-IM68	Amplification
WNT2	A244-IM68	Amplification
CFTR	A244-IM68	Amplification
WNT16	A244-IM68	Amplification
PTPRZ1	A244-IM68	Amplification
POT1	A244-IM68	Amplification
STK3	A244-IM68	Amplification
CDKN2A	A244-IM68	Deletion
CDKN2B	A244-IM68	Deletion
NDRG2	A244-IM68	Amplification
CHD8	A244-IM68	Amplification
METTL3	A244-IM68	Amplification
ARHGAP5	A244-IM68	Amplification
BAZ1A	A244-IM68	Amplification
PSMA6	A244-IM68	Amplification
NKX2-1	A244-IM68	Amplification
NKX2-8	A244-IM68	Amplification
FOXA1	A244-IM68	Amplification
FKBP3	A244-IM68	Amplification
FANCM	A244-IM68	Amplification
SOS2	A244-IM68	Amplification
SAV1	A244-IM68	Amplification
PTGDR	A244-IM68	Amplification
MAPK1IP1L	A244-IM68	Amplification
SIX1	A244-IM68	Amplification
HIF1A	A244-IM68	Amplification
SYNE2	A244-IM68	Amplification
HSPA2	A244-IM68	Amplification
FNTB	A244-IM68	Amplification
MAX	A244-IM68	Amplification
MAP3K9	A244-IM68	Amplification
RBL2	A244-IM68	Amplification
MMP2	A244-IM68	Amplification
CDH1	A244-IM68	Amplification
FTSJD1	A244-IM68	Amplification
TAT	A244-IM68	Amplification
IST1	A244-IM68	Amplification
ZNF750	A244-IM68	Amplification
PIAS3	A256-IM89	Amplification
CHD1L	A256-IM89	Amplification
APH1A	A256-IM89	Amplification
SETDB1	A256-IM89	Amplification
TNFAIP8L2	A256-IM89	Amplification
SELENBP1	A256-IM89	Amplification
S100A7	A256-IM89	Amplification
S100A4	A256-IM89	Amplification
GATAD2B	A256-IM89	Amplification
HAX1	A256-IM89	Amplification
EPHA3	A256-IM89	Amplification
SAP30	A256-IM89	Deletion
HPGD	A256-IM89	Deletion
VEGFC	A256-IM89	Deletion
ESR1	A256-IM89	Amplification
SRCIN1	A256-IM89	Amplification
LASP1	A256-IM89	Amplification
CDK12	A256-IM89	Amplification
PPP1R1B	A256-IM89	Amplification
ERBB2	A256-IM89	Amplification
RFNG	A256-IM89	Amplification
ROCK1	A256-IM89	Amplification
CDH2	A256-IM89	Amplification
DSG2	A256-IM89	Amplification
CYR61	A436-IM66	Amplification
GFI1	A436-IM66	Amplification
RPL5	A436-IM66	Amplification
NOTCH2	A436-IM66	Amplification
CHD1L	A436-IM66	Amplification
SETDB1	A436-IM66	Amplification
TNFAIP8L2	A436-IM66	Amplification
SELENBP1	A436-IM66	Amplification
CRB1	A436-IM66	Amplification
PTPRC	A436-IM66	Amplification
NR5A2	A436-IM66	Amplification
KIF14	A436-IM66	Amplification
DVL3	A436-IM66	Amplification
HEY2	A436-IM66	Amplification
UNCX	A436-IM66	Amplification
NUDT1	A436-IM66	Amplification
LFNG	A436-IM66	Amplification
CARD11	A436-IM66	Amplification
PMS2	A436-IM66	Amplification
RAC1	A436-IM66	Amplification
NDUFA4	A436-IM66	Amplification
TMEM106B	A436-IM66	Amplification
ETV1	A436-IM66	Amplification
SOSTDC1	A436-IM66	Amplification
AGR2	A436-IM66	Amplification
EGFR	A436-IM66	Amplification
TES	A436-IM66	Amplification
CAV1	A436-IM66	Amplification
MET	A436-IM66	Amplification
WNT2	A436-IM66	Amplification
CFTR	A436-IM66	Amplification
TUSC3	A436-IM66	Deletion
CCNE1	A436-IM66	Amplification
WTIP	A436-IM66	Amplification
SBSN	A436-IM66	Amplification
PSENEN	A436-IM66	Amplification
SPRED3	A436-IM66	Amplification
RASGRP4	A436-IM66	Amplification
SIRT2	A436-IM66	Amplification
PAK4	A436-IM66	Amplification
DLL3	A436-IM66	Amplification
CNTD2	A436-IM66	Amplification
PRAME	A436-IM66	Amplification
BCR	A436-IM66	Amplification
CD28	A440-IM73	Amplification
TUSC3	A440-IM73	Deletion
IDO1	A440-IM73	Amplification
SFRP1	A440-IM73	Amplification
ANK1	A440-IM73	Amplification
KAT6A	A440-IM73	Amplification
DKK4	A440-IM73	Amplification
FNTA	A440-IM73	Amplification
IKBKB	A440-IM73	Amplification
TERT	A441-IM74	Amplification
CLPTM1L	A441-IM74	Amplification
SEMA5A	A441-IM74	Amplification
CTNND2	A441-IM74	Amplification
DAB2	A441-IM74	Amplification
HGF	A441-IM74	Amplification
ARHGEF5	A441-IM74	Amplification
CNTNAP2	A441-IM74	Amplification
CUL1	A441-IM74	Amplification
EZH2	A441-IM74	Amplification
CDK5	A441-IM74	Amplification
RHEB	A441-IM74	Amplification
MLL3	A441-IM74	Amplification
CDKN2A	A441-IM74	Deletion
CDKN2B	A441-IM74	Deletion
SPRY2	A441-IM74	Amplification
FHIT	A441-IM75	Amplification
TERT	A441-IM75	Amplification
CLPTM1L	A441-IM75	Amplification
SEMA5A	A441-IM75	Amplification
CTNND2	A441-IM75	Amplification
DNAH5	A441-IM75	Amplification
NDUFA4	A441-IM75	Amplification
TMEM106B	A441-IM75	Amplification
ETV1	A441-IM75	Amplification
SOSTDC1	A441-IM75	Amplification
AGR2	A441-IM75	Amplification
TWIST1	A441-IM75	Amplification
TMEM196	A441-IM75	Amplification
HGF	A441-IM75	Amplification
PON1	A441-IM75	Amplification
PDK4	A441-IM75	Amplification
TRRAP	A441-IM75	Amplification
TES	A441-IM75	Amplification
CAV1	A441-IM75	Amplification
MET	A441-IM75	Amplification
WNT2	A441-IM75	Amplification
CFTR	A441-IM75	Amplification
CNTNAP2	A441-IM75	Amplification
CUL1	A441-IM75	Amplification
EZH2	A441-IM75	Amplification
CDK5	A441-IM75	Amplification
RHEB	A441-IM75	Amplification
MLL3	A441-IM75	Amplification
CDKN2A	A441-IM75	Deletion
CDKN2B	A441-IM75	Deletion
KLF12	A441-IM75	Amplification
SPRY2	A441-IM75	Amplification
CDH1	A441-IM75	Amplification
FTSJD1	A441-IM75	Amplification
KARS	A441-IM75	Amplification
IFNB1	A443-IM80	Deletion
CDKN2A	A443-IM80	Deletion
CDKN2B	A443-IM80	Deletion
NKX2-1	A443-IM80	Amplification
NKX2-8	A443-IM80	Amplification
FOXA1	A443-IM80	Amplification
PPP1R1B	A443-IM80	Amplification
ERBB2	A443-IM80	Amplification
LRIG1	A450-IM91	Amplification
EIF5A2	A450-IM91	Deletion
NDUFA4	A450-IM91	Amplification
TMEM106B	A450-IM91	Amplification
ETV1	A450-IM91	Amplification
SOSTDC1	A450-IM91	Amplification
AGR2	A450-IM91	Amplification
TWIST1	A450-IM91	Amplification
TMEM196	A450-IM91	Amplification
TMEM74	A450-IM91	Amplification
CSMD3	A450-IM91	Amplification
RAD21	A450-IM91	Amplification
CDKN2A	A450-IM91	Deletion
CDKN2B	A450-IM91	Deletion
TCF7L2	A450-IM91	Amplification
CLEC4C	A450-IM91	Amplification
MFAP5	A450-IM91	Amplification
LRP6	A450-IM91	Amplification
GPRC5A	A450-IM91	Amplification
ATF7IP	A450-IM91	Amplification
PTPRO	A450-IM91	Amplification
ETNK1	A450-IM91	Amplification
SOX5	A450-IM91	Amplification
MDM2	A450-IM91	Amplification
YEATS4	A450-IM91	Amplification
RAB3IP	A450-IM91	Amplification
PTPRB	A450-IM91	Amplification
ARHGAP5	A450-IM91	Amplification
FKBP3	A450-IM91	Amplification
FANCM	A450-IM91	Amplification
TCF12	A450-IM91	Deletion
ADAM10	A450-IM91	Deletion
RNF111	A450-IM91	Deletion
IDH2	A450-IM91	Deletion
TNFRSF11B	A451-IM92	Amplification
NOV	A451-IM92	Amplification
DEPTOR	A451-IM92	Amplification
MYC	A451-IM92	Amplification
FAM135B	A451-IM92	Amplification
RB1	A451-IM92	Deletion
CYSLTR2	A451-IM92	Deletion
PCDH17	A451-IM92	Amplification
DACH1	A451-IM92	Amplification
CDH12	A455-IM97	Amplification
TES	A455-IM97	Amplification
CAV1	A455-IM97	Amplification
MET	A455-IM97	Amplification
WNT2	A455-IM97	Amplification
CFTR	A455-IM97	Amplification
CDKN2A	A455-IM97	Deletion
CDKN2B	A455-IM97	Deletion
SUN2	A455-IM97	Amplification
EPHA5	A456-IM100	Deletion
TMPRSS11D	A456-IM100	Deletion
PDE10A	A457-IM104	Amplification
UHRF2	A457-IM104	Deletion
GLDC	A457-IM104	Deletion
PTPRD	A457-IM104	Deletion
IFNB1	A457-IM104	Deletion
CDKN2A	A457-IM104	Deletion
CDKN2B	A457-IM104	Deletion
RASAL2	A458-IM105	Amplification
HEY1	A458-IM105	Amplification
FABP4	A458-IM105	Amplification
PAG1	A458-IM105	Amplification
NCALD	A458-IM105	Amplification
TMEM74	A458-IM105	Amplification
CSMD3	A458-IM105	Amplification
RAD21	A458-IM105	Amplification
TNFRSF11B	A458-IM105	Amplification
NOV	A458-IM105	Amplification
DEPTOR	A458-IM105	Amplification
CDKN2A	A458-IM105	Deletion
CDKN2B	A458-IM105	Deletion
ARHGAP5	A458-IM105	Amplification
BAZ1A	A458-IM105	Amplification
PSMA6	A458-IM105	Amplification
NKX2-1	A458-IM105	Amplification
NKX2-8	A458-IM105	Amplification
FOXA1	A458-IM105	Amplification
CCNE1	A458-IM105	Amplification
TSHZ3	A458-IM105	Amplification
PDCD5	A458-IM105	Amplification
RHPN2	A458-IM105	Amplification
CSMD3	A465-IM117	Amplification
SPNS1	A465-IM117	Amplification
FTSJD1	A465-IM117	Amplification
TAT	A465-IM117	Amplification
LRP1B	A466-IM118	Deletion
FHIT	A466-IM118	Deletion
PTPRD	A466-IM118	Deletion
PSIP1	A466-IM118	Deletion
CDKN2A	A466-IM118	Deletion
CDKN2B	A466-IM118	Deletion
TCF7L1	A472-IM125	Amplification
USP39	A472-IM125	Amplification
SFTPB	A472-IM125	Amplification
KDM3A	A472-IM125	Amplification
DROSHA	A472-IM125	Amplification
GOLPH3	A472-IM125	Amplification
IL7R	A472-IM125	Amplification
SKP2	A472-IM125	Amplification
NIPBL	A472-IM125	Amplification
RICTOR	A472-IM125	Amplification
DAB2	A472-IM125	Amplification
NDUFA4	A472-IM125	Amplification
TMEM106B	A472-IM125	Amplification
ETV1	A472-IM125	Amplification
SOSTDC1	A472-IM125	Amplification
AGR2	A472-IM125	Amplification
TWIST1	A472-IM125	Amplification
TMEM196	A472-IM125	Amplification
IL6	A472-IM125	Amplification
FKBP9	A472-IM125	Amplification
SFRP4	A472-IM125	Amplification
RALA	A472-IM125	Amplification
INHBA	A472-IM125	Amplification
GLI3	A472-IM125	Amplification
IKZF1	A472-IM125	Amplification
EGFR	A472-IM125	Amplification
TNKS	A472-IM125	Deletion
SOX7	A472-IM125	Deletion
TUSC3	A472-IM125	Deletion
MTUS1	A472-IM125	Deletion
LZTS1	A472-IM125	Deletion
SOX17	A472-IM125	Deletion
RP1	A472-IM125	Deletion
PTPRD	A472-IM125	Deletion
NFIB	A472-IM125	Deletion
CDKN2A	A472-IM125	Deletion
CDKN2B	A472-IM125	Deletion
FKBP3	A472-IM125	Amplification
FANCM	A472-IM125	Amplification
HNF4G	A478-IM136	Amplification
IFNB1	A478-IM136	Deletion
CDKN2A	A478-IM136	Deletion
CDKN2B	A478-IM136	Deletion
CSMD3	A048-IM22	Amplification
RAD21	A048-IM22	Amplification
TNFRSF11B	A048-IM22	Amplification
NOV	A048-IM22	Amplification
DEPTOR	A048-IM22	Amplification
MYC	A048-IM22	Amplification
FAM135B	A048-IM22	Amplification
PTK2	A048-IM22	Amplification
PTP4A3	A048-IM22	Amplification
SCRIB	A048-IM22	Amplification
CTBP2	A048-IM22	Deletion
MGMT	A048-IM22	Deletion
KSR1	A048-IM22	Amplification
TNFAIP1	A048-IM22	Amplification
POLDIP2	A048-IM22	Amplification
FOXN1	A048-IM22	Amplification
SPAG5	A048-IM22	Amplification
TRAF4	A048-IM22	Amplification
TAOK1	A048-IM22	Amplification
NF1	A048-IM22	Amplification
SUZ12	A048-IM22	Amplification
RDM1	A048-IM22	Amplification
SRCIN1	A048-IM22	Amplification
LASP1	A048-IM22	Amplification
CDK12	A048-IM22	Amplification
PPP1R1B	A048-IM22	Amplification
ERBB2	A048-IM22	Amplification
MTOR	A152-T-S27	Amplification
MIIP	A152-T-S27	Amplification
PRDM2	A152-T-S27	Amplification
CASP9	A152-T-S27	Amplification
SPEN	A152-T-S27	Amplification
SDHA	A152-T-S27	Amplification
ARHGEF10	A152-T-S27	Deletion
MCPH1	A152-T-S27	Deletion
TNKS	A152-T-S27	Deletion
SOX7	A152-T-S27	Deletion
GATA4	A152-T-S27	Deletion
DLC1	A152-T-S27	Deletion
TUSC3	A152-T-S27	Deletion
MTUS1	A152-T-S27	Deletion
LZTS1	A152-T-S27	Deletion
DOK2	A152-T-S27	Deletion
SFTPC	A152-T-S27	Deletion
EGR3	A152-T-S27	Deletion
RHOBTB2	A152-T-S27	Deletion
NEFM	A152-T-S27	Deletion
FZD3	A152-T-S27	Deletion
LEPROTL1	A152-T-S27	Deletion
NRG1	A152-T-S27	Deletion
ZNF703	A152-T-S27	Deletion
BRF2	A152-T-S27	Deletion
WHSC1L1	A152-T-S27	Deletion
FGFR1	A152-T-S27	Deletion
IDO1	A152-T-S27	Deletion
SFRP1	A152-T-S27	Deletion
ANK1	A152-T-S27	Deletion
KAT6A	A152-T-S27	Deletion
DKK4	A152-T-S27	Deletion
FNTA	A152-T-S27	Deletion
IKBKB	A152-T-S27	Deletion
GLI1	A152-T-S27	Amplification
CDK4	A152-T-S27	Amplification
DTX3	A152-T-S27	Amplification
WIF1	A152-T-S27	Amplification
HMGA2	A152-T-S27	Amplification
MDM2	A152-T-S27	Amplification
YEATS4	A152-T-S27	Amplification
RAB3IP	A152-T-S27	Amplification
PTPRB	A152-T-S27	Amplification
ARHGAP5	A152-T-S27	Amplification
BAZ1A	A152-T-S27	Amplification
PSMA6	A152-T-S27	Amplification
NKX2-1	A152-T-S27	Amplification
NKX2-8	A152-T-S27	Amplification
FOXA1	A152-T-S27	Amplification
FKBP3	A152-T-S27	Amplification
FANCM	A152-T-S27	Amplification
SOS2	A152-T-S27	Amplification
SAV1	A152-T-S27	Amplification
PTGDR	A152-T-S27	Amplification
FLVCR2	A152-T-S27	Amplification
SNW1	A152-T-S27	Amplification
TSHR	A152-T-S27	Amplification
ADCYAP1	A152-T-S27	Amplification
CHD5	A152-T-S31	Amplification
RPL22	A152-T-S31	Amplification
ICMT	A152-T-S31	Amplification
HES3	A152-T-S31	Amplification
HES2	A152-T-S31	Amplification
PARK7	A152-T-S31	Amplification
ERRFI1	A152-T-S31	Amplification
ENO1	A152-T-S31	Amplification
PIK3CD	A152-T-S31	Amplification
MTOR	A152-T-S31	Amplification
MIIP	A152-T-S31	Amplification
PRDM2	A152-T-S31	Amplification
CASP9	A152-T-S31	Amplification
SPEN	A152-T-S31	Amplification
GLI1	A152-T-S31	Amplification
CDK4	A152-T-S31	Amplification
DTX3	A152-T-S31	Amplification
WIF1	A152-T-S31	Amplification
HMGA2	A152-T-S31	Amplification
MDM2	A152-T-S31	Amplification
YEATS4	A152-T-S31	Amplification
RAB3IP	A152-T-S31	Amplification
PTPRB	A152-T-S31	Amplification
ARHGAP5	A152-T-S31	Amplification
BAZ1A	A152-T-S31	Amplification
PSMA6	A152-T-S31	Amplification
NKX2-1	A152-T-S31	Amplification
NKX2-8	A152-T-S31	Amplification
FOXA1	A152-T-S31	Amplification
FKBP3	A152-T-S31	Amplification
FANCM	A152-T-S31	Amplification
SOS2	A152-T-S31	Amplification
SAV1	A152-T-S31	Amplification
PTGDR	A152-T-S31	Amplification
FLVCR2	A152-T-S31	Amplification
SNW1	A152-T-S31	Amplification
TSHR	A152-T-S31	Amplification
ADCYAP1	A152-T-S31	Amplification
PIAS3	A256-IM88	Amplification
CHD1L	A256-IM88	Amplification
APH1A	A256-IM88	Amplification
SETDB1	A256-IM88	Amplification
TNFAIP8L2	A256-IM88	Amplification
SELENBP1	A256-IM88	Amplification
S100A7	A256-IM88	Amplification
S100A4	A256-IM88	Amplification
GATAD2B	A256-IM88	Amplification
HAX1	A256-IM88	Amplification
SHC1	A256-IM88	Amplification
MUC1	A256-IM88	Amplification
KIAA0907	A256-IM88	Amplification
RIT1	A256-IM88	Amplification
UNCX	A442-IM76	Amplification
NUDT1	A442-IM76	Amplification
LFNG	A442-IM76	Amplification
CARD11	A442-IM76	Amplification
PMS2	A442-IM76	Amplification
RAC1	A442-IM76	Amplification
NDUFA4	A442-IM76	Amplification
TMEM106B	A442-IM76	Amplification
ETV1	A442-IM76	Amplification
SOSTDC1	A442-IM76	Amplification
AGR2	A442-IM76	Amplification
TWIST1	A442-IM76	Amplification
TMEM196	A442-IM76	Amplification
IL6	A442-IM76	Amplification
HOXA4	A442-IM76	Amplification
HOXA5	A442-IM76	Amplification
FKBP9	A442-IM76	Amplification
SFRP4	A442-IM76	Amplification
RALA	A442-IM76	Amplification
INHBA	A442-IM76	Amplification
GLI3	A442-IM76	Amplification
IKZF1	A442-IM76	Amplification
EGFR	A442-IM76	Amplification
SIRT3	A442-IM76	Amplification
IFITM3	A442-IM76	Amplification
HRAS	A442-IM76	Amplification
MUC5B	A442-IM76	Amplification
APH1A	A443-IM78	Amplification
SETDB1	A443-IM78	Amplification
TNFAIP8L2	A443-IM78	Amplification
SELENBP1	A443-IM78	Amplification
S100A7	A443-IM78	Amplification
S100A4	A443-IM78	Amplification
GATAD2B	A443-IM78	Amplification
HAX1	A443-IM78	Amplification
SHC1	A443-IM78	Amplification
MUC1	A443-IM78	Amplification
KIAA0907	A443-IM78	Amplification
RIT1	A443-IM78	Amplification
SLIT2	A443-IM78	Amplification
SLC34A2	A443-IM78	Amplification
SDHA	A443-IM78	Amplification
UNCX	A443-IM78	Amplification
NUDT1	A443-IM78	Amplification
LFNG	A443-IM78	Amplification
CARD11	A443-IM78	Amplification
PMS2	A443-IM78	Amplification
RAC1	A443-IM78	Amplification
NDUFA4	A443-IM78	Amplification
TMEM106B	A443-IM78	Amplification
ETV1	A443-IM78	Amplification
SOSTDC1	A443-IM78	Amplification
AGR2	A443-IM78	Amplification
TWIST1	A443-IM78	Amplification
TMEM196	A443-IM78	Amplification
IL6	A443-IM78	Amplification
HOXA4	A443-IM78	Amplification
HOXA5	A443-IM78	Amplification
FKBP9	A443-IM78	Amplification
EGFR	A443-IM78	Amplification
ZNF479	A443-IM78	Amplification
PTPN12	A443-IM78	Amplification
HGF	A443-IM78	Amplification
GRM3	A443-IM78	Amplification
DMTF1	A443-IM78	Amplification
ABCB4	A443-IM78	Amplification
FZD1	A443-IM78	Amplification
BRD7	A443-IM78	Amplification
CYLD	A443-IM78	Amplification
RBL2	A443-IM78	Amplification
MMP2	A443-IM78	Amplification
SLIT2	A443-IM79	Amplification
SLC34A2	A443-IM79	Amplification
UNCX	A443-IM79	Amplification
NUDT1	A443-IM79	Amplification
LFNG	A443-IM79	Amplification
CARD11	A443-IM79	Amplification
PMS2	A443-IM79	Amplification
RAC1	A443-IM79	Amplification
NDUFA4	A443-IM79	Amplification
TMEM106B	A443-IM79	Amplification
ETV1	A443-IM79	Amplification
SOSTDC1	A443-IM79	Amplification
AGR2	A443-IM79	Amplification
TWIST1	A443-IM79	Amplification
TMEM196	A443-IM79	Amplification
IL6	A443-IM79	Amplification
HOXA4	A443-IM79	Amplification
HOXA5	A443-IM79	Amplification
FKBP9	A443-IM79	Amplification
SFRP4	A443-IM79	Amplification
RALA	A443-IM79	Amplification
INHBA	A443-IM79	Amplification
GLI3	A443-IM79	Amplification
IKZF1	A443-IM79	Amplification
EGFR	A443-IM79	Amplification
ZNF479	A443-IM79	Amplification
FZD9	A443-IM79	Amplification
MLXIPL	A443-IM79	Amplification
CLDN3	A443-IM79	Amplification
CLDN4	A443-IM79	Amplification
PTPN12	A443-IM79	Amplification
HGF	A443-IM79	Amplification
GRM3	A443-IM79	Amplification
DMTF1	A443-IM79	Amplification
ABCB4	A443-IM79	Amplification
FZD1	A443-IM79	Amplification
CDK6	A443-IM79	Amplification
SAMD9	A443-IM79	Amplification
UNCX	A463-IM112	Amplification
NUDT1	A463-IM112	Amplification
LFNG	A463-IM112	Amplification
ARHGEF10	A463-IM112	Deletion
MCPH1	A463-IM112	Deletion
TNKS	A463-IM112	Deletion
SOX7	A463-IM112	Deletion
GATA4	A463-IM112	Deletion
DLC1	A463-IM112	Deletion
TUSC3	A463-IM112	Deletion
MTUS1	A463-IM112	Deletion
LZTS1	A463-IM112	Deletion
DOK2	A463-IM112	Deletion
SFTPC	A463-IM112	Deletion
EGR3	A463-IM112	Deletion
RHOBTB2	A463-IM112	Deletion
NEFM	A463-IM112	Deletion
FZD3	A463-IM112	Deletion
LEPROTL1	A463-IM112	Deletion
NRG1	A463-IM112	Deletion
ZNF703	A463-IM112	Deletion
BRF2	A463-IM112	Deletion
WHSC1L1	A463-IM112	Deletion
FGFR1	A463-IM112	Deletion
IDO1	A463-IM112	Deletion
SFRP1	A463-IM112	Deletion
ANK1	A463-IM112	Deletion
KAT6A	A463-IM112	Deletion
DKK4	A463-IM112	Deletion
FNTA	A463-IM112	Deletion
IKBKB	A463-IM112	Deletion
NBN	A463-IM112	Amplification
CDH17	A463-IM112	Amplification
CCNE2	A463-IM112	Amplification
MTDH	A463-IM112	Amplification
STK3	A463-IM112	Amplification
PABPC1	A463-IM112	Amplification
NCALD	A463-IM112	Amplification
UBR5	A463-IM112	Amplification
KLF10	A463-IM112	Amplification
FZD6	A463-IM112	Amplification
TMEM74	A463-IM112	Amplification
CSMD3	A463-IM112	Amplification
RAD21	A463-IM112	Amplification
TNFRSF11B	A463-IM112	Amplification
NOV	A463-IM112	Amplification
DEPTOR	A463-IM112	Amplification
MYC	A463-IM112	Amplification
FAM135B	A463-IM112	Amplification
PTK2	A463-IM112	Amplification
PTP4A3	A463-IM112	Amplification
SCRIB	A463-IM112	Amplification
USP22	A463-IM112	Amplification
KSR1	A463-IM112	Amplification
SAMSN1	A463-IM112	Amplification
BTG3	A463-IM112	Amplification
APP	A463-IM112	Amplification
SOD1	A463-IM112	Amplification
SCAF4	A463-IM112	Amplification
RUNX1	A463-IM112	Amplification
ERG	A463-IM112	Amplification
ETS2	A463-IM112	Amplification
SDHA	A468-IM121	Amplification
TERT	A468-IM121	Amplification
CLPTM1L	A468-IM121	Amplification
SEMA5A	A468-IM121	Amplification
CTNND2	A468-IM121	Amplification
DNAH5	A468-IM121	Amplification
STAG1	A477-IM134	Amplification
MRAS	A477-IM134	Amplification
PIK3CB	A477-IM134	Amplification
FOXL2	A477-IM134	Amplification
WWC1	A477-IM134	Amplification
SLIT3	A477-IM134	Amplification
NPM1	A477-IM134	Amplification
DUSP1	A477-IM134	Amplification
MAML1	A477-IM134	Deletion
SCGB3A1	A477-IM134	Deletion
FLT4	A477-IM134	Deletion
ACHE	A477-IM134	Amplification
EPHB4	A477-IM134	Amplification
CDH17	A477-IM134	Amplification
CCNE2	A477-IM134	Amplification
MTDH	A477-IM134	Amplification
STK3	A477-IM134	Amplification
PABPC1	A477-IM134	Amplification
NCALD	A477-IM134	Amplification
UBR5	A477-IM134	Amplification
KLF10	A477-IM134	Amplification
FZD6	A477-IM134	Amplification
TMEM74	A477-IM134	Amplification
CSMD3	A477-IM134	Amplification
RAD21	A477-IM134	Amplification
TNFRSF11B	A477-IM134	Amplification
NOV	A477-IM134	Amplification
DEPTOR	A477-IM134	Amplification
MYC	A477-IM134	Amplification
FAM135B	A477-IM134	Amplification
WWC1	A477-IM135	Amplification
SLIT3	A477-IM135	Amplification
NPM1	A477-IM135	Amplification
DUSP1	A477-IM135	Amplification
DRD1	A477-IM135	Amplification
STK3	A477-IM135	Amplification
PABPC1	A477-IM135	Amplification
NCALD	A477-IM135	Amplification
UBR5	A477-IM135	Amplification
KLF10	A477-IM135	Amplification
FZD6	A477-IM135	Amplification
TMEM74	A477-IM135	Amplification
CSMD3	A477-IM135	Amplification
RAD21	A477-IM135	Amplification
TNFRSF11B	A477-IM135	Amplification
NOV	A477-IM135	Amplification
DEPTOR	A477-IM135	Amplification
MYC	A477-IM135	Amplification
FAM135B	A477-IM135	Amplification
PTK2	A477-IM135	Amplification
PTP4A3	A477-IM135	Amplification
GAB2	A477-IM135	Amplification
PIAS3	A486-IM145	Amplification
CHD1L	A486-IM145	Amplification
APH1A	A486-IM145	Amplification
SETDB1	A486-IM145	Amplification
TNFAIP8L2	A486-IM145	Amplification
SELENBP1	A486-IM145	Amplification
EGFR	A486-IM145	Amplification
CBWD3	A486-IM145	Deletion
NOTCH3	A486-IM145	Amplification
RASAL3	A486-IM145	Amplification
KLF2	A486-IM145	Amplification
JAK3	A486-IM145	Amplification
PIK3R2	A486-IM145	Amplification
GDF15	A486-IM145	Amplification
BCL2L1	A486-IM145	Deletion
ID1	A486-IM145	Deletion
TPX2	A486-IM145	Deletion
PDRG1	A486-IM145	Deletion
PLAGL2	A486-IM145	Deletion
WNT7B	A486-IM145	Deletion
PLXNB2	A486-IM145	Deletion
ACHE	A317-IM151	Amplification
BAZ1A	A317-IM151	Amplification
PSMA6	A317-IM151	Amplification
NKX2-1	A317-IM151	Amplification
NKX2-8	A317-IM151	Amplification
FOXA1	A317-IM151	Amplification
IL11	A317-IM151	Amplification
CCND3	A317-IM152	Amplification
VEGFA	A317-IM152	Amplification
NFKBIE	A317-IM152	Amplification
TFAP2B	A317-IM152	Amplification
BMP5	A317-IM152	Amplification
SMARCA2	A317-IM152	Amplification
JAK2	A317-IM152	Amplification
CD274	A317-IM152	Amplification
PDCD1LG2	A317-IM152	Amplification
IL33	A317-IM152	Amplification
UHRF2	A317-IM152	Amplification
GLDC	A317-IM152	Amplification
PTPRD	A317-IM152	Amplification
NFIB	A317-IM152	Amplification
PSIP1	A317-IM152	Amplification
BNC2	A317-IM152	Amplification
RPS6	A317-IM152	Amplification
IFNB1	A317-IM152	Amplification
CDKN2A	A317-IM152	Amplification
CDKN2B	A317-IM152	Amplification
SIRT3	A317-IM152	Amplification
IFITM3	A317-IM152	Amplification
HRAS	A317-IM152	Amplification
MUC5B	A317-IM152	Amplification
IGF2	A317-IM152	Amplification
INS	A317-IM152	Amplification
ASCL2	A317-IM152	Amplification
PHLDA2	A317-IM152	Amplification
STIM1	A317-IM152	Amplification
RRM1	A317-IM152	Amplification
BAZ1A	A317-IM152	Amplification
PSMA6	A317-IM152	Amplification
NKX2-1	A317-IM152	Amplification
NKX2-8	A317-IM152	Amplification
FOXA1	A317-IM152	Amplification
