sample	segment_count	included
A038-IM140	461	yes
A040-IM08	257	yes
A048-IM22	73	yes
A056-IM27	557	yes
A057-IM28	341	yes
A058-IM29	342	yes
A083-IM04	412	yes
A089-IM14	338	yes
A092-IM31	503	yes
A097-IM35	482	yes
A256-IM88	74	yes
A436-IM66	370	yes
A440-IM73	426	yes
A441-IM75	372	yes
A450-IM91	595	yes
A456-IM100	223	yes
A465-IM117	464	yes
A466-IM118	266	yes
A472-IM125	272	yes
A477-IM134	64	yes
A478-IM136	315	yes
