sample	segment_count	included
A003-IM18	238	yes
A018-IM110	407	yes
A032-IM15	222	yes
A041-IM02	338	yes
A042-IM03	310	yes
A044-IM12	490	yes
A047-IM20	190	yes
A055-IM26	489	yes
A060-IM30	449	yes
A079-IM01	309	yes
A085-IM07	218	yes
A087-IM11	417	yes
A093-IM33	268	yes
A096-IM34	622	yes
A138-IM146	63	yes
A151-IM116	295	yes
A152-T-S27	95	yes
A180-IM126	268	yes
A244-IM69	368	yes
A317-IM152	68	yes
A438-IM70	334	yes
A442-IM76	79	yes
A443-IM77	719	yes
A448-IM85	369	yes
A449-IM86	569	yes
A451-IM92	208	yes
A452-IM93	294	yes
A453-IM95	436	yes
A455-IM97	318	yes
A457-IM102	308	yes
A458-IM105	310	yes
A459-IM107	486	yes
A463-IM112	91	yes
A464-IM113	403	yes
A468-IM121	61	yes
A469-IM122	424	yes
A471-IM124	233	yes
A475-IM131	467	yes
