cytoband	9p21.3	1p22.3	9p23	5q21.2	8p22	13q12.2	9q33.1	18q11.2	
q value	9.2466e-36	0.11185	9.3411e-10	0.11953	0.11953	0.12178	0.27414	0.26142	
residual q value	9.7187e-31	0.11185	0.11185	0.11953	0.11953	0.12766	0.24135	0.24135	
wide peak boundaries	chr9:21865843-22000246	chr1:68924725-143438920	chr9:8296768-12699724	chr5:43430324-137796077	chr8:7212747-35101067	chr13:1-69438704	chr9:1-141213431	chr18:1-78077248	
genes in wide peak	CDKN2A	hsa-mir-3118-3	PTPRD	hsa-mir-874	hsa-mir-3148	hsa-mir-3169	hsa-mir-602	hsa-mir-122	
	C9orf53	hsa-mir-3118-2		hsa-mir-886	hsa-mir-4288	hsa-mir-1297	hsa-mir-4292	hsa-mir-4320	
		hsa-mir-3118-1		hsa-mir-1289-2	hsa-mir-4287	hsa-mir-759	hsa-mir-126	hsa-mir-1539	
		hsa-mir-942		hsa-mir-1244-2	hsa-mir-548h-4	hsa-mir-15a	hsa-mir-219-2	hsa-mir-4319	
		hsa-mir-320b-1		hsa-mir-548f-3	hsa-mir-320a	hsa-mir-3168	hsa-mir-3154	hsa-mir-924	
		hsa-mir-4256		hsa-mir-548p	hsa-mir-548v	hsa-mir-621	hsa-mir-2861	hsa-mir-4318	
		hsa-mir-197		hsa-mir-583	hsa-mir-383	hsa-mir-4305	hsa-mir-181b-2	hsa-mir-187	
		hsa-mir-553		hsa-mir-2277	hsa-mir-598	hsa-mir-2276	hsa-mir-601	hsa-mir-302f	
		hsa-mir-137		hsa-mir-9-2	hsa-mir-1322	PARP4	hsa-mir-600	hsa-mir-320c-2	
		hsa-mir-760		hsa-mir-4280	hsa-mir-4286	ALOX5AP	hsa-mir-147	hsa-mir-1-2	
		hsa-mir-186		hsa-mir-582	hsa-mir-124-1	ATP12A	hsa-mir-455	hsa-mir-320c-1	
		ABCA4		hsa-mir-449c	hsa-mir-597	ATP7B	hsa-mir-32	hsa-mir-3156-2	
		ACADM		hsa-mir-581	hsa-mir-548i-3	BRCA2	hsa-mir-1302-8	hsa-mir-4317	
		ADORA3		APC	NAT1	CDK8	hsa-mir-24-1	ADCYAP1	
		AGL		TRIM23	NAT2	CDX2	hsa-mir-2278	AQP4	
		ALX3		ARSB	ADRA1A	RCBTB2	hsa-let-7d	ATP5A1	
		AMPD1		ALDH7A1	ASAH1	CPB2	hsa-mir-4291	BCL2	
		AMPD2		BHMT	ATP6V1B2	ELF1	hsa-mir-4290	C18orf1	
		AMY1A		BTF3	BLK	ESD	hsa-mir-3153	CDH2	
		AMY1B		CAMK4	BMP1	FGF9	hsa-mir-4289	CDH7	
		AMY1C		CAMLG	POLR3D	FOXO1	hsa-mir-7-1	CETN1	
		AMY2A		CAST	BNIP3L	FLT1	hsa-mir-204	CIDEA	
		AMY2B		CCNB1	CHRNA2	FLT3	hsa-mir-1299	CYB5A	
		RHOC		CCNH	CLU	GJA3	hsa-mir-873	DCC	
		ATP1A1		CDC25C	CTSB	GJB2	hsa-mir-31	DSC1	
		ATP5F1		CDK7	DEFB4A	GPR12	hsa-mir-491	DSC2	
		BRDT		CDO1	DPYSL2	MLNR	hsa-mir-3152	DSC3	
		CAPZA1		CETN3	DUSP4	GTF2F2	hsa-mir-101-2	DSG1	
		CASQ2		CHD1	EGR3	GTF3A	hsa-mir-1302-9	DSG2	
		CD2		CKMT2	EPB49	GUCY1B2	ABCA1	DSG3	
		CD53		ERCC8	EPHX2	HMGB1	ABCA2	DTNA	
		CD58		AP3S1	EXTL3	HTR2A	ABL1	FECH	
		CHI3L2		COX7C	PTK2B	PDX1	ABO	KDSR	
		CLCA1		CRHBP	FDFT1	KPNA3	ACO1	GALR1	
		CNN3		HAPLN1	FGL1	LCP1	PLIN2	GALNT1	
		COL11A1		CSF2	GATA4	MAB21L1	AK1	GATA6	
		CRYZ		CSNK1G3	GFRA2	SMAD9	ALAD	GNAL	
		CSF1		VCAN	GNRH1	MIPEP	ALDH1A1	GRP	
		CTBS		DMXL1	GSR	NEK3	ALDH1B1	IMPA2	
		CTH		DHFR	GTF2E2	PABPC3	ALDOB	LAMA3	
		DBT		EFNA5	NRG1	PCDH8	AMBP	LMAN1	
		DPYD		F2R	LOXL2	PCDH9	ANXA1	SMAD2	
		DR1		F2RL1	LPL	UBL3	ANXA2P2	SMAD4	
		S1PR1		F2RL2	MSR1	RB1	NUDT2	SMAD7	
		CELSR2		FBN2	MSRA	RFC3	APBA1	MBD1	
		EXTL2		FER	NEFM	RFXAP	AQP3	MBP	
		F3		FGF10	NEFL	RNF6	AQP7	MC2R	
		FCGR1B		FOXD1	NKX3-1	RPL21	ASS1	MC4R	
		GBP1		GDF9	PCM1	SGCG	AUH	MC5R	
		GBP2		GFRA3	PDGFRL	SLC7A1	BAAT	ME2	
		GBP3		GLRX	PNOC	TPT1	BAG1	MEP1B	
		GFI1		GTF2H2	PPP2CB	TRPC4	KLF9	MYO5B	
		GCLM		GZMA	PPP2R2A	TUBA3C	C5	NARS	
		GNAI3		GZMK	PPP3CC	ZMYM2	C8G	NDUFV2	
		GNAT2		HEXB	SFTPC	IFT88	CA9	NFATC1	
		GNG5		HINT1	SLC7A2	TNFSF11	CACNA1B	NPC1	
		GSTM1		HMGCR	SLC18A1	SUCLA2	CCIN	SERPINB2	
		GSTM2		HSD17B4	STC1	DLEU2	CCBL1	ATP8B1	
		GSTM3		HSPA4	WRN	TSC22D1	TNFSF8	SERPINB5	
		GSTM4		HTR1A	FZD3	CCNA1	ENTPD2	SERPINB8	
		GSTM5		IL3	TUSC3	MTMR6	CD72	SERPINB10	
		GTF2B		IL4	UBXN8	DCLK1	CDK9	SERPINB13	
		HMGCS2		IL5	TNKS	ZMYM5	CDKN2A	PIK3C3	
		HSD3B1		IL6ST	ADAM7	KL	CDKN2B	PMAIP1	
		HSD3B2		IL9	TNFRSF10D	ITM2B	CEL	MAPK4	
		IGSF3		IL13	TNFRSF10C	MTRF1	CELP	PTPN2	
		CYR61		IRF1	TNFRSF10B	UTP14C	CKS2	PTPRM	
		KCNA2		ISL1	TNFRSF10A	NUPL1	CLTA	RAB27B	
		KCNA3		ITGA1	FGF17	FRY	CNTFR	RBBP8	
		KCNA10		ITGA2	DOK2	LPAR6	COL5A1	RIT2	
		KCNC4		KCNN2	MTMR7	SLC25A15	COL15A1	ROCK1	
		KCND3		KIF2A	MFHAS1	LHFP	SLC31A1	RPL17	
		MOV10		TNPO1	ENTPD4	TRIM13	SLC31A2	SERPINB3	
		MSH4		LECT2	PHYHIP	USPL1	CRAT	SERPINB4	
		NGF		LMNB1	SORBS3	MRPS31	CTSL1	SLC14A1	
		NHLH2		LNPEP	NPM2	SAP18	CTSL2	SNRPD1	
		NOTCH2		LOX	DLC1	DLEU1	CTSL1P8	SS18	
		NRAS		CD180	SPAG11B	N4BP2L2	CYLC2	SYT4	
		OVGP1		SMAD5	DCTN6	OLFM4	DAPK1	TAF4B	
		PIN1P1		MAN2A1	PNMA2	POSTN	DBC1	TCF4	
		PRKACB		MAP1B	ADAM28	GJB6	DBH	TGIF1	
		PKN2		MCC	RBPMS	HSPH1	SARDH	TTR	
		PSMA5		MEF2C	LZTS1	WASF3	DNM1	TYMS	
		PTGER3		MAP3K1	XPO7	SUGT1	DMRT1	YES1	
		PTGFR		MOCS2	TRIM35	LECT1	ECM2	ZFP161	
		PTGFRN		MSH3	RHOBTB2	WBP4	TOR1A	ZNF24	
		ABCD3		NAIP	KIF13B	AKAP11	LPAR1	ZNF236	
		RABGGTB		NDUFS4	PSD3	EXOSC8	S1PR3	SLC14A2	
		RAP1A		NEUROG1	LEPROTL1	FNDC3A	MEGF9	SERPINB7	
		SNORD21		NPY6R	SLC39A14	PDS5B	ELAVL2	NOL4	
		RPL5		PAM	FGF20	KIAA0564	ENDOG	RNMT	
		SORT1		PCSK1	ADAMDEC1	ZC3H13	ENG	MYOM1	
		SARS		PDE4D	CNOT7	SPG20	STOM	NAPG	
		SLC16A1		PGGT1B	PURG	LRCH1	FANCC	RIOK3	
		STXBP3		PIK3R1	ZDHHC2	MTUS2	FANCG	TNFRSF11A	
		SYCP1		PITX1	SLC25A37	SACS	FBP1	MBD2	
		TAF13		PMCHL2	SCARA3	INTS6	FKTN	PSTPIP2	
		TBX15		PPIC	TMEM66	LATS2	FCN1	PIAS2	
		TGFBR3		PPP2CA	KCTD9	CKAP2	FCN2	USP14	
		TSHB		RAD17	PINX1	NUFIP1	FOXD4	CTDP1	
		VCAM1		RASA1	PIWIL2	SNORD102	FOXE1	VAPA	
		WNT2B		RASGRF2	ELP3	NBEA	MLANA	DLGAP1	
		CSDE1		RPS23	INTS10	PCDH17	FPGS	SOCS6	
		EVI5		SKP1	CCDC25	C13orf15	FXN	B4GALT6	
		CDC7		SLC12A2	INTS9	MED4	NR5A1	TXNL1	
		BCAR3		SLC22A4	CSGALNACT1	DNAJC15	FUT7	LIPG	
		TTF2		SLC22A5	HR	ALG5	GALT	ONECUT2	
		LMO4		SMN1	PBK	VPS36	GAS1	VPS4B	
		CDC14A		SMN2	ZNF395	POLR1D	NR6A1	ZNF516	
		RTCD1		SNX2	DEFB103B	CRYL1	GCNT1	LPIN2	
		FPGT		SPOCK1	BIN3	PHF11	GGTA1P	CTIF	
		FUBP1		SRP19	TEX15	POMP	B4GALT1	THOC1	
		BCL10		TAF9	MTUS1	UFM1	GLDC	PPP4R1	
		SLC16A4		TBCA	KIAA1456	ATP8A2	GLE1	TSHZ1	
		SRSF11		TCF7	KIAA1967	IL17D	GNAQ	NDC80	
		CD101		NR2F1	SH2D4A	MPHOSPH8	GNG10	ACAA2	
		SEP15		TGFBI	PDLIM2	SOHLH2	GOLGA1	MYL12A	
		ZRANB2		THBS4	EBF2	ENOX1	GOLGA2	SLMO1	
		ARHGAP29		UBE2B	FAM160B2	RCBTB1	GPR21	CD226	
		CLCA3P		VDAC1	MTMR9	PSPC1	RAPGEF1	ZNF271	
		CLCA2		WNT8A	DUSP26	NUDT15	GRIN1	MALT1	
		HS2ST1		XRCC4	HMBOX1	KIAA1704	GSN	TXNL4A	
		LRIG2		ST8SIA4	PPP1R3B	TNFRSF19	HNRNPK	RALBP1	
		LPPR4		REEP5	RNF122	FAM48A	HSD17B3	AFG3L2	
		PIGK		SERF1A	NUDT18	CENPJ	DNAJA1	MAPRE2	
		TSPAN2		NME5	DOCK5	THSD1	HSPA5	RAB31	
		BCAS2		ENC1	FLJ14107	RNF17	TNC	POLI	
		WARS2		AP3B1	TTI2	CYSLTR2	IARS	ADNP2	
		CEPT1		PDLIM4	REEP4	SPRYD7	IFNA1	TRAPPC8	
		VAV3		PPAP2A	STMN4	COG6	IFNA2	EPB41L3	
		HBXIP		PDE8B	SOX7	XPO4	IFNA4	PHLPP1	
		IFI44		CDC23	FAM167A	PCDH20	IFNA5	ANKRD12	
		AP4B1		P4HA2	SLC35G5	MRP63	IFNA6	CCDC165	
		PHTF1		HSPB3	LINC00208	NAA16	IFNA7	NEDD4L	
		AHCYL1		ATG12	C8orf12	RNASEH2B	IFNA8	WDR7	
		WDR3		NREP	MAK16	DHRS12	IFNA10	SMCHD1	
		MAN1A2		RAB9BP1	FUT10	KIAA0226L	IFNA13	PIGN	
		IFI44L		HOMER1	FAM86B1	PROSER1	IFNA14	SLC39A6	
		DNAJB4		MYOT	ERI1	TDRD3	IFNA16	RTTN	
		ADAM30		SCAMP1	LONRF1	CDADC1	IFNA17	ZNF521	
		GLMN		CXCL14	CHMP7	CAB39L	IFNA21	TPGS2	
		HHLA3		H2AFY	RP1L1	DIAPH3	IFNA22P	SETBP1	
		DDX20		SMAD5-AS1	CLDN23	CCDC70	IFNB1	KCNG2	
		CLCA4		CARTPT	VPS37A	COG3	IFNW1	CABYR	
		MTF2		SNCAIP	NKX2-6	SETDB2	IL11RA	SNORD58B	
		NTNG1		TTC37	SGCZ	KATNAL1	INSL4	SNORD58A	
		WDR47		ZFYVE16	DEFB104A	KBTBD7	JAK2	CLUL1	
		USP33		PJA2	LOC157273	EBPL	LCN1	SALL3	
		CLCC1		DDX46	SGK223	C13orf33	LCN2	CDH20	
		LPHN2		EDIL3	PEBP4	KBTBD6	LMX1B	CDH19	
		KIAA1107		COL4A3BP	CDCA2	STARD13	MLLT3	TIMM21	
		SLC35A3		RAD50	ESCO2	N4BP2L1	MTAP	ST8SIA5	
		LRRC8B		KIF20A	FBXO16	TPTE2	MUSK	C18orf8	
		LPAR3		LHFPL2	LOC157627	EPSTI1	NCBP1	RAX	
		DDAH1		CWC27	TDH	ARL11	NDUFA8	CXXC1	
		RWDD3		CCNO	C8orf48	WDFY2	NDUFB6	ST8SIA3	
		ZZZ3		NSA2	R3HCC1	CG030	NFIB	IER3IP1	
		PTPN22		FST	PRSS55	LINC00284	NFIL3	TCEB3B	
		PHGDH		PAIP1	C8orf74	CSNK1A1L	NFX1	MEX3C	
		AK5		POLR3G	LGI3	RXFP2	NINJ1	RNF138	
		SNORA66		PLK2	DEFB105A	TEX26	NOTCH1	TMX3	
		SNORD45B		IQGAP2	DEFB106A	PRR20A	NPR2	DYM	
		SNORD45A		SEC24A	DEFB107A	FAM216B	NTRK2	ZCCHC2	
		CHIA		MRPS30	DEFB109P1	LACC1	ROR2	RNF125	
		GPSM2		BRD8	DEFB130	LINC00330	ODF2	MOCOS	
		SLC25A24		HNRNPA0	NEIL2	HNRNPA1L2	OMD	CEP192	
		DNTTIP2		SMA4	LOC254896	ST13P4	OGN	RPRD1A	
		TMED5		SMA5	FLJ10661	B3GALTL	ORM1	ZNF532	
		TNNI3K		ESM1	XKR6	DGKH	ORM2	ELP2	
		SH3GLB1		KIF3A	LOC286059	CCDC122	PAEP	IMPACT	
		HAO2		ADAMTS6	EFHA2	STOML3	PAPPA	ELAC1	
		SNX7		RHOBTB3	LOC286114	EEF1DP3	PAX5	ENOSF1	
		TRIM33		ELL2	SCARA5	FAM123A	PDCL	ZNF407	
		DPH5		SV2C	LOC286135	USP12	PBX3	CNDP2	
		GPR88		FSTL4	LOC340357	MTIF3	PCSK5	LINC00470	
		CCDC76		MRPS27	USP17L2	GSX1	PGM5	CELF4	
		RSBN1		SEPT8	FAM90A25P	FAM194B	PHF2	SPIRE1	
		ZNHIT6		PPIP5K2	LOC389641	SPERT	PPP2R4	PSMG2	
		GIPC2		ACSL6	C8orf80	DLEU7	PPP3R2	TWSG1	
		GDAP2		PHF15	LOC392196	FAM124A	PPP6C	CHMP1B	
		FAM46C		PPWD1	MIR124-1	TPTE2P3	PRKACG	MIB1	
		PALMD		OTP	MIR320A	CTAGE10P	PRSS3	KIAA1328	
		FNBP1L		SKIV2L2	DEFB103A	N6AMT2	PSMB7	KLHL14	
		ST7L		NNT	FAM90A13	SKA3	PSMD5	KIAA1468	
		PRPF38B		SSBP2	FAM90A7	EFHA1	PTCH1	EPG5	
		LRRC8D		BHMT2	FAM90A8	SPATA13	PTGDS	HRH4	
		PRMT6		TNFAIP8	FAM90A18	LNX2	PTGS1	PIEZO2	
		MCOLN3		PART1	FAM90A9	SLC25A30	PTPN3	CTAGE1	
		SLC22A15		FAM169A	FAM90A10	ZDHHC20	PTPRD	FAM59A	
		RNPC3		FBXL21	MIR383	PAN3	RAD23B	METTL4	
		LRRC40		KLHL3	DEFB107B	PHF2P1	RALGDS	MPPE1	
		DEPDC1		RNU5E-1	DEFB104B	OR7E156P	RFX3	ARHGAP28	
		LRIF1		RNU5D-1	DEFB106B	SUGT1P3	RGS3	CCDC102B	
		CTTNBP2NL		PKD2L2	DEFB105B	SIAH3	RLN1	RBFA	
		FAM212B		UQCRQ	C8orf58	KCNRG	RLN2	CEP76	
		CCBL2		AFF4	DEFB135	LINC00282	RMRP	GREB1L	
		TMEM167B		DIMT1	DEFB136	SLC46A3	RORB	PQLC1	
		OLFML3		SLC27A6	DEFB134	ANKRD20A9P	RPL7A	FHOD3	
		AMIGO1		SNX24	C8orf75	C1QTNF9	RPL12	CCDC68	
		ODF2L		DMGDH	MBOAT4	FREM2	RPS6	ASXL3	
		KIAA1324		TMED7	DEFB109P1B	NEK5	RXRA	COLEC12	
		LRRC7		ISOC1	FAM90A14	LINC00442	CCL19	NETO1	
		PTBP2		SAR1B	FAM86B2	TPTE2P6	CCL21	SEH1L	
		DNASE2B		IPO11	SPAG11A	THSD1P1	SET	KATNAL2	
		ELTD1		CDKL3	MIR597	KCTD4	SH3GL2	CHST9	
		HIAT1		GCNT4	MIR598	RASL11A	SHB	C18orf21	
		RBM15		FAM13B	FAM90A19	C1QTNF9B	SLC1A1	MRO	
		DCLRE1B		FAM53C	ZNF705D	SHISA2	SMARCA2	EMILIN2	
		WDR77		REEP2	LOC100128750	NHLRC3	SNAPC3	HDHD2	
		EPS8L3		PRR16	LOC100128993	SERP2	SNAPC4	TXNDC2	
		VTCN1		COMMD10	ZNF705G	SERTM1	SPTAN1	ZNF397	
		TTLL7		POLK	FAM66E	LINC00547	STXBP1	PARD6G	
		RPAP2		RAPGEF6	LOC100132396	LINC00548	SURF1	TUBB6	
		DENND2D		ERAP1	FAM66D	MIR15A	SURF2	CNDP1	
		RPF1		KDM3B	FAM66A	MIR16-1	SURF4	TMEM241	
		SIKE1		PHAX	LOC100133267	ATP5EP2	MED22	SERPINB12	
		TRIM45		PELO	DEFB4B	LOC440131	SURF6	SERPINB11	
		ANKRD13C		DHX29	MIR1322	ALG11	SYK	SEC11C	
		VANGL1		FLJ11235	MIR548I3	C1QTNF9B-AS1	TAL2	L3MBTL4	
		ST6GALNAC5		DDX4	MIR4287	SNORA27	TEK	CABLES1	
		GPR61		SGTB	MIR3148	TSC22D1-AS1	TESK1	DSEL	
		REG4		ARL15	MIR4288	BASP1P1	TGFBR1	MYL12B	
		SYDE2		ZCCHC10	MIR3926-2	TPTE2P1	TLE1	ESCO1	
		ZNF644		GIN1	MIR3622A	PRHOXNB	TLE4	OSBPL1A	
		LRRC8C		AGGF1	MIR3926-1	ZAR1L	TLN1	HAUS1	
		PROK1		WDR41	MIR3622B	TTL	TLR4	ALPK2	
		PSRC1		TRIM36	LOC100506990	SERPINE3	TMOD1	FAM210A	
		ATP1A1OS		RIOK2	LOC100507156	SNORA31	TPM2	LOXHD1	
		FAM40A		DEPDC1B	LOC100507341	MIR621	TRAF1	INO80C	
		ZNF697		BDP1	MIR548O2	CCDC169	TRAF2	TTC39C	
		NEXN		ERBB2IP	MIR4660	PRR20B	TSC1	FAM69C	
		DNAJA1P5		FEM1C		PRR20C	TTF1	PSMA8	
		HENMT1		C5orf15		PRR20D	TXN	STARD6	
		GBP4		CDC42SE2		PRR20E	TYRP1	C18orf25	
		GBP5		TRPC7		ANKRD26P3	UGCG	CCBE1	
		SSX2IP		NLN		RPL21P28	VAV2	CBLN2	
		OLFM3		ZNF608		LINC00426	VCP	MCART2	
		WDR63		SEMA6A		TPT1-AS1	VLDLR	DSG4	
		MAB21L3		ARRDC3		LINC00421	CORO2A	CHST9-AS1	
		SLC44A3		ZSWIM6		PAN3-AS1	XPA	ANKRD29	
		ATXN7L2		ANKRA2		MIR1297	ZFP37	APCDD1	
		C1orf194		MCCC2		MIR548F5	ZNF79	LINC00526	
		ASB17		EPB41L4A		MIR759	ZNF189	ZNF519	
		TYW3		CENPK		MIR2276	ZFAND5	C18orf54	
		C1orf173		ERAP2		MIR320D1	NR4A3	TCEB3C	
		LRRIQ3		RGNEF		MIR4305	BRD3	ABHD3	
		LRRC39		C5orf28		MIR3169	NUP214	FBXO15	
		HSD3BP4		FBXL17		MIR3613	LHX3	RAB12	
		DRAM2		YTHDC2		LINC00327	GFI1B	LOC201477	
		C1orf88		SLC30A5		OR7E37P	PIP5K1B	ZBTB7C	
		C1orf162		CENPH		TEX26-AS1	RECK	SKA1	
		SYT6		GPBP1		SPG20OS	IKBKAP	CCDC11	
		SAMD13		GRAMD3		LOC100507240	CDC14B	DOK6	
		C1orf52		PARP8		LOC100509894	TMEFF1	RNF152	
		TMEM56		ANKRD55		CCDC169-SOHLH2	SSNA1	LINC00305	
		NBPF4		TXNDC15		MIR4499	EDF1	ZNF396	
		SLC30A7		MCTP1		MIR4703	CTNNAL1	LOC284215	
		MGC27382		PTCD2		LOC100616668	MPDZ	LAMA1	
		RP11-165H20.1		ELOVL7			FBP2	CYP4F35P	
		DENND2C		C5orf44			DPM2	KCTD1	
		GBP6		NUDT12			FUBP3	C18orf26	
		LPPR5		ATG10			CLIC3	BOD1P	
		FNDC7		SPATA9			PRPF4	LOC284260	
		SASS6		TSSK1B			KLF4	SIGLEC15	
		HFM1		FAM172A			GTF3C5	ZADH2	
		UBL4B		GPR98			GTF3C4	C18orf62	
		ALG14		PCBD2			CER1	LOC284276	
		SPAG17		UTP15			LHX2	HMSD	
		HIPK1		ZCCHC9			PLAA	LOC284294	
		SLC44A5		ANKRD32			GRHPR	LOC339290	
		AKR7A2P1		ZBED3			FAM189A2	LRRC30	
		EPHX4		GFM2			TJP2	LOC339298	
		AKNAD1		MEGF10			MED27	CPLX4	
		MCOLN2		SPZ1			PTGES	ANKRD30B	
		COL24A1		TSLP			ATP6V1G1	C18orf34	
		ST6GALNAC3		C5orf30			GABBR2	ATP9B	
		NEGR1		LYRM7			GDA	POTEC	
		MAGI3		SLC25A46			GNA14	LOC390858	
		FAM19A3		CDKN2AIPNL			RALGPS1	LOC400643	
		FAM102B		NDUFAF2			ADAMTSL2	LOC400654	
		SYPL2		MRPS36			RGP1	LOC400655	
		CYB561D1		ATP6AP1L			TRIM14	LOC400657	
		ZNF326		PRDM6			MELK	MIR1-2	
		BTBD8		FTMT			RUSC2	MIR122	
		PPM1J		FNIP1			PPP1R26	MIR133A1	
		HIST2H2BA		SNX18			SEC16A	MIR187	
		LOC339524		EPB41L4A-AS1			ZBTB5	CXADRP3	
		CCDC18		MARCH3			KIAA0020	ANKRD20A5P	
		MYBPHL		FCHO2			TNFSF15	HSBP1L1	
		BARHL2		RAB3C			PTBP3	WBP11P1	
		HSP90B3P		LYSMD3			GNE	RNF165	
		NBPF7		LEAP2			SH2D3C	C18orf56	
		FAM73A		C5orf35			RCL1	C18orf32	
		LOC375010		IL31RA			TOPORS	KC6	
		GBP7		EMB			RABEPK	C18orf42	
		C1orf146		SLCO6A1			SIGMAR1	LOC643542	
		FAM69A		PRRC1			LAMC3	C18orf63	
		SLC6A17		JMY			TUBB4B	LOC644669	
		UOX		ZNF474			UBAC1	CBX3P2	
		FRRS1		POU5F2			OLFM1	LOC645355	
		GBP1P1		TMEM171			ZER1	TMEM200C	
		FLJ27354		TMEM174			CREB3	LOC647946	
		MIR137HG		POC5			UNC13B	FLJ35776	
		MIR137		STARD4			SEMA4D	SCARNA17	
		MIR186		WDR36			ANP32B	SNORA37	
		MIR197		ACOT12			AGPAT2	ROCK1P1	
		LHX8		SOWAHA			SPTLC1	LOC727896	
		C1orf180		SHROOM1			POMT1	LOC728606	
		FLJ31662		C5orf24			SMC2	TCEB3CL	
		LOC440600		SREK1			DMRT2	LOC729950	
		BCL2L15		C5orf20			RRAGA	ZSCAN30	
		PGCP1		SLC38A9			ZBTB6	SNORD58C	
		GEMIN8P4		CEP120			NEK6	LOC100130480	
		RBMXL1		SLC25A48			SDCCAG3	LOC100130522	
		SRG7		TMEM167A			NOXA1	LOC100131655	
		CYMP		MBLAC2			CCL27	LOC100192426	
		LOC643441		TMEM161B			USP20	LOC100287225	
		LOC644242		SRFBP1			ACTL7B	LOC100288122	
		LOC646626		MARVELD2			ACTL7A	MIR302F	
		EMBP1		ARSK			GADD45G	MIR320C1	
		LOC648740		FAM81B			SPIN1	MIR320C2	
		NBPF6		CCDC112			SEC61B	MIR1539	
		FAM72B		MIER3			SLC27A4	MIR4319	
		SCARNA2		CDC20B			SLC35D2	MIR4317	
		SNORD45C		PAPD4			CNTRL	MIR4318	
		MIR548D1		DCP2			WDR5	MIR4320	
		MIR553		LIX1			C9orf9	MIR3156-2	
		LOC729970		ZNF366			ADAMTS13	LOC100505474	
		LOC729987		FAM151B			C9orf7	LOC100505549	
		MIR942		S100Z			PSIP1	LOC100505776	
		MIR760		ADAMTS19			INSL6	LOC100505817	
		LOC100128787		CCDC125			SLC2A6	LOC100506888	
		LOC100129046		C5orf27			PTENP1	RPL17-C18ORF32	
		LOC100129138		GAPT			AKAP2	MIR4526	
		LOC100129269		CMYA5			RPL35	MIR4741	
		LOC100129620		AQPEP			MAN1B1	MIR3976	
		LOC100131564		ANKRD31			DCTN3	MIR3975	
		ZRANB2-AS1		SERINC5			FRMPD1	MIR4529	
		LOC100287722		LOC257396			DOLK	MIR3591	
		MIR320B1		KIAA0825			ZNF510	MIR4743	
		MIR4256		GPR150			HABP4	MIR4744	
		MIR548AA1		DTWD2			PTGR1	LOC100652770	
		LOC100505768		NBPF22P			TRIM32		
		LOC100506343		C5orf64			FNBP1		
		FPGT-TNNI3K		RNF180			SETX		
		TMEM56-RWDD3		SREK1IP1			ERP44		
		MIR2682		RGMB			KDM4C		
		MIR4423		RFESD			ZBTB43		
		NEGR1-IT1		CHSY3			SMC5		
		ZRANB2-AS2		FAM170A			KANK1		
				LOC340073			FAM120A		
				LOC340074			PMPCA		
				ANKRD34B			VPS13A		
				IDAS			ASTN2		
				ACTBL2			AGTPBP1		
				FAM174A			BICD2		
				MTX3			FKBP15		
				CATSPER3			KIAA1045		
				HCN1			KIAA0368		
				SLCO4C1			EXOSC2		
				TICAM2			NCS1		
				C5orf34			TDRD7		
				MAST4			SLC44A1		
				RNF138P1			ANGPTL2		
				C5orf48			NUP188		
				LOC389332			CDK20		
				RGS7BP			DDX58		
				C5orf63			RABGAP1		
				MIR9-2			TMEM2		
				CRSP8P			C9orf5		
				FLJ42709			C9orf4		
				C5orf56			SLC24A2		
				GPX8			CIZ1		
				TIFAB			DNAJB5		
				FLJ35946			DCAF12		
				LOC553103			DFNB31		
				MIR449A			COBRA1		
				CTXN3			NIPSNAP3A		
				LOC642366			NELF		
				TMEM232			GPSM1		
				C5orf43			DKFZP434A062		
				LOC644100			GAPVD1		
				FLJ33630			PHF19		
				LOC644936			ZNF658		
				CCNI2			FAM75A7		
				LINC00461			FBXW2		
				LOC647859			SPAG8		
				GUSBP3			OR1J4		
				GTF2H2B			OR2K2		
				SNORA13			FBXO10		
				SCARNA18			GBGT1		
				SNORA47			LHX6		
				MIR449B			OSTF1		
				MIR581			OR1L3		
				MIR583			OR1L1		
				GTF2H2C			OR1J2		
				LOC728342			SNORA65		
				SERF1B			SNORD62A		
				LOC728723			SNORD36C		
				GTF2H2D			SNORD36B		
				GUSBP9			SNORD36A		
				VTRNA2-1			SNORD24		
				MIR874			RANBP6		
				LOC100129716			TRUB2		
				LRRC70			DNAI1		
				LOC100131067			ST6GALNAC4		
				FAM159B			INVS		
				LOC100133050			NDOR1		
				LOC100170939			SIT1		
				LOC100272216			SPINK4		
				LOC100289230			TOR1B		
				LOC100289673			TOR2A		
				MIR1289-2			METTL11A		
				MIR1244-1			PHPT1		
				TMED7-TICAM2			CD274		
				NCRUPAR			ANAPC2		
				LOC100303749			PKN3		
				MIR2277			DPP7		
				MIR449C			PSAT1		
				MIR1244-3			UBQLN1		
				MIR1244-2			SLC2A8		
				MIR4280			OBP2B		
				MTRNR2L2			OBP2A		
				MIR3607			ST6GALNAC6		
				MIR3660			STOML2		
				MIR3936			DEC1		
				MIR3661			PCA3		
				LOC100505678			AK3		
				LOC100505841			EXOSC3		
				LOC100505894			FAM108B1		
				OCLN			MRPS2		
				MIR4804			COQ4		
				MIR4633			CERCAM		
				MIR4461			EGFL7		
				MIR3977			C9orf53		
				MIR4460			UBAP1		
				MIR4803			GOLM1		
							PRRX2		
							C9orf114		
							CHMP5		
							C9orf156		
							RAB14		
							TMEM8B		
							C9orf78		
							SHC3		
							POLE3		
							NANS		
							FBXW5		
							MRPL50		
							RC3H2		
							EPB41L4B		
							C9orf11		
							TBC1D13		
							FAM22F		
							DIRAS2		
							BNC2		
							HAUS6		
							ASPN		
							BSPRY		
							APTX		
							C9orf167		
							CNTLN		
							TEX10		
							LPPR1		
							KIAA1797		
							UBE2R2		
							EXD3		
							FAM206A		
							C9orf95		
							STX17		
							NOL8		
							C9orf68		
							C9orf40		
							TMEM38B		
							SMU1		
							RFK		
							NIPSNAP3B		
							STRBP		
							TBC1D2		
							HEMGN		
							KIF27		
							CDC37L1		
							DENND4C		
							C9orf86		
							CDK5RAP2		
							UBAP2		
							C9orf46		
							CBWD1		
							KLHL9		
							BARX1		
							RNF20		
							LRRC8A		
							INPP5E		
							NPDC1		
							OR2S2		
							BARHL1		
							IFNK		
							SH3GLB2		
							REXO4		
							DOLPP1		
							KIAA1161		
							KCNT1		
							KIAA1432		
							BDAG1		
							ZBTB26		
							GBA2		
							DENND1A		
							GPR107		
							SLC46A2		
							LINC00474		
							C9orf80		
							ZNF462		
							DMRT3		
							PRDM12		
							NAA35		
							DMRTA1		
							SLC28A3		
							CARD9		
							SUSD1		
							POLR1E		
							IPPK		
							DDX31		
							FAM129B		
							LRRC19		
							MRPL41		
							NOL6		
							WNK2		
							SECISBP2		
							C9orf16		
							MAPKAP1		
							DCAF10		
							ZCCHC6		
							GALNT12		
							EHMT1		
							MOB3B		
							C9orf82		
							CNTNAP3		
							ERMP1		
							SVEP1		
							RMI1		
							TRPM3		
							PTGES2		
							IFT74		
							FAM214B		
							GKAP1		
							PDCD1LG2		
							AKNA		
							MIR600HG		
							URM1		
							ISCA1		
							DOCK8		
							ARPC5L		
							HDHD3		
							AIF1L		
							UCK1		
							ZNF484		
							FSD1L		
							CEP78		
							ZCCHC7		
							ANKRD20A1		
							GARNL3		
							HSDL2		
							C9orf64		
							C9orf89		
							HIATL2		
							C9orf125		
							NTNG2		
							HIATL1		
							HINT2		
							C9orf24		
							PIGO		
							PRRC2B		
							PPAPDC3		
							GLIS3-AS1		
							ZDHHC12		
							FAM73B		
							C9orf100		
							C9orf3		
							FIBCD1		
							KIAA1984		
							SNHG7		
							TMEM141		
							C9orf37		
							COL27A1		
							ALG2		
							FGD3		
							FAM125B		
							TPD52L3		
							WDR34		
							SAPCD2		
							C9orf69		
							LRSAM1		
							IL33		
							C9orf123		
							C9orf30		
							UAP1L1		
							MCART1		
							MRRF		
							RBM18		
							ARRDC1		
							WDR85		
							ADAMTSL1		
							FP588		
							TMEM203		
							KIF12		
							PALM2		
							SLC25A25		
							WDR31		
							ZNF618		
							UHRF2		
							FAM122A		
							ZMYND19		
							GRIN3A		
							TMC1		
							RNF183		
							NACC2		
							C9orf116		
							C9orf41		
							C9orf57		
							C9orf85		
							C9orf135		
							LCN8		
							FAM69B		
							PTRH1		
							PIP5KL1		
							TAF1L		
							PTPDC1		
							ANKRD19P		
							ARID3C		
							C9orf23		
							C9orf131		
							OR13C5		
							OR13C8		
							OR13C3		
							OR13C4		
							OR13F1		
							OR1L8		
							OR1N2		
							OR1N1		
							ASB6		
							TRPM6		
							SLC34A3		
							RNF38		
							GLIPR2		
							DAB2IP		
							CAMSAP1		
							C9orf66		
							LINC00032		
							LINGO2		
							NXNL2		
							C9orf163		
							MAMDC4		
							LCN6		
							AK8		
							OR1Q1		
							TTLL11		
							RASEF		
							TTC39B		
							FAM201A		
							RG9MTD3		
							TTC16		
							LOC158257		
							FAM120AOS		
							FAM154A		
							LINC00475		
							FREM1		
							KIAA2026		
							LOC158376		
							ATP8B5P		
							ZNF483		
							C9orf84		
							KIAA1958		
							TSTD2		
							ZNF782		
							LOC158434		
							LOC158435		
							PRUNE2		
							C9orf96		
							KCNV2		
							OLFML2A		
							C9orf71		
							QSOX2		
							GLIS3		
							ZNF883		
							ZNF169		
							C9orf21		
							ZNF367		
							C9orf91		
							C9orf72		
							C9orf93		
							NAIF1		
							C9orf25		
							CCDC107		
							ANKS6		
							SUSD3		
							CBWD5		
							CDC26		
							LOC253039		
							ANKRD18A		
							PHYHD1		
							MORN5		
							OR1L4		
							TXNDC8		
							MAMDC2		
							FRMD3		
							C9orf43		
							FAM205A		
							LINC00094		
							CRB2		
							SCAI		
							C9orf117		
							C9orf47		
							C9orf79		
							LOC286238		
							LCN12		
							C9orf142		
							TPRN		
							LOC286297		
							TUSC1		
							LINC00256A		
							FAM78A		
							LURAP1L		
							LOC286359		
							OR13C9		
							OR13D1		
							LOC286367		
							LOC286370		
							FOXD4L3		
							IFNE		
							ZDHHC21		
							ACER2		
							LOC340508		
							LOC340515		
							GPR144		
							FAM75D5		
							QRFP		
							OR1J1		
							OR1B1		
							KIF24		
							IGFBPL1		
							MURC		
							FOXD4L4		
							GLT6D1		
							ENHO		
							AQP7P1		
							PTAR1		
							C9orf102		
							SWI5		
							C9orf50		
							PNPLA7		
							C9orf169		
							ENTPD8		
							KGFLP1		
							LOC389705		
							FAM205B		
							FAM75A6		
							MGC21881		
							FAM75D4		
							FAM75D3		
							FAM75D1		
							LOC389765		
							C9orf153		
							LOC389791		
							IER5L		
							C9orf171		
							LCN15		
							C9orf172		
							LRRC26		
							TMEM8C		
							C9orf128		
							OR13J1		
							CTSL3		
							LOC392364		
							OR13C2		
							OR1L6		
							OR5C1		
							OR1K1		
							LCN9		
							FAM102A		
							FLJ35024		
							FLJ41200		
							PTPLAD2		
							LOC401497		
							TMEM215		
							TOMM5		
							FAM74A1		
							FAM74A4		
							ZNF658B		
							C9orf170		
							CENPP		
							C9orf152		
							SNX30		
							WDR38		
							LOC401557		
							LCNL1		
							C9orf139		
							FAM166A		
							SOHLH1		
							PPAPDC2		
							ZBTB34		
							MIRLET7A1		
							MIRLET7D		
							MIRLET7F1		
							MIR101-2		
							MIR126		
							MIR147A		
							MIR181A2		
							MIR181B2		
							MIR199B		
							MIR204		
							MIR219-2		
							MIR23B		
							MIR24-1		
							MIR27B		
							MIR31		
							MIR32		
							MIR7-1		
							C9orf106		
							C9orf103		
							LCN10		
							LOC415056		
							LOC440173		
							LOC440896		
							FLJ35282		
							SUGT1P1		
							ANKRD20A3		
							ANKRD20A2		
							AQP7P3		
							FAM75C1		
							LOC441454		
							LOC441455		
							FAM22G		
							ANKRD18B		
							LOC441461		
							C9orf173		
							NRARP		
							LOC442421		
							FOXB2		
							CBWD3		
							C9orf129		
							PALM2-AKAP2		
							LOC494127		
							LOC494558		
							FAM27A		
							DNAJC25		
							DNAJC25-GNG10		
							MIR31HG		
							LOC572558		
							MIR491		
							PGM5P2		
							MIR455		
							NRON		
							LOC642236		
							FAM75A2		
							FAM75A4		
							LOC642929		
							FAM163B		
							FLJ40292		
							TUBBP5		
							RNF224		
							LOC643648		
							CBWD6		
							FAM75C2		
							HRCT1		
							FAM75A1		
							C9orf29		
							FAM74A2		
							RPSAP9		
							FOXD4L6		
							FOXD4L5		
							LOC653501		
							KGFLP2		
							FAM138C		
							SCARNA8		
							SNORA17		
							SNORA43		
							SNORD62B		
							MSMP		
							SNORD90		
							MIR600		
							MIR601		
							MIR602		
							RNF208		
							FAM75A3		
							FAM75A5		
							DNLZ		
							FAM74A3		
							CNTNAP3B		
							ANKRD20A4		
							FAM166B		
							FOXD4L2		
							CDKN2B-AS1		
							SNORD121A		
							SNORD121B		
							C9orf146		
							SNORA84		
							SNORA70C		
							MIR876		
							MIR873		
							LOC100128076		
							LOC100128361		
							LINC00256B		
							LOC100128505		
							LOC100128593		
							LINC00476		
							LOC100129034		
							UNQ6494		
							LOC100129250		
							LOC100129316		
							LOC100129722		
							LOC100130954		
							LOC100131193		
							LOC100132077		
							LOC100132352		
							FAM157B		
							LOC100132781		
							FAM27C		
							FAM95B1		
							FAM27B		
							LOC100133920		
							RNU6ATAC		
							LINC00092		
							LOC100272217		
							LOC100286938		
							WASH1		
							LOC100288842		
							LOC100289019		
							LOC100289341		
							MIR548H3		
							MIR2278		
							MIR548Q		
							MIR181A2HG		
							MIR3074		
							MIR4292		
							MIR3152		
							MIR3154		
							MIR2861		
							MIR4291		
							MIR3153		
							MIR4290		
							MIR3134		
							MIR4289		
							C9orf174		
							LOC100499484		
							MIR3621		
							MIR3910-1		
							MIR3689A		
							MIR3911		
							MIR3910-2		
							MIR3689B		
							MIR3651		
							LOC100505478		
							LOC100506100		
							LOC100506190		
							LOC100506422		
							LOC100506599		
							LOC100506710		
							LOC100507244		
							LOC100507299		
							LOC100507346		
							C9orf30-TMEFF1		
							MIR4668		
							MIR3689D1		
							MIR3689F		
							MIR4667		
							MIR4473		
							MIR4669		
							MIR4673		
							MIR3960		
							MIR4540		
							MIR4665		
							MIR4475		
							MIR4674		
							MIR4478		
							MIR3689C		
							MIR2964A		
							MIR3689D2		
							MIR4670		
							MIR4672		
							MIR4474		
							MIR4476		
							MIR3689E		
							MIR4479		
