Tumor_Sample_Barcode	MATH	num_coding_TP53	TP53_Prot_Change_NGS	num_coding_EGFR	EGFR_Prot_Change_NGS	num_coding_mut_drivers	num_all_snv	num_all_mut	num_nonSym_snv	num_coding_snv	num_nonSym_mut	num_coding_mut	tmb_coding	tmb_nonsym	tmb_all	num_deleterious_drivers_all	num_deleterious_drivers_luad	Exon19	L858R	OtherEGFR	Exon19_CCF	L858R_CCF	OtherEGFR_CCF	Patient.ID	NMF_MutSig	purity	ploidy	total_length	del_length	amp_length	GII	Amp_frac	Del_frac	Cohort	aneuploidy	event_3q	Early	Late	pLM_coding	Early_Driver	Late_Driver	pLM_driver	GD.status	Early_TP53	Late_TP53	Early_EGFR	Late_EGFR	T790M_earlyLate	T790M	T790M_CCF	SNP_Array	RNA_Seq	immune_subtype	Immune_GEP_Score	subtype_wilkerson	TRU_wilkersonPearson	PP_wilkersonPearson	PI_wilkersonPearson	meanCoverage	normal_meanCoverage	RNA_TotalReads	RNA_MappedPercentage	TotalTILs	B_cells	CD45	CD8_T_cells	Cytotoxic_cells	DC	Exhausted_CD8	Macrophages	Mast_cells	Neutrophils	NK_CD56dim_cells	NK_cells	T_cells	Th1_cells	Treg	CXCL11	ImmuneGEP	immune_cluster_danaher	Immune_Subtype_GEP	Ethnicity	Smoker	Gender	Age	Stage	OS_Month	OS_Status	Ethnic	Histology	OS_days	TTP	TTF	stage_at_diagnosis	first_sample_afterTKI	first_sampleSite	chemo_days_beforeBiopsy	time_PD_to_biopsy	Stage_Cat	sample_biopsySite
A003-IM18	95.3791311	1	p.R156fs	2	p.ELREA746del;p.T790M	5	122	130	48	69	54	75	2.010667846	1.398725458	1.919296266	4	3	Del	No	No	1	0	0	A003	Aging	0.54	4.245015971	2784815781	884861604	1076986823	0.704480505	0.386735392	0.317745113	IMPACT	22	Amp	27	42	0.608695652	5	4	0.444444444	GD	p.R156fs	NA	p.ELREA746del;p.T790M	NA	Early	T790M+	1	Yes	Yes	ImmuneMedium	-0.431415097	PP	-0.532043255	0.437434761	0.19392775	118.6215028	139.8721162	17659074	86.52%	1.234731629	0.422889262	3.370949959	0.211890957	0.91359939	1.546223666	0.860903681	3.030201078	1.424822405	0.92701749	0.315248344	0.53583535	0.863567587	0	0.657224062	0.204637233	-0.208754687	ImmuneCold	Cold	Chinese	No	Female	41	IV	27.1	Death	Chinese	Adenocarcinoma	824	222	223	IV	A003-IM18	Lung	146	129	Late	Lung
A018-IM110	23.17879885	1	p.P191del	2	p.ELREA746del;p.T790M	1	87	98	38	53	41	56	1.544426027	1.107324321	1.368678485	8	1	Del	No	No	0.54	0	0	A018	Aging	0.67	1.867371953	2762382192	726225142	347741150	0.388782658	0.125884518	0.262898141	IMPACT	12	NA	41	12	0.226415094	14	2	0.125	nGD	p.P191del	NA	p.T790M	p.ELREA746del	Early	T790M+	1	Yes	Yes	ImmuneHot	0.081657023	TRU	0.461860853	-0.09843011	-0.487044231	122.5584494	132.1790054	26601118	89.55%	2.091602959	0.585661853	5.00905707	1.642054958	2.103051547	1.757375858	1.217397577	3.665682824	1.579426807	0.6382438	0.47100685	1.038337271	2.381869064	0.576930882	0.993335485	1.838392602	1.53803727	ImmuneHot	Hot	Chinese	No	Male	63	IV	20.7	Death	Chinese	Adenocarcinoma	631	295	454	IV	A018-IM110	Lung	0	160	Late	Lung
A032-IM15	47.82894282	NA	NA	2	p.ELREA746del;p.T790M	2	170	179	76	96	80	100	2.797450916	2.214648642	2.674429224	5	1	Del	No	No	1	0	0	A032	APOBEC	0.55	3.124427103	2790686180	861896704	929683128	0.641985417	0.333137826	0.308847591	IMPACT	19	NA	28	60	0.681818182	6	4	0.4	GD	NA	NA	p.ELREA746del;p.T790M	NA	Early	T790M+	1	Yes	No	NA	NA	NA	NA	NA	NA	107.8387264	107.1729559	NA	NA	NA	NA	NA	NA	NA	NA	NA	NA	NA	NA	NA	NA	NA	NA	NA	NA	NA	NA	NA	Chinese	No	Female	72	IV	41.6	Death	Chinese	Adenocarcinoma	1267	613	631	IV	A032-IM15	Lung	0	34	Late	Lung
A038-IM140	67.89301945	1	p.V216M	1	p.ELREA746del	2	185	199	81	100	87	106	2.914011371	2.36034921	2.910408273	4	1	Del	No	No	1	0	0	A038	AgingS3	0.56	3.910616118	2734478654	1052588203	545507537	0.584424288	0.199492337	0.384931951	IMPACT	18	Amp	45	54	0.545454545	4	4	0.5	GD	p.V216M	NA	p.ELREA746del	NA	NA	T790M-	NA	Yes	Yes	ImmuneCold	-1.015650692	PP	-0.343186811	0.512607091	-0.042596098	116.7672053	106.0153249	25905886	74.37%	1.013525863	0.093177928	3.211877696	0.172673788	0.544716114	0.729059498	0.834817803	3.240523554	0.467874578	0.390606733	0.118156772	0.653039825	0.264946107	0.00496144	0.656952031	-1.084229668	-1.640194137	ImmuneCold	Cold	Malay	Yes	Male	58	IV	38.9	Death	Malay	Adenocarcinoma	1183	848	910	IV	A038-IM140	Lung	97	244	Late	Lung
A040-IM08	55.59814864	1	p.C135Y	1	p.747_751LREAT>S	3	63	69	30	39	35	44	1.136464435	0.874203411	0.991112006	3	2	Del	No	No	1	0	0	A040	Aging	0.27	2.350875617	2744766914	150532710	758756869	0.331281164	0.276437633	0.054843531	IMPACT	10	Amp	20	18	0.473684211	2	3	0.6	GD	p.C135Y	NA	p.747_751LREAT>S	NA	NA	T790M-	NA	Yes	Yes	ImmuneHot	-0.22818776	PI	-0.023026667	0.007829598	0.110294128	103.9231061	104.8809975	20494484	76.73%	2.264182972	1.595669441	5.542564368	2.024669117	1.827336272	1.420759422	1.504308094	4.711582486	1.701936616	1.087293276	0.512204136	0.991541146	2.09062572	0.743597135	1.482691183	1.365859029	1.081555824	ImmuneHot	Hot	Chinese	No	Female	45	IV	49.5	Death	Chinese	Adenocarcinoma	1508	390	394	IV	A040-IM08	Lung	70	84	Late	Lung
A041-IM02	25.67121686	1	p.C275S	2	p.LREATS747del;p.T790M	2	206	216	76	112	78	114	3.263692735	2.214648642	3.240778942	2	2	Del	No	No	0.97	0	0	A041	APOBEC	0.59	2.081223374	2765432488	321155272	604840248	0.334846547	0.218714523	0.116132024	IMPACT	9	Amp	75	30	0.285714286	5	2	0.285714286	nGD	p.C275S	NA	NA	p.LREATS747del;p.T790M	Late	T790M+	0.84	Yes	Yes	ImmuneMedium	-0.39152993	PP	-0.140998325	0.148877369	0.061217491	112.8768092	119.8688173	15947389	88.69%	1.787900553	0.431228364	4.286729926	0.875502525	1.381977709	1.938170043	0.872901224	3.984110697	1.321634342	0.979195553	0.447206851	0.097046991	1.749179737	0.555326266	0.814670072	0.032615008	0.007918735	ImmuneCold	Cold	Chinese	No	Female	69	IV	69.3	Death	Chinese	Adenocarcinoma	2108	443	651	IV	A041-IM02	Lung	335	966	Late	Lung
A042-IM03	70.82618829	1	p.R249G	2	p.747_753LREATSP>S;p.T790M	1	122	129	53	75	54	76	2.185508528	1.544426027	1.919296266	3	1	Del	No	No	1	0	0	A042	Aging	0.51	4.382212186	2743391221	545989030	1029486553	0.574280318	0.37526057	0.199019748	IMPACT	18	NA	34	31	0.476923077	4	1	0.2	GD	p.R249G	NA	p.747_753LREATSP>S	p.T790M	Late	T790M+	1	Yes	No	NA	NA	NA	NA	NA	NA	130.0129184	107.1219464	NA	NA	NA	NA	NA	NA	NA	NA	NA	NA	NA	NA	NA	NA	NA	NA	NA	NA	NA	NA	NA	Chinese	No	Female	59	IV	38	Death	Chinese	Adenocarcinoma	1156	980	1047	IV	A042-IM03	Lung	0	37	Late	Lung
A044-IM12	45.47313526	1	p.H179R	2	p.747_753LREATSP>S;p.T790M	2	118	125	51	65	54	68	1.894107391	1.486145799	1.85636852	3	2	Del	No	No	1	0	0	A044	AgingS16	0.24	3.017498305	2737450248	1049896211	736016673	0.652400125	0.268869425	0.3835307	IMPACT	11	Del	22	41	0.650793651	5	1	0.166666667	GD	p.H179R	NA	p.747_753LREATSP>S;p.T790M	NA	Early	T790M+	1	Yes	Yes	ImmuneMedium	-0.327519801	PP	0.060040422	0.120951838	-0.177997125	102.904394	114.528992	17950513	89.96%	2.229095977	0.963812995	5.548483234	1.531725908	2.134179168	2.047126761	0.994921225	4.287564634	1.226432636	1.00956227	0.307577299	0.818690289	2.293807319	0.916478249	0.571115124	-0.698289586	0.327101809	ImmuneHot	Hot	Chinese	No	Female	58	IV	44.5	Death	Chinese	Adenocarcinoma	1355	695	792	IV	A044-IM12	Lung	761	446	Late	Lung
A047-IM20	60.29327245	1	p.A161D	2	p.ELREA746del;p.T790M	3	149	162	51	67	57	73	1.952387619	1.486145799	2.344058555	6	2	Del	No	No	1	0	0	A047	AgingS16	0.69	2.447236548	2753749780	42346532	1092055193	0.411948004	0.396570233	0.01537777	IMPACT	16	NA	24	47	0.661971831	5	2	0.285714286	GD	p.A161D	NA	NA	p.ELREA746del;p.T790M	Late	T790M+	0.9	Yes	Yes	ImmuneMedium	-0.575036366	PI	-0.622603912	0.395050044	0.425185066	120.0238967	114.0322712	18613492	86.77%	1.39158829	0	3.479895283	1.068514095	1.362245893	0.228946888	0.812021047	3.726227156	0.282946497	1.202045683	0.346601162	0.348397	0.996039395	0.503803694	0.520251725	0.120925463	-0.856924592	ImmuneCold	Cold	Chinese	No	Male	55	IV	11.2	Death	Chinese	"Carcinoma, NOS"	341	139	156	IV	A047-IM20	Lymph node	58	128	Late	Lymph node
A048-IM22	56.78363986	1	p.G266*	2	p.SPKANKEI752del;p.M1007T	1	146	152	61	80	64	83	2.331209097	1.777546936	2.296862745	3	1	Del	No	Yes	1	0	0;1	A048	AgingS16	0.17	5.073483513	2662244781	933288969	882679179	0.68211915	0.331554478	0.350564672	IMPACT	24	Amp	50	28	0.358974359	4	2	0.333333333	GD	p.G266*	NA	p.SPKANKEI752del;p.M1007T	NA	NA	T790M-	NA	No	Yes	ImmuneMedium	-0.385261111	PI	-0.096557086	0.030744218	0.169403723	127.4464681	113.6145879	14824178	90.90%	1.575699033	0.192972161	4.968223207	0.561302125	1.048761206	1.172215207	0.734907076	3.829475211	2.996710416	0.816852045	0.384013069	0.15326595	1.235628194	0.246766002	0.588928225	-0.695047377	0.254653745	ImmuneCold	Cold	Chinese	No	Female	55	IV	54.6	Death	Chinese	NSCLC NOS	1661	559	587	IV	A048-IM22	Lung	182	618	Late	Lung
A055-IM26	67.00226774	1	p.H168R	2	p.ELREA746del;p.T790M	2	221	233	93	117	102	126	3.409393304	2.710030575	3.476757991	4	2	Del	No	No	1	0	0	A055	AgingS3	0.67	4.183889993	2748859040	1011564749	919045869	0.702331618	0.334337213	0.367994406	IMPACT	22	Amp	24	86	0.781818182	3	3	0.5	GD	p.H168R	NA	p.ELREA746del	p.T790M	Late	T790M+	1	Yes	Yes	ImmuneMedium	-0.352783306	PP	-0.384407687	0.428007817	0.044901356	111.9093532	125.1849366	14131627	88.69%	1.316586563	0.46062154	3.951261798	0.729654718	0.539458722	1.367002483	0.541442878	2.983016252	0.312258367	0.593650867	0.144178354	0	1.189643993	0.403619865	0.590115279	0.629517908	-0.134935844	ImmuneCold	Cold	Chinese	No	Female	70	IV	31.2	Death	Chinese	Adenocarcinoma	951	168	172	IV	A055-IM26	Lung	427	105	Late	Lung
A056-IM27	49.72381989	1	p.S241F	NA	NA	6	399	409	190	234	193	237	6.818786608	5.536621605	6.277042707	6	3	NA	NA	NA	NA	NA	NA	A056	APOBEC	0.24	2.943944243	2770747249	681074847	458912641	0.411436838	0.165627753	0.245809085	IMPACT	13	NA	89	139	0.609649123	6	6	0.5	GD	p.S241F	NA	NA	NA	NA	T790M-	NA	Yes	Yes	ImmuneHot	0.152143305	PI	-0.401828579	0.030503468	0.607759193	121.2892079	132.4958239	19718985	82.08%	3.021741051	2.778008406	5.985238912	2.089534265	2.716930988	3.787645504	2.07518972	5.014386664	0.591192657	1.224417541	0.81728802	0.983842671	3.184565863	1.524889526	1.99617219	3.369766135	2.111629237	ImmuneHot	Hot	Chinese	No	Female	70	IV	10.9	Death	Chinese	Adenocarcinoma	332	168	173	IV	A056-IM27	Lymph node	152	20	Late	Lymph node
A057-IM28	32.29725064	1	p.I195F	1	p.739_740insKFPSLS	1	154	164	58	84	63	89	2.447769552	1.690126595	2.422718238	5	1	Ins	No	No	1	0	0	A057	Aging	0.52	2.263686033	2765350455	336464265	805669658	0.413015978	0.291344504	0.121671474	IMPACT	14	NA	48	39	0.448275862	3	6	0.666666667	GD	p.I195F	NA	p.739_740insKFPSLS	NA	NA	T790M-	NA	Yes	No	NA	NA	NA	NA	NA	NA	116.7415725	105.8237368	NA	NA	NA	NA	NA	NA	NA	NA	NA	NA	NA	NA	NA	NA	NA	NA	NA	NA	NA	NA	NA	Chinese	No	Female	60	IV	67	Death	Chinese	Adenocarcinoma	2008	943	949	IA	A057-IM28	Pleural	315	439	Late	Pleural
A058-IM29	33.60864893	1	p.E171*	NA	NA	10	847	873	369	486	385	502	14.16209526	10.75270196	13.32495031	14	6	NA	NA	NA	NA	NA	NA	A058	Smoking	0.25	2.946349953	2790520705	945345828	926718943	0.670865752	0.332095347	0.338770405	IMPACT	21	NA	294	180	0.379746835	13	6	0.315789474	GD	p.E171*	NA	NA	NA	NA	T790M-	NA	Yes	Yes	ImmuneHot	-0.185444677	PI	-0.469371406	0.146903769	0.549527931	115.8850375	105.4780715	13839899	80.91%	2.143013171	0.550338867	4.432777722	1.712506654	2.425662514	2.770677448	1.095697776	4.007197085	0.810332657	1.139693938	0.53163308	0.299240501	1.775537826	0.535428433	0.50321512	2.262257874	0.692363976	ImmuneHot	Hot	Chinese	Yes	Male	56	IV	17.7	Death	Chinese	Adenocarcinoma	538	105	217	IV	A058-IM29	Lung	0	71	Late	Lung
A060-IM30	75.4261057	1	p.P80fs	2	p.ELREA746del;p.T790M	2	94	104	42	53	47	58	1.544426027	1.223884776	1.478802041	4	2	Del	No	No	1	0	0	A060	Aging	0.57	2.436053807	2767467346	114519302	1203503264	0.476255869	0.434875326	0.041380543	IMPACT	15	Amp	22	31	0.58490566	5	0	0	GD	p.P80fs	NA	p.ELREA746del;p.T790M	NA	Early	T790M+	1	Yes	No	NA	NA	NA	NA	NA	NA	104.5161285	95.79152721	NA	NA	NA	NA	NA	NA	NA	NA	NA	NA	NA	NA	NA	NA	NA	NA	NA	NA	NA	NA	NA	Chinese	No	Female	49	IV	19.4	Death	Chinese	Adenocarcinoma	591	309	406	IV	A060-IM30	Lung	224	244	Late	Lung
A079-IM01	49.61134308	2	p.PHHERC177del;p.W91*	2	p.LREATS747del;p.T790M	4	264	291	107	147	121	161	4.283596715	3.117992167	4.153231265	5	4	Del	No	No	1	0	0	A079	Aging	0.56	4.427165653	2759618457	621500950	1145290442	0.640230314	0.415017677	0.225212637	IMPACT	20	NA	59	98	0.624203822	7	3	0.3	GD	p.W91*	p.PHHERC177del	p.LREATS747del;p.T790M	NA	Early	T790M+	1	Yes	Yes	ImmuneMedium	-0.521669769	PP	-0.059432737	0.277100339	-0.284573444	111.1953919	114.3336412	14805995	82.56%	1.174772851	0.614942925	3.286260264	0.336694449	1.198094653	0.747586965	0.803579107	2.632130774	0.793812928	0.583788899	0.17128255	0.304347826	1.081422213	0.315904679	0.697327407	0.239590483	-0.446182562	ImmuneCold	Cold	Chinese	No	Male	68	IV	101.3	Death	Chinese	Adenocarcinoma	3085	286	390	IV	A079-IM01	Lung	461	1690	Late	Lung
A083-IM04	55.90349648	1	p.P89fs	1	p.L858R	1	144	153	51	73	54	76	2.127228301	1.486145799	2.265398872	2	1	No	Yes	No	0	1	0	A083	Aging	0.51	3.07823451	2750780355	514788229	707388779	0.444301925	0.25715931	0.187142615	IMPACT	12	NA	33	39	0.541666667	2	1	0.333333333	GD	p.P89fs	NA	p.L858R	NA	NA	T790M-	NA	Yes	No	NA	NA	NA	NA	NA	NA	116.65282	107.9779654	NA	NA	NA	NA	NA	NA	NA	NA	NA	NA	NA	NA	NA	NA	NA	NA	NA	NA	NA	NA	NA	Chinese	No	Male	66	IV	46.7	Death	Chinese	Adenocarcinoma	1423	1050	1103	IV	A083-IM04	Right chest wall	27	36	Late	Right chest wall
A085-IM07	44.32765932	NA	NA	2	p.ELR746del;p.T790M	1	75	76	29	40	30	41	1.165604548	0.845063298	1.179895246	NA	NA	Del	No	No	1	0	0	A085	AgingS16	0.2	1.964286116	2781143462	531913598	327824909	0.309131305	0.117874145	0.191257159	IMPACT	7	NA	35	5	0.125	2	1	0.333333333	nGD	NA	NA	p.ELR746del	p.T790M	Late	T790M+	0.34	Yes	Yes	ImmuneMedium	-0.402087028	PP	-0.094994588	0.16761264	0.058427981	142.2686979	107.7780127	14502476	73.63%	1.669706766	0.791628978	4.626159794	1.345296708	1.356344598	1.283136073	0.555173935	3.73852768	2.250832917	1.159365739	0.533581975	0.216695656	1.216087224	0.373052909	1.254846915	-1.198825353	0.021527158	ImmuneCold	Hot	Chinese	No	Male	65	IV	26.8	Death	Chinese	Adenocarcinoma	815	301	321	IV	A085-IM07	Lung	0	17	Late	Lung
A087-IM11	45.54632889	1	p.R273C	2	p.T790M;p.L858R	2	156	161	67	90	68	91	2.622610234	1.952387619	2.454182111	2	1	No	Yes	No	0	1	0	A087	Aging	0.33	3.668920104	2757069413	1165741227	386467900	0.5629924	0.140173439	0.422818962	IMPACT	18	NA	28	60	0.681818182	3	2	0.4	GD	p.R273C	NA	p.T790M;p.L858R	NA	Early	T790M+	1	Yes	No	NA	NA	NA	NA	NA	NA	99.06267124	103.3953611	NA	NA	NA	NA	NA	NA	NA	NA	NA	NA	NA	NA	NA	NA	NA	NA	NA	NA	NA	NA	NA	Chinese	No	Male	60	IV	31.3	Death	Chinese	Adenocarcinoma	953	280	377	IV	A087-IM11	Lung	353	485	Late	Lung
A089-IM14	37.75257724	1	p.Y234H	1	p.L858R	4	327	330	106	148	108	150	4.312736829	3.088852053	5.144343271	6	3	No	Yes	No	0	1	0	A089	APOBEC	0.28	2.595888748	2753279608	261441052	1120947754	0.502088056	0.407131826	0.09495623	IMPACT	14	Amp	72	61	0.458646617	10	2	0.166666667	GD	p.Y234H	NA	p.L858R	NA	NA	T790M-	NA	Yes	Yes	ImmuneHot	0.244398467	PI	-0.49157345	0.110117541	0.644009621	118.5689794	120.4838245	14908540	82.56%	3.115666739	2.734103082	6.461920157	2.853458841	3.025464405	2.513190698	2.073404229	4.649723762	2.166954971	1.294080096	0.696851956	1.222103607	3.528348987	2.23863762	1.159020346	2.068730193	2.472752164	ImmuneHot	Hot	Chinese	No	Female	62	IV	18.1	Death	Chinese	Adenocarcinoma	551	49	55	IV	A089-IM14	Lung	288	204	Late	Lung
A092-IM31	47.76952284	1	p.E294*	1	p.L858R	3	471	488	188	247	194	253	7.197608086	5.478341377	7.409742143	5	1	No	Yes	No	0	1	0	A092	Smoking	0.83	2.639115275	2739080390	127163552	1184433927	0.478845924	0.432420287	0.046425637	IMPACT	12	Amp	92	138	0.6	3	3	0.5	GD	p.E294*	NA	p.L858R	NA	NA	T790M-	NA	Yes	Yes	ImmuneMedium	-0.238954495	PP	-0.5105528	0.402283332	0.308233839	84.75541747	89.84144669	17101123	88.30%	1.938125882	0.721713601	5.373958106	1.921259263	1.684624173	1.238190486	0.923854975	3.906073934	0.545901541	0.596702281	0.227656389	0.531024927	1.812874503	0.354641108	0.430275293	1.735206442	0.926164724	ImmuneCold	Hot	Chinese	Yes	Male	57	IV	25.4	Death	Chinese	Small cell carcinoma/Combined SCLC	774	140	155	IV	A092-IM31	Lung	114	13	Late	Lung
A093-IM33	28.43867941	NA	NA	2	p.ELREA746del;p.T790M	1	66	72	33	39	36	42	1.136464435	0.961623752	1.038307816	1	NA	Del	No	No	1	0	0	A093	Aging	0.34	2.121975949	2791238456	289699255	557276811	0.303440956	0.199652169	0.103788788	IMPACT	12	NA	23	13	0.361111111	1	2	0.666666667	nGD	NA	NA	p.ELREA746del	p.T790M	Late	T790M+	1	Yes	Yes	ImmuneHot	-0.318896697	TRU	0.112525375	0.085020546	-0.190094122	73.46964565	103.7615567	17064755	80.23%	1.790870771	0.388442522	4.555182206	0.84901665	1.136642503	2.779211687	0.987268527	4.056743078	0.68494913	0.891655116	0.498059091	0.250388093	1.159405578	0.09630762	0.189119001	-0.61682297	0.398778549	ImmuneCold	Cold	Chinese	No	Female	62	IV	20.3	Death	Chinese	"Carcinoma, NOS"	619	176	189	IV	A093-IM33	Liver	344	293	Late	Liver
A096-IM34	45.41607113	NA	NA	2	p.ELREA746del;p.T790M	1	183	185	76	110	78	112	3.205412508	2.214648642	2.8789444	4	1	Del	No	No	0.67	0	0	A096	APOBEC	0.37	2.173445188	2734072134	255903155	643972765	0.329133935	0.235536128	0.093597807	IMPACT	7	NA	57	48	0.457142857	3	2	0.4	nGD	NA	NA	p.ELREA746del	p.T790M	Late	T790M+	0.35	Yes	Yes	ImmuneMedium	-0.405905922	TRU	0.272282339	-0.340137754	0.011399788	116.9327146	101.7626934	15915769	66.38%	2.287058097	0.289049806	6.02984603	0.824294238	1.874995415	2.573094628	1.313023337	5.373775777	3.808640517	1.153337434	0.351809868	0.121077007	1.720589066	0.522094515	1.271654517	0.250106286	0.198788849	ImmuneHot	Hot	Chinese	No	Female	53	IV	NA	Alive	Chinese	Adenocarcinoma	4546	2305	2330	IV	A096-IM34	Lung	308	419	Late	Lung
A097-IM35	42.27092447	1	p.W146*	1	p.L858R	1	104	106	47	62	47	62	1.80668705	1.369585344	1.636121407	1	1	No	Yes	No	0	1	0	A097	AgingS16	0.21	2.791571335	2759683021	1234453203	414082955	0.597364315	0.150047289	0.447317026	IMPACT	14	NA	23	37	0.616666667	2	2	0.5	GD	p.W146*	NA	p.L858R	NA	NA	T790M-	NA	Yes	Yes	ImmuneHot	-0.292487374	PI	-0.049574124	-0.09443565	0.276548782	110.1533679	107.3856721	21081847	65.35%	1.958108891	0.181833029	4.359062808	0.903990636	1.564003318	3.331877302	0.876049905	4.638389682	2.741767994	1.403397374	0.446566048	0.31540436	1.150362523	0.352677795	0.966008445	0.681482229	0.342548666	ImmuneHot	Hot	Chinese	No	Female	69	IV	22.6	Death	Chinese	Adenocarcinoma	687	221	279	IV	A097-IM35	left posterior back lump	101	216	Late	left posterior back lump
A138-IM146	53.65538127	1	p.S215G	2	p.ELREA746del;p.T790M	1	84	88	41	51	44	54	1.486145799	1.194744662	1.321482675	3	1	Del	No	No	1	0	0	A138	AgingS3	0.3	3.606156016	2671586366	469713680	1141152227	0.602962318	0.427144053	0.175818265	IMPACT	19	NA	19	25	0.568181818	3	0	0	GD	p.S215G	NA	p.ELREA746del;p.T790M	NA	Early	T790M+	1	No	No	NA	NA	NA	NA	NA	NA	90.1843849	89.9859823	NA	NA	NA	NA	NA	NA	NA	NA	NA	NA	NA	NA	NA	NA	NA	NA	NA	NA	NA	NA	NA	Chinese	No	Female	53	IV	38.9	Death	Chinese	Adenocarcinoma	1166	559	668	IIIA	A138-IM146	"Metastatic site, other"	0	20	Late	"Metastatic site, other"
A151-IM116	67.74006416	NA	NA	2	p.T790M;p.L858R	0	56	60	25	36	26	37	1.049044094	0.728502843	0.88098845	NA	NA	No	Yes	No	0	1	0	A151	AgingS16	0.3	3.510009148	2738129506	337417429	1303476972	0.599275672	0.476046502	0.123229171	IMPACT	19	NA	18	17	0.485714286	2	0	0	GD	NA	NA	p.T790M;p.L858R	NA	Early	T790M+	1	Yes	Yes	ImmuneMedium	-0.343472227	TRU	0.434593691	-0.080735295	-0.47094478	77.88839506	84.71219712	26945032	82.77%	1.340601732	0.219229519	3.756962959	0.475266792	1.316273275	1.223041918	0.722710095	3.217668266	1.85173422	1.061555837	0.218575009	0.108335575	0.81992231	0.314994969	0.707547009	-0.2795959	0.052540283	ImmuneCold	Cold	Chinese	No	Male	47	IV	33.5	Death	Chinese	Adenocarcinoma	1019	57	53	IV	A151-IM116	Lung	563	411	Late	Lung
A152-T-S27	44.8234458	NA	NA	2	p.T790M;p.L858R	2	359	367	137	197	140	200	5.740602401	3.992195578	5.647765243	5	2	No	Yes	No	0	1	0	A152	APOBEC	0.25	3.151860368	2654925127	994557688	629259736	0.611624564	0.237016001	0.374608563	IMPACT	20	NA	35	158	0.81865285	2	7	0.777777778	GD	NA	NA	p.T790M;p.L858R	NA	Early	T790M+	1	No	Yes	ImmuneMedium	-0.286438339	PI	-0.073141444	-0.269143303	0.471126809	129.0908088	157.0587628	18620697	80.22%	1.981990673	1.388932593	5.399718477	0.447056982	1.113401051	2.195036104	1.059311841	5.063162588	2.218384129	1.019333077	0.726848242	0.107801543	1.643979481	0.189401294	0.95621959	-0.396333421	0.55082018	ImmuneHot	Hot	Chinese	No	Female	59	IV	NA	Alive	Chinese	Adenocarcinoma	2675	826	840	IV	A152-T-S27	Lung	444	427	Late	Lung
A180-IM126	43.8032218	NA	NA	3	p.E746fs;p.LREATS747fs;p.T790M	1	111	117	54	76	57	79	2.214648642	1.57356614	1.746244964	3	1	Del	No	No	1	0	0;0	A180	APOBEC	0.42	2.134168695	2765749881	525078446	731993457	0.45451395	0.264663649	0.1898503	IMPACT	14	NA	46	30	0.394736842	4	2	0.333333333	nGD	NA	NA	p.E746fs;p.LREATS747fs	p.T790M	Late	T790M+	1	Yes	Yes	ImmuneHot	-0.309404859	TRU	0.248779821	-0.22556548	-0.078670103	132.7757596	115.8321948	25688315	80.60%	1.787005069	0.442821014	3.828936239	1.45762552	1.61076015	2.352232208	1.075428228	3.760952973	2.144398504	0.823974413	0.459678887	0.90549585	1.366008176	0.171423242	0.884018039	-0.013941075	0.411124542	ImmuneCold	Hot	Vietnamese	No	Female	45	IV	NA	Lost to follow-up	Vietnamese	Adenocarcinoma	2089	1027	1015	IV	A180-IM126	Lung	164	431	Late	Lung
A244-IM69	36.39085971	1	p.T125T	2	p.TSPKANKE751del;p.T790M	3	186	205	64	87	72	95	2.535189893	1.864967277	2.926140209	2	2	Del	No	No	1	0	0	A244	AgingS3	0.36	2.718934169	2752672894	1088764869	525588828	0.586467684	0.190937626	0.395530058	IMPACT	14	NA	33	58	0.637362637	6	4	0.4	GD	p.T125T	NA	p.TSPKANKE751del	p.T790M	Late	T790M+	0.6	Yes	No	NA	NA	NA	NA	NA	NA	122.8741934	110.9592839	NA	NA	NA	NA	NA	NA	NA	NA	NA	NA	NA	NA	NA	NA	NA	NA	NA	NA	NA	NA	NA	Chinese	No	Male	75	IV	38.9	Death	Chinese	Adenocarcinoma	1185	420	462	IV	A244-IM69	Lymph node	413	14	Late	Lymph node
A256-IM88	49.94043821	1	p.T125T	1	p.L858R	5	230	235	98	129	100	131	3.759074669	2.855731144	3.61834542	6	3	No	Yes	No	0	1	0	A256	Smoking	0.17	4.144486533	2668155883	1029064172	907795328	0.72591692	0.340233243	0.385683677	IMPACT	25	NA	100	27	0.212598425	10	0	0	GD	p.T125T	NA	p.L858R	NA	NA	T790M-	NA	No	Yes	ImmuneHot	-0.036530651	PI	-0.171219269	-0.272891523	0.619028761	119.6783528	128.1710769	25622297	81.38%	2.6226013	1.65975223	5.769076609	1.821216859	2.576415428	2.513901266	1.657542	5.218016037	2.794597875	1.071826987	0.742221972	0.800840325	2.408052011	0.896969514	1.443060385	1.76562161	1.425925439	ImmuneHot	Hot	Chinese	Yes	Male	66	IV	49.8	Death	Chinese	Adenocarcinoma	1515	102	147	IV	A256-IM88	Lung	329	785	Late	Lung
A317-IM152	57.02341029	1	p.S241Y	2	p.T790M;p.L858R	4	305	317	123	170	127	174	4.953819331	3.584233986	4.798240666	5	2	No	Yes	No	0	1	0	A317	AgingS16	0.36	4.683228721	2659640903	666124955	1146677993	0.681596882	0.431140156	0.250456727	IMPACT	24	NA	70	95	0.575757576	5	6	0.545454545	GD	p.S241Y	NA	p.L858R	p.T790M	Late	T790M+	1	No	No	NA	NA	NA	NA	NA	NA	108.6159094	69.50898386	NA	NA	NA	NA	NA	NA	NA	NA	NA	NA	NA	NA	NA	NA	NA	NA	NA	NA	NA	NA	NA	Chinese	Yes	Male	72	IV	21.4	Death	Chinese	Adenocarcinoma	652	122	128	IIIA	A317-IM152	Lung	7	116	Late	Lung
A436-IM66	67.04493485	1	p.C135F	1	p.L858R	5	245	257	92	127	95	130	3.700794441	2.680890461	3.854324469	5	3	No	Yes	No	0	1	0	A436	AgingS3	0.51	2.448527588	2764705564	133854623	1133814960	0.458518838	0.410103331	0.048415508	IMPACT	14	Amp	25	93	0.788135593	4	2	0.333333333	GD	p.C135F	NA	p.L858R	NA	NA	T790M-	NA	Yes	No	NA	NA	NA	NA	NA	NA	131.0442732	119.6024766	NA	NA	NA	NA	NA	NA	NA	NA	NA	NA	NA	NA	NA	NA	NA	NA	NA	NA	NA	NA	NA	Chinese	No	Female	65	IV	36.2	Death	Chinese	Adenocarcinoma	1103	278	267	IV	A436-IM66	Lung	497	688	Late	Lung
A438-IM70	40.73079129	NA	NA	2	p.T790M;p.L858R	2	110	119	52	62	58	68	1.80668705	1.515285913	1.730513027	3	1	No	Yes	No	0	1	0	A438	Aging	0.78	2.546530948	2733096861	1424726609	280761799	0.62401316	0.102726619	0.521286541	IMPACT	20	Del	16	48	0.75	1	3	0.75	GD	NA	NA	p.L858R	p.T790M	Late	T790M+	0.98	Yes	Yes	ImmuneCold	-0.726166833	TRU	0.442743665	-0.120339954	-0.493770106	112.211647	99.71554091	24011685	82.18%	1.423719922	0.018524551	3.712116105	0.629643581	0.64713049	1.462573866	0.864663162	4.200794858	0.114423193	0.724181308	0.403919113	0.099921332	0.725917162	0.166720961	1.039983201	-0.601184933	-1.713295463	ImmuneCold	Cold	Chinese	No	Male	56	IV	24.5	Death	Chinese	Adenocarcinoma	746	305	349	IV	A438-IM70	Bone	0	2	Late	Bone
A440-IM73	54.89131015	1	p.R248W	1	p.L858R	1	202	204	85	112	86	113	3.263692735	2.476909665	3.177851195	2	1	No	Yes	No	0	1	0	A440	AgingS3	0.29	2.669535939	2729900705	1014231872	480950768	0.54770587	0.17617885	0.371527019	IMPACT	13	Amp	30	75	0.714285714	4	1	0.2	GD	p.R248W	NA	p.L858R	NA	NA	T790M-	NA	Yes	Yes	ImmuneHot	-0.213027412	PI	-0.16257325	-0.200899375	0.548828866	108.1167839	111.6120812	28741010	86.69%	2.297032183	1.002947572	5.29416501	0.96338988	1.459618525	2.676172705	1.093682724	5.765774535	3.244859404	1.415471665	0.498584576	0.217992535	1.427582867	1.494318825	2.021360062	-0.06561454	0.826860329	ImmuneHot	Hot	Chinese	Yes	Male	45	IV	34.8	Death	Chinese	Adenocarcinoma	1058	219	251	IV	A440-IM73	Lung	469	455	Late	Lung
A441-IM75	55.01777658	1	p.H179L	3	p.A237S;p.A237V;p.L858R	1	138	147	72	95	76	99	2.768310802	2.098088187	2.171007252	4	1	No	Yes	Yes	0	1	1;1;0	A441	AgingS3	0.34	3.24811984	2780941967	458237281	940927508	0.503126209	0.338348487	0.164777722	IMPACT	14	NA	60	36	0.375	5	2	0.285714286	GD	p.H179L	NA	p.A237S;p.A237V;p.L858R	NA	NA	T790M-	NA	Yes	Yes	ImmuneCold	-0.786885201	PP	-0.365810357	0.322434185	0.201589739	112.2282316	110.0781939	25990807	65.17%	1.138639486	0.18447159	3.073499169	0.444161224	0.748046435	0.421064614	1.005380881	3.687834158	2.252288108	1.023501857	0.137644259	0.275442043	0.453280344	0.276844293	0.774263168	-0.768043137	-1.550392989	ImmuneCold	Cold	Chinese	No	Male	63	IV	49.9	Death	Chinese	Adenocarcinoma	1520	379	442	IV	A441-IM75	Lung	365	22	Late	Lung
A442-IM76	50.78627508	NA	NA	2	p.ELRE746del;p.T790M	1	123	126	60	73	61	74	2.127228301	1.748406823	1.935028203	4	1	Del	No	No	1	0	0	A442	Aging	0.16	3.839104792	2669865262	1338527522	626706491	0.736079847	0.234733378	0.501346469	IMPACT	23	Del	21	41	0.661290323	3	2	0.4	GD	NA	NA	p.ELRE746del	p.T790M	Late	T790M+	1	No	Yes	ImmuneHot	-0.129920817	TRU	0.700688275	-0.417700046	-0.392198198	129.7853758	112.4895955	25826961	70.24%	2.586592052	2.448403655	5.960918529	1.498577623	2.622355638	2.256689711	1.391881231	5.148847408	2.039482879	1.202734506	0.678153681	0.793143003	2.97422329	0.747681355	2.114985796	-0.475754802	1.205118723	ImmuneHot	Hot	Chinese	No	Female	65	IV	35.2	Death	Chinese	Adenocarcinoma	1071	612	1022	IV	A442-IM76	Lung	0	48	Late	Lung
A443-IM77	55.5452718	1	p.E271K	2	p.ELREA746del;p.T790M	1	168	184	70	95	77	102	2.768310802	2.03980796	2.64296535	1	1	Del	No	No	1	0	0	A443	AgingS3	0.54	4.016257938	2747983303	973939777	789172853	0.641602381	0.28718255	0.354419831	IMPACT	18	NA	35	64	0.646464646	2	2	0.5	GD	p.E271K	NA	p.ELREA746del	p.T790M	Late	T790M+	1	Yes	Yes	ImmuneCold	-0.681924855	PP	-0.034983507	0.19503971	-0.188191177	155.2771935	163.4534319	27643365	76.59%	1.019928309	0.421690232	2.769100525	0.31187366	0.197507097	1.127166782	0.665427967	3.519216238	0.100956714	1.061643213	0.055827278	0.177619466	0.352341032	0.180894198	0.68993773	-1.057773036	-1.4674463	ImmuneCold	Cold	Chinese	No	Male	45	IV	39.2	Death	Chinese	Adenocarcinoma	1192	349	432	IV	A443-IM77	Liver	182	262	Late	Liver
A448-IM85	61.0390893	NA	NA	2	p.ELREA746del;p.T790M	1	101	108	40	47	43	50	1.369585344	1.165604548	1.588925598	3	1	Del	No	No	0.75	0	0	A448	AgingS3	0.4	3.428598709	2790485079	426092427	1167165962	0.570961085	0.418266333	0.152694752	IMPACT	18	Amp	19	24	0.558139535	4	2	0.333333333	GD	NA	NA	NA	p.ELREA746del;p.T790M	Late	T790M+	1	Yes	No	NA	NA	NA	NA	NA	NA	115.8877402	109.6395603	NA	NA	NA	NA	NA	NA	NA	NA	NA	NA	NA	NA	NA	NA	NA	NA	NA	NA	NA	NA	NA	Chinese	No	Female	62	IV	57	Death	Chinese	Adenocarcinoma	1736	1512	1496	IV	A448-IM85	Lung	0	7	Late	Lung
A449-IM86	74.57951587	1	p.AKSVTCT119fs	2	p.T790M;p.L858R	3	296	303	111	148	113	150	4.312736829	3.234552622	4.656653237	5	1	No	Yes	No	0	1	0	A449	AgingS3	0.71	3.083813365	2731832135	422370321	567359093	0.362295106	0.207684464	0.154610642	IMPACT	9	NA	13	131	0.909722222	1	7	0.875	GD	NA	p.AKSVTCT119fs	p.L858R	p.T790M	Late	T790M+	0.46	Yes	Yes	ImmuneCold	-0.7400212	PP	-0.059029885	0.323024058	-0.326089859	118.1448761	116.0137639	21955445	60.57%	1.331618073	0.362387423	3.118527126	0.975136555	1.194578222	0.593297814	0.709894943	3.284693809	0.285586316	0.822880329	0.238098216	0.225660163	1.258808534	0.611527434	1.200930012	-0.845850795	-0.829981952	ImmuneCold	Cold	Chinese	No	Female	55	IV	28.8	Death	Chinese	Adenocarcinoma	878	521	244	IV	A449-IM86	Lung	364	26	Late	Lung
A450-IM91	40.93386421	NA	NA	1	p.ELREA746del	1	405	417	151	214	158	221	6.235984334	4.40015717	6.371434327	4	NA	Del	No	No	1	0	0	A450	APOBEC	0.68	3.248740332	2758826155	809024371	1030553546	0.666797331	0.373547838	0.293249493	IMPACT	16	Amp	36	170	0.825242718	4	5	0.555555556	GD	NA	NA	p.ELREA746del	NA	NA	T790M-	NA	Yes	Yes	ImmuneCold	-0.73493417	PP	-0.435363914	0.4616296	0.144106672	80.27143629	83.01578992	26422556	87.08%	1.042225105	0.497574523	2.639359109	0.30194293	0.755963218	0.446626975	0.658504444	2.898679973	0.426630275	1.251212752	0.264519193	0.298713271	1.050302387	0.364127712	0.513597629	-0.261805753	-1.77247114	ImmuneCold	Cold	Chinese	No	Male	58	IV	39.7	Death	Chinese	Adenocarcinoma	1208	613	727	IV	A450-IM91	Lung	279	396	Late	Lung
A451-IM92	34.27309091	NA	NA	2	p.ELREA746del;p.T790M	1	226	233	95	124	101	130	3.6133741	2.768310802	3.555417674	3	1	Del	No	No	0.5	0	0	A451	APOBEC	0.52	2.225645119	2761806075	235577097	484909141	0.260875028	0.175576825	0.085298204	IMPACT	8	NA	69	47	0.405172414	2	2	0.5	nGD	NA	NA	NA	p.ELREA746del;p.T790M	Late	T790M+	0.44	Yes	Yes	ImmuneMedium	-0.509659041	PP	-0.104157561	0.336332201	-0.282888056	83.87560684	84.42128509	26300414	83.65%	1.261652716	0.328441125	3.092908637	0.48367208	0.554348354	1.645238962	0.817537948	3.725294719	1.279541013	1.076849103	0.105373181	0	0.8505225	0.079978067	0.421492726	-1.003458353	-0.61825582	ImmuneCold	Cold	Chinese	No	Female	65	IV	41.6	Death	Chinese	Adenocarcinoma	1265	119	125	IV	A451-IM92	Lung	147	163	Late	Lung
A452-IM93	41.18333333	NA	NA	3	p.E709G;p.T790M;p.L858R	0	161	167	74	101	76	103	2.943151485	2.156368414	2.532841794	3	NA	No	Yes	Yes	0	1	1;0	A452	AgingS3	0.43	3.818716901	2736496917	1088127588	317618544	0.513702801	0.116067569	0.397635233	IMPACT	15	NA	33	62	0.652631579	4	2	0.333333333	GD	NA	NA	p.E709G;p.T790M;p.L858R	NA	Early	T790M+	1	Yes	Yes	ImmuneMedium	-0.475680981	TRU	0.56718946	-0.270184828	-0.467720022	134.3632123	122.4373868	26384356	86.05%	1.702939964	0.919648265	4.217813857	1.128261963	1.559034331	1.751257711	1.078714775	3.125657151	3.339642784	0.555120111	0.483050112	0.436330559	1.565635745	0.41703403	1.249813586	-0.566448435	-0.16954493	ImmuneCold	Cold	Chinese	No	Female	49	IV	118.2	Death	Chinese	Adenocarcinoma	2378	1610	1620	IB	A452-IM93	Lung	169	204	Late	Lung
A453-IM95	46.21536684	NA	NA	3	p.747_753LREATSP>S;p.A755D;p.T790M	0	84	94	32	39	36	43	1.136464435	0.932483639	1.321482675	1	NA	Del	No	Yes	1	0	0;1	A453	Aging	0.45	3.260463433	2785363475	530635847	810992248	0.481670743	0.291162089	0.190508654	IMPACT	15	NA	14	29	0.674418605	1	2	0.666666667	GD	NA	NA	p.A755D	p.747_753LREATSP>S;p.T790M	Late	T790M+	0.89	Yes	Yes	ImmuneHot	-0.411874436	TRU	0.284127586	-0.029850833	-0.369100899	107.8015316	121.981625	25481530	87.83%	2.227086193	0.591183146	4.845854463	2.609019679	2.719623786	1.347781001	1.242479407	4.164947973	1.296094907	0.877261137	0.433428142	0.795128286	2.045738202	0.634903085	1.05487867	-0.009267547	0.202671159	ImmuneHot	Hot	Malay	No	Female	52	IV	36.8	Death	Malay	Adenocarcinoma	1121	412	436	IV	A453-IM95	Lung	354	514	Late	Lung
A455-IM97	68.69406427	1	p.E68*	3	p.A289V;p.T790M;p.L858R	5	294	305	128	165	131	168	4.808118762	3.729934555	4.625189363	9	5	No	Yes	Yes	0	1	0.54;0	A455	AgingS3	0.57	2.543950125	2733456273	1176230236	60767052	0.452539629	0.022230848	0.430308781	IMPACT	15	NA	33	129	0.796296296	3	8	0.727272727	GD	NA	p.E68*	p.L858R	p.A289V;p.T790M	Late	T790M+	0.13	Yes	Yes	ImmuneCold	-0.650805972	TRU	0.328891996	0.062892392	-0.529809676	112.7547514	122.6485786	18391072	60.00%	0.990451941	0.414511032	2.609067039	0.547157202	0.389300094	0.338316893	0.836889581	2.865629724	1.031627915	0.965561537	0.166483918	0.770488395	0.533339205	0.627883815	0.519768973	-0.819165444	-0.95193408	ImmuneCold	Cold	Chinese	No	Male	79	IV	23.1	Death	Chinese	Adenocarcinoma	704	402	631	IV	A455-IM97	Lung	0	195	Late	Lung
A456-IM100	37.44944708	1	p.H179Y	1	p.L858R	3	269	293	106	143	119	156	4.16703626	3.088852053	4.231890948	7	3	No	Yes	No	0	1	0	A456	APOBEC	0.5	2.343141642	2761837501	175248339	919861850	0.39651507	0.33306154	0.06345353	IMPACT	12	Amp	50	95	0.655172414	4	3	0.428571429	GD	p.H179Y	NA	p.L858R	NA	NA	T790M-	NA	Yes	Yes	ImmuneHot	0.001649421	PI	-0.352046476	0.050113124	0.49919956	103.7168268	83.74629505	26891045	87.42%	2.830063003	0.581726468	5.601751832	1.794849742	2.434404729	3.646888163	1.773185503	5.770131734	0.951171504	2.07087324	0.781292637	0.321748352	2.570376582	1.097686106	1.035149378	2.203517619	1.42928568	ImmuneHot	Hot	Chinese	No	Male	49	IV	32.3	Death	Chinese	Adenocarcinoma	720	54	71	IIIB	A456-IM100	Lung	0	14	Late	Lung
A457-IM102	31.93294097	NA	NA	2	p.ELREA746del;p.T790M	1	96	103	45	59	48	62	1.719266709	1.311305117	1.510265915	2	1	Del	No	No	1	0	0	A457	Smoking	0.6	2.394237223	2744612798	129267402	1232812746	0.496274064	0.449175471	0.047098593	IMPACT	15	NA	21	39	0.65	3	1	0.25	GD	NA	NA	p.ELREA746del	p.T790M	Late	T790M+	1	Yes	Yes	ImmuneMedium	-0.459054127	TRU	0.551898814	-0.171477447	-0.529512441	119.5825544	106.3351614	25188738	88.67%	2.267323181	1.123804917	5.273816251	2.645636176	2.579163465	1.135270412	1.58747722	3.45790496	1.535647412	1.132464746	0.464117297	1.010838589	2.550138997	0.712383847	0.792045977	-0.264959281	0.058736193	ImmuneHot	Hot	Chinese	No	Male	54	IV	26.1	Death	Chinese	Adenocarcinoma	794	245	281	IV	A457-IM102	Lung	0	5	Late	Lung
A458-IM105	44.02470011	NA	NA	2	p.T790M;p.L858R	3	260	264	121	162	123	164	4.720698421	3.525953759	4.090303519	9	3	No	Yes	No	0	1	0	A458	APOBEC	0.34	2.601861064	2746720463	1277730322	124526005	0.510520217	0.04533625	0.465183967	IMPACT	15	NA	18	138	0.884615385	2	9	0.818181818	GD	NA	NA	p.L858R	p.T790M	Late	T790M+	0.33	Yes	Yes	ImmuneMedium	-0.65599892	PI	-0.421673545	0.16874719	0.360030207	115.7847454	108.7497407	31415923	71.54%	1.11075746	0.690019317	3.259432162	0.191180994	0.444769462	1.392410807	0.589752506	3.35043727	1.145375537	0.739403568	0.240531391	0.523703362	0.488955378	0.039347172	0.546474832	-0.972334146	-1.235204959	ImmuneCold	Cold	Chinese	No	Female	66	IV	NA	Lost to follow-up	Chinese	Adenocarcinoma	967	498	506	IIIB	A458-IM105	Lung	0	-63	Late	Lung
A459-IM107	48.21844486	1	p.P177R	2	p.ELREA746del;p.T790M	3	182	195	66	96	73	103	2.797450916	1.923247505	2.863212463	4	2	Del	No	No	1	0	0	A459	AgingS3	0.23	3.633998144	2769004032	195226080	1195864100	0.502379254	0.431875175	0.070504079	IMPACT	11	NA	59	39	0.397959184	7	2	0.222222222	GD	p.P177R	NA	p.ELREA746del;p.T790M	NA	Early	T790M+	1	Yes	Yes	ImmuneHot	-0.277343485	PI	-0.037629209	-0.071091448	0.26520061	108.0802505	112.1801471	22663619	75.20%	2.280236303	0.873708589	5.84751678	1.467974667	1.545475881	2.179389868	0.927235697	6.388560578	0.536244417	2.617721525	0.352031512	0.125899464	1.315998964	0.49794278	0.132024402	-0.494922335	0.614192311	ImmuneHot	Hot	Chinese	No	Female	66	IV	49.4	Death	Chinese	Adenocarcinoma	1483	623	630	IIIA	A459-IM107	Lung	385	191	Late	Lung
A463-IM112	57.04905149	1	p.G266R	2	p.T790M;p.L858R	4	182	189	72	102	75	105	2.972291598	2.098088187	2.863212463	7	4	No	Yes	No	0	1	0	A463	Aging	0.41	4.968546708	2650709050	440048361	1228068518	0.629309686	0.463298119	0.166011566	IMPACT	21	NA	32	60	0.652173913	3	4	0.571428571	GD	p.G266R	NA	p.L858R	p.T790M	Late	T790M+	0.74	No	Yes	ImmuneMedium	-0.513714449	TRU	0.421329657	-0.142660023	-0.418427169	82.96787009	85.83839379	24883864	74.44%	1.379777689	0.651401242	4.055792862	0.664326667	1.050547152	0.892681009	0.675275236	3.467928486	0.909631199	1.018532437	0.256475758	0.499678088	1.098627735	0.256344295	0.732111694	-0.760396388	-0.372489302	ImmuneCold	Cold	Chinese	No	Female	60	IV	41.6	Death	Chinese	Adenocarcinoma	1265	445	458	IV	A463-IM112	Lung	364	566	Late	Lung
A464-IM113	64.05430984	NA	NA	2	p.747_753LREATSP>S;p.T790M	2	97	100	48	62	50	64	1.80668705	1.398725458	1.525997851	3	2	Del	No	No	1	0	0	A464	Aging	0.49	3.453572803	2754852210	321773241	1231052279	0.563669265	0.446866904	0.116802361	IMPACT	18	NA	27	35	0.564516129	2	2	0.5	GD	NA	NA	NA	p.747_753LREATSP>S;p.T790M	Late	T790M+	0.9	Yes	Yes	ImmuneMedium	-0.566656402	TRU	0.375395284	-0.053928939	-0.465501676	106.7190368	101.9632363	26146128	76.01%	1.472508257	0.146551641	4.378405594	0.780492016	1.027636555	1.0024666	0.594798777	3.419673528	2.092240539	0.834409935	0.36430855	0.306840139	1.329320902	0.35547179	0.635905267	-0.5805892	-0.572596923	ImmuneCold	Cold	Chinese	No	Female	64	IV	40.6	Death	Chinese	Adenocarcinoma	1236	298	304	IV	A464-IM113	Lung	59	62	Late	Lung
A465-IM117	52.59221923	NA	NA	2	p.ELREAT746fs;p.P753fs	2	174	186	70	99	77	106	2.884871257	2.03980796	2.73735697	3	2	Del	No	No	1	0	0;0	A465	AgingS3	0.72	4.138119697	2735428838	635865251	1078905234	0.626874463	0.394419046	0.232455417	IMPACT	17	Amp	35	62	0.639175258	3	4	0.571428571	GD	NA	NA	p.ELREAT746fs;p.P753fs	NA	NA	T790M-	NA	Yes	Yes	ImmuneCold	-0.582415272	PP	-0.352252028	0.589021848	-0.150706866	83.15682526	85.2388748	26555464	89.08%	1.394737226	0.279266591	3.973100776	0.473933731	2.786226307	0.116044769	0.944653141	2.655367283	0.025448324	0.355883655	0.222263583	1.014876997	1.143986324	0.23705912	0.19060871	-0.035617872	-0.383925973	ImmuneCold	Cold	Chinese	No	Male	60	IV	18.9	Death	Chinese	Adenosquamous carcinoma	576	143	154	IV	A465-IM117	Lung	242	216	Late	Lung
A466-IM118	55.3937484	NA	NA	1	p.L858R	5	580	793	228	330	300	402	9.616237524	6.643945926	9.124523234	13	4	No	Yes	No	0	1	0	A466	AgingS3	0.53	2.230809143	2768987684	2735527	523581262	0.190075525	0.18908761	9.88E-04	IMPACT	7	NA	181	189	0.510810811	9	8	0.470588235	GD	NA	NA	p.L858R	NA	NA	T790M-	NA	Yes	Yes	ImmuneHot	-0.269147812	PI	-0.546587197	0.224581587	0.527295216	84.80630874	73.73930168	28670814	88.71%	1.987763597	0.278736779	4.265224851	1.446570456	1.844390327	2.66685406	1.083532501	4.486862582	1.734946561	1.710237432	0.406843737	0.336330222	1.41357629	0.276017569	1.155883798	1.558463335	0.471737167	ImmuneHot	Hot	United Arab Emirates (UAE)	Yes	Male	59	IV	11	Death	United Arab Emirates (UAE)	Adenocarcinoma	334	40	40	IV	A466-IM118	Lung	155	217	Late	Lung
A468-IM121	39.51786158	NA	NA	2	p.ELREA746del;p.T790M	0	68	71	21	36	23	38	1.049044094	0.611942388	1.069771689	NA	NA	Del	No	No	1	0	0	A468	Aging	0.15	5.550685721	2656171964	825027450	1265412027	0.787012101	0.476404406	0.310607695	IMPACT	27	NA	35	2	0.054054054	1	1	0.5	GD	NA	NA	p.ELREA746del	p.T790M	Late	T790M+	1	No	Yes	ImmuneMedium	-0.603284644	TRU	0.635799988	-0.203345077	-0.542387765	82.58259788	81.25697425	25460182	48.18%	1.23556212	0.496297954	3.653319048	0.709651721	0.762588751	1.214106826	0.668302767	2.740168896	2.640203472	0.588402659	0.192336562	0.692562993	1.179584511	0	0.44076143	-0.90936448	-0.45554278	ImmuneCold	Cold	Chinese	Yes	Male	71	IV	NA	Alive	Chinese	Adenocarcinoma	1807	313	391	IV	A468-IM121	Lung	0	99	Late	Lung
A469-IM122	78.02389363	1	p.V274D	2	p.LREATS747del;p.T790M	1	97	101	41	59	44	62	1.719266709	1.194744662	1.525997851	1	1	Del	No	No	1	0	0	A469	Aging	0.57	2.093454001	2736560369	465909578	564218355	0.376431649	0.206177931	0.170253718	IMPACT	7	NA	13	40	0.754716981	3	2	0.4	GD	p.V274D	NA	p.LREATS747del;p.T790M	NA	Early	T790M+	1	Yes	Yes	ImmuneMedium	-0.61740285	TRU	0.226032257	0.049971068	-0.325242051	82.73689449	84.84049232	24561958	72.38%	1.311812964	0.202426664	3.731173818	0.388655715	0.703215271	1.204055526	0.968534573	3.650007785	2.396771724	1.050683136	0.244765579	0.023430134	0.746808991	0.169099421	0.645630363	-1.151522188	-0.627925867	ImmuneCold	Cold	Malay	No	Female	47	IV	36.6	Death	Malay	Adenocarcinoma	1115	620	627	IV	A469-IM122	Lung	348	415	Late	Lung
A471-IM124	53.32845673	NA	NA	2	p.T790M;p.L858R	1	72	74	30	37	31	38	1.078184207	0.874203411	1.132699436	2	1	No	Yes	No	0	1	0	A471	Aging	0.23	2.626111013	2779652186	61222840	930003837	0.356600974	0.334575614	0.02202536	IMPACT	11	NA	22	9	0.290322581	3	0	0	GD	NA	NA	p.T790M;p.L858R	NA	Early	T790M+	1	Yes	Yes	ImmuneMedium	-0.535998444	PI	0.073191718	-0.147325412	0.152936105	80.33554003	74.45285857	26810425	60.93%	1.557546862	0.897193584	3.725648014	0.803690444	1.11486888	1.812592474	0.942478299	4.214196496	3.550423439	0.793274746	0.305106743	0.13057915	0.868708757	0.230631652	0.270554239	-0.528492833	-0.082480808	ImmuneCold	Cold	Bangladeshi	No	Female	56	IV	46.9	Death	Bangladeshi	Adenocarcinoma	1428	553	552	IV	A471-IM124	Lung	803	812	Late	Lung
A472-IM125	59.67737785	1	p.H179fs	1	p.ELREA746del	2	101	106	40	48	44	52	1.398725458	1.165604548	1.588925598	3	1	Del	No	No	1	0	0	A472	AgingS3	0.25	4.701544831	2754213217	1391122419	582115414	0.716443382	0.211354521	0.505088862	IMPACT	21	NA	30	19	0.387755102	2	2	0.5	GD	p.H179fs	NA	p.ELREA746del	NA	NA	T790M-	NA	Yes	No	NA	NA	NA	NA	NA	NA	74.8444263	74.90913761	NA	NA	NA	NA	NA	NA	NA	NA	NA	NA	NA	NA	NA	NA	NA	NA	NA	NA	NA	NA	NA	Chinese	No	Female	56	IV	40.7	Death	Chinese	Adenocarcinoma	1240	225	648	IV	A472-IM125	Bone	0	491	Late	Bone
A475-IM131	58.83061523	1	p.H179Y	2	p.ELREA746del;p.T790M	3	125	138	61	71	67	77	2.068948073	1.777546936	1.966492076	4	1	Del	No	No	1	0	0	A475	Aging	0.57	3.63451061	2768227032	302129968	1303964428	0.580188828	0.471046779	0.109142048	IMPACT	17	NA	34	30	0.46875	6	2	0.25	GD	p.H179Y	NA	p.ELREA746del	p.T790M	Late	T790M+	1	Yes	No	NA	NA	NA	NA	NA	NA	103.0045428	117.8914054	NA	NA	NA	NA	NA	NA	NA	NA	NA	NA	NA	NA	NA	NA	NA	NA	NA	NA	NA	NA	NA	Chinese	No	Female	63	IV	NA	Death	Chinese	Adenocarcinoma	1620	280	301	IV	A475-IM131	Lung	0	8	Late	Lung
A477-IM134	73.2528548	1	p.R273C	1	p.ELREA746del	1	97	99	51	64	53	66	1.864967277	1.486145799	1.525997851	2	1	Del	No	No	1	0	0	A477	Aging	0.26	4.509725173	2655170190	776625981	1249101173	0.76293684	0.470441096	0.292495744	IMPACT	27	Amp	30	30	0.5	2	2	0.5	GD	p.R273C	NA	p.ELREA746del	NA	NA	T790M-	NA	No	No	NA	NA	NA	NA	NA	NA	106.0822187	107.5629489	NA	NA	NA	NA	NA	NA	NA	NA	NA	NA	NA	NA	NA	NA	NA	NA	NA	NA	NA	NA	NA	Chinese	No	Male	57	IV	62	Death	Chinese	Adenocarcinoma	1886	394	625	IV	A477-IM134	Lung	0	245	Late	Lung
A478-IM136	47.22758068	1	p.Y220C	1	p.ELREA746del	2	131	139	52	70	57	75	2.03980796	1.515285913	2.060883696	3	2	Del	No	No	1	0	0	A478	AgingS3	0.25	3.609941867	2776413529	282470637	1187739913	0.529535869	0.427796472	0.101739397	IMPACT	17	Amp	40	34	0.459459459	3	3	0.5	GD	p.Y220C	NA	p.ELREA746del	NA	NA	T790M-	NA	Yes	No	NA	NA	NA	NA	NA	NA	113.6544834	112.457645	NA	NA	NA	NA	NA	NA	NA	NA	NA	NA	NA	NA	NA	NA	NA	NA	NA	NA	NA	NA	NA	Chinese	No	Male	59	IV	29.4	Death	Chinese	Adenocarcinoma	895	197	283	IV	A478-IM136	Bone	0	6	Late	Bone
BGI-EX02	51.84003787	NA	NA	1	p.L858R	1	73	76	36	47	37	48	1.369585344	1.049044094	1.148431373	NA	NA	No	Yes	No	0	1	0	BGI-EX02	AgingS3	0.17	4.446011347	2652731981	922356214	1029373390	0.735743233	0.388042741	0.347700492	TreatmentNaive	24	NA	32	28	0.466666667	3	2	0.4	GD	NA	NA	p.L858R	NA	NA	T790M-	NA	No	No	NA	NA	NA	NA	NA	NA	NA	NA	NA	NA	NA	NA	NA	NA	NA	NA	NA	NA	NA	NA	NA	NA	NA	NA	NA	NA	NA	NA	NA	NA	No	Male	45	III	13	Alive	ASIAN	NA	390	NA	NA	NA	NA	NA	NA	NA	Late	NA
BGI-EX04	51.11732429	NA	NA	1	p.ELREA746del	1	64	68	27	39	30	42	1.136464435	0.78678307	1.006843943	NA	NA	Del	No	No	1	0	0	BGI-EX04	Aging	0.3	3.187096464	2656165225	776682196	860400461	0.616333141	0.323925806	0.292407335	TreatmentNaive	22	Amp	22	18	0.45	1	3	0.75	GD	NA	NA	NA	p.ELREA746del	NA	T790M-	NA	No	No	NA	NA	NA	NA	NA	NA	NA	NA	NA	NA	NA	NA	NA	NA	NA	NA	NA	NA	NA	NA	NA	NA	NA	NA	NA	NA	NA	NA	NA	NA	No	Female	67	III	6	Alive	ASIAN	NA	180	NA	NA	NA	NA	NA	NA	NA	Late	NA
BGI-RS02	40.7715	1	NA	2	p.S768I;p.V774M	1	42	43	19	28	20	29	0.815923184	0.55366216	0.660741338	NA	NA	No	No	Yes	0	0	1;1	BGI-RS02	Aging	0.22	3.477461698	2664072881	744344833	890637944	0.613715484	0.334314406	0.279401077	TreatmentNaive	24	NA	25	13	0.342105263	3	0	0	GD	NA	NA	p.S768I;p.V774M	NA	NA	T790M-	NA	No	No	NA	NA	NA	NA	NA	NA	NA	NA	NA	NA	NA	NA	NA	NA	NA	NA	NA	NA	NA	NA	NA	NA	NA	NA	NA	NA	NA	NA	NA	NA	No	Female	58	III	23	Dead	ASIAN	NA	690	NA	NA	NA	NA	NA	NA	NA	Late	NA
BGI-RS08	30.15887179	NA	NA	NA	NA	3	207	207	115	150	115	150	4.371017056	3.351113077	3.256510878	NA	NA	NA	NA	NA	NA	NA	NA	BGI-RS08	APOBEC	0.14	2.333277826	2670927638	251557066	684604022	0.350500356	0.256316949	0.094183407	TreatmentNaive	18	NA	158	43	0.213930348	10	2	0.166666667	nGD	NA	NA	p.L707W;p.L858R	NA	NA	T790M-	NA	No	No	NA	NA	NA	NA	NA	NA	NA	NA	NA	NA	NA	NA	NA	NA	NA	NA	NA	NA	NA	NA	NA	NA	NA	NA	NA	NA	NA	NA	NA	NA	No	Female	66	III	65	Alive	ASIAN	NA	1950	NA	NA	NA	NA	NA	NA	NA	Late	NA
BGI-RS13	35.97542924	NA	NA	1	p.E548Q	3	222	222	111	153	111	153	4.458437398	3.234552622	3.492489927	NA	NA	No	No	Yes	0	0	1	BGI-RS13	APOBEC	0.18	2.191314354	2665629262	367380775	657657140	0.384538814	0.246717407	0.137821407	TreatmentNaive	15	Amp	152	37	0.195767196	11	3	0.214285714	nGD	NA	NA	p.E548Q	NA	NA	T790M-	NA	No	No	NA	NA	NA	NA	NA	NA	NA	NA	NA	NA	NA	NA	NA	NA	NA	NA	NA	NA	NA	NA	NA	NA	NA	NA	NA	NA	NA	NA	NA	NA	No	Male	67	IV	29	Dead	ASIAN	NA	870	NA	NA	NA	NA	NA	NA	NA	Late	NA
BGI-RS16	59.77204212	NA	NA	1	p.ELREA746del	1	56	58	31	38	32	39	1.107324321	0.903343525	0.88098845	NA	NA	Del	No	No	1	0	0	BGI-RS16	APOBEC	0.26	5.787384802	2653515410	438247789	1218048214	0.624189329	0.459031898	0.165157431	TreatmentNaive	24	NA	21	28	0.571428571	1	3	0.75	GD	NA	NA	p.ELREA746del	NA	NA	T790M-	NA	No	No	NA	NA	NA	NA	NA	NA	NA	NA	NA	NA	NA	NA	NA	NA	NA	NA	NA	NA	NA	NA	NA	NA	NA	NA	NA	NA	NA	NA	NA	NA	No	Female	56	III	78	Alive	ASIAN	NA	2340	NA	NA	NA	NA	NA	NA	NA	Late	NA
BGI-RS17	55.78447307	NA	NA	1	p.L861Q	0	44	44	17	29	17	29	0.845063298	0.495381933	0.692205211	NA	NA	No	No	Yes	0	0	1	BGI-RS17	APOBEC	0.16	4.127293	2662739534	979276114	711327554	0.634911393	0.267141245	0.367770149	TreatmentNaive	25	Del	20	26	0.565217391	1	0	0	GD	NA	NA	p.L861Q	NA	NA	T790M-	NA	No	No	NA	NA	NA	NA	NA	NA	NA	NA	NA	NA	NA	NA	NA	NA	NA	NA	NA	NA	NA	NA	NA	NA	NA	NA	NA	NA	NA	NA	NA	NA	No	Female	53	III	47	Alive	ASIAN	NA	1410	NA	NA	NA	NA	NA	NA	NA	Late	NA
BGI-RS18	46.71205479	NA	NA	1	p.746_751ELREAT>A	1	144	153	67	89	71	93	2.59347012	1.952387619	2.265398872	NA	NA	Del	No	No	1	0	0	BGI-RS18	Smoking	0.17	2.366709641	2652353049	192467689	452242372	0.243070982	0.170506099	0.072564883	TreatmentNaive	9	NA	86	26	0.232142857	3	1	0.25	nGD	NA	NA	p.746_751ELREAT>A	NA	NA	T790M-	NA	No	No	NA	NA	NA	NA	NA	NA	NA	NA	NA	NA	NA	NA	NA	NA	NA	NA	NA	NA	NA	NA	NA	NA	NA	NA	NA	NA	NA	NA	NA	NA	Yes	Male	62	III	NA	Dead	ASIAN	NA	NA	NA	NA	NA	NA	NA	NA	NA	Late	NA
BGI-WG03	46.33125	NA	NA	1	p.746_752ELREATS>A	1	64	166	28	38	30	40	1.107324321	0.815923184	1.006843943	NA	NA	Del	No	No	1	0	0	BGI-WG03	AgingS3	0.43	6.19934938	2655823738	527578386	597488513	0.423622578	0.224972955	0.198649624	TreatmentNaive	12	NA	17	48	0.738461538	1	4	0.8	GD	NA	NA	p.746_752ELREATS>A	NA	NA	T790M-	NA	No	No	NA	NA	NA	NA	NA	NA	NA	NA	NA	NA	NA	NA	NA	NA	NA	NA	NA	NA	NA	NA	NA	NA	NA	NA	NA	NA	NA	NA	NA	NA	No	Male	56	III	16	Alive	ASIAN	NA	480	NA	NA	NA	NA	NA	NA	NA	Late	NA
BGI-WG05	46.91772152	NA	NA	1	p.L858R	1	140	167	55	70	55	70	2.03980796	1.602706254	2.202471125	NA	NA	No	Yes	No	0	1	0	BGI-WG05	Aging	0.31	2.483174618	2653032407	270603961	933575398	0.453887919	0.351889934	0.101997986	TreatmentNaive	16	NA	33	47	0.5875	4	1	0.2	GD	NA	NA	p.L858R	NA	NA	T790M-	NA	No	No	NA	NA	NA	NA	NA	NA	NA	NA	NA	NA	NA	NA	NA	NA	NA	NA	NA	NA	NA	NA	NA	NA	NA	NA	NA	NA	NA	NA	NA	NA	NA	Male	58	III	14	Alive	ASIAN	NA	420	NA	NA	NA	NA	NA	NA	NA	Late	NA
BGI-WG10	51.55404545	NA	NA	1	p.A566S	7	957	1323	405	524	406	525	15.26941958	11.80174605	15.05546334	NA	NA	No	No	Yes	0	0	1	BGI-WG10	Smoking	0.29	2.238883291	2670059922	377158560	787937831	0.436355897	0.295101179	0.141254718	TreatmentNaive	15	Amp	360	213	0.371727749	17	7	0.291666667	GD	NA	NA	p.A566S	NA	NA	T790M-	NA	No	No	NA	NA	NA	NA	NA	NA	NA	NA	NA	NA	NA	NA	NA	NA	NA	NA	NA	NA	NA	NA	NA	NA	NA	NA	NA	NA	NA	NA	NA	NA	Yes	Male	65	III	15	Alive	ASIAN	NA	450	NA	NA	NA	NA	NA	NA	NA	Late	NA
BGI-WG11	47.83838379	NA	NA	1	p.L861Q	0	65	104	28	32	28	32	0.932483639	0.815923184	1.02257588	NA	NA	No	No	Yes	0	0	1	BGI-WG11	AgingS3	0.2	5.794493295	2669544888	1400365947	1117243983	0.94308582	0.418514777	0.524571043	TreatmentNaive	33	Del	28	26	0.481481481	2	1	0.333333333	GD	NA	NA	p.L861Q	NA	NA	T790M-	NA	No	No	NA	NA	NA	NA	NA	NA	NA	NA	NA	NA	NA	NA	NA	NA	NA	NA	NA	NA	NA	NA	NA	NA	NA	NA	NA	NA	NA	NA	NA	NA	No	Female	68	III	16	Alive	ASIAN	NA	480	NA	NA	NA	NA	NA	NA	NA	Late	NA
BGI-WG12	51.93288136	1	p.L194F	1	p.L858R	1	60	73	23	29	23	29	0.845063298	0.670222615	0.943916197	NA	NA	No	Yes	No	0	1	0	BGI-WG12	AgingS16	0.17	2.472730617	2663861154	142290353	1215984671	0.509889572	0.456474493	0.053415079	TreatmentNaive	18	NA	35	19	0.351851852	2	1	0.333333333	GD	p.L194F	NA	p.L858R	NA	NA	T790M-	NA	No	No	NA	NA	NA	NA	NA	NA	NA	NA	NA	NA	NA	NA	NA	NA	NA	NA	NA	NA	NA	NA	NA	NA	NA	NA	NA	NA	NA	NA	NA	NA	No	Female	57	III	13	Alive	ASIAN	NA	390	NA	NA	NA	NA	NA	NA	NA	Late	NA
BGI-WG13	45.184	NA	NA	1	p.L858R	2	56	141	23	29	23	29	0.845063298	0.670222615	0.88098845	NA	NA	No	Yes	No	0	1	0	BGI-WG13	AgingS3	0.18	4.449531202	2662688126	658213027	1002092560	0.623544895	0.376346201	0.247198694	TreatmentNaive	25	Del	22	18	0.45	2	1	0.333333333	GD	NA	NA	p.L858R	NA	NA	T790M-	NA	No	No	NA	NA	NA	NA	NA	NA	NA	NA	NA	NA	NA	NA	NA	NA	NA	NA	NA	NA	NA	NA	NA	NA	NA	NA	NA	NA	NA	NA	NA	NA	No	Female	70	III	13	Alive	ASIAN	NA	390	NA	NA	NA	NA	NA	NA	NA	Late	NA
BGI-WG14	37.065	2	NA;p.R248Q	1	p.L858R	3	122	207	45	62	47	64	1.80668705	1.311305117	1.919296266	NA	NA	No	Yes	No	0	1	0	BGI-WG14	AgingS3	0.24	3.726755572	2659903050	1363588637	754600769	0.796340831	0.28369484	0.512645992	TreatmentNaive	25	NA	61	34	0.357894737	4	3	0.428571429	GD	NA;p.R248Q	NA	p.L858R	NA	NA	T790M-	NA	No	No	NA	NA	NA	NA	NA	NA	NA	NA	NA	NA	NA	NA	NA	NA	NA	NA	NA	NA	NA	NA	NA	NA	NA	NA	NA	NA	NA	NA	NA	NA	No	Male	59	III	5	Alive	ASIAN	NA	150	NA	NA	NA	NA	NA	NA	NA	Late	NA
BGI-WG16	53.10482456	NA	NA	1	p.L858R	1	75	126	22	40	22	40	1.165604548	0.641082502	1.179895246	NA	NA	No	Yes	No	0	1	0	BGI-WG16	AgingS3	0.23	4.516942778	2665578784	576021269	885518226	0.548300993	0.33220486	0.216096134	TreatmentNaive	20	Amp	25	54	0.683544304	2	2	0.5	GD	NA	NA	p.L858R	NA	NA	T790M-	NA	No	No	NA	NA	NA	NA	NA	NA	NA	NA	NA	NA	NA	NA	NA	NA	NA	NA	NA	NA	NA	NA	NA	NA	NA	NA	NA	NA	NA	NA	NA	NA	No	Female	41	III	5	Alive	ASIAN	NA	150	NA	NA	NA	NA	NA	NA	NA	Late	NA
BGI-WG17	47.02172864	1	p.Q192*	1	p.ELREA746del	1	97	262	36	48	38	50	1.398725458	1.049044094	1.525997851	NA	NA	Del	No	No	1	0	0	BGI-WG17	Aging	0.41	5.795668381	2655028930	1290084689	515991782	0.680247379	0.19434507	0.48590231	TreatmentNaive	26	Del	37	47	0.55952381	2	0	0	GD	p.Q192*	NA	p.ELREA746del	NA	NA	T790M-	NA	No	No	NA	NA	NA	NA	NA	NA	NA	NA	NA	NA	NA	NA	NA	NA	NA	NA	NA	NA	NA	NA	NA	NA	NA	NA	NA	NA	NA	NA	NA	NA	No	Male	51	III	8	Alive	ASIAN	NA	240	NA	NA	NA	NA	NA	NA	NA	Late	NA
BGI-WG22	40.08940913	1	p.C238Y	1	p.L858R	2	58	102	22	30	22	30	0.874203411	0.641082502	0.912452323	NA	NA	No	Yes	No	0	1	0	BGI-WG22	Aging	0.23	2.809090741	2667396361	42852339	1244493098	0.482622476	0.466557245	0.016065231	TreatmentNaive	15	NA	15	26	0.634146341	3	0	0	GD	p.C238Y	NA	p.L858R	NA	NA	T790M-	NA	No	No	NA	NA	NA	NA	NA	NA	NA	NA	NA	NA	NA	NA	NA	NA	NA	NA	NA	NA	NA	NA	NA	NA	NA	NA	NA	NA	NA	NA	NA	NA	No	Female	34	III	24	Alive	ASIAN	NA	720	NA	NA	NA	NA	NA	NA	NA	Late	NA
BGI-WG24	36.59377605	NA	NA	1	p.ELREA746del	1	241	556	79	109	82	112	3.176272394	2.302068983	3.791396723	NA	NA	Del	No	No	1	0	0	BGI-WG24	AgingS3	0.63	3.309462739	2632415546	807590995	779746794	0.602996663	0.296209614	0.306787048	TreatmentNaive	19	NA	33	89	0.729508197	2	3	0.6	GD	NA	NA	p.ELREA746del	NA	NA	T790M-	NA	No	No	NA	NA	NA	NA	NA	NA	NA	NA	NA	NA	NA	NA	NA	NA	NA	NA	NA	NA	NA	NA	NA	NA	NA	NA	NA	NA	NA	NA	NA	NA	Yes	Male	67	IV	17	Alive	ASIAN	NA	510	NA	NA	NA	NA	NA	NA	NA	Late	NA
GSK003	59.53927678	1	p.C242W	1	p.ELREA746del	2	106	120	46	63	52	69	1.835827164	1.340445231	1.667585281	NA	NA	Del	No	No	1	0	0	GSK003	Smoking	0.34	4.415760604	2646561746	879675267	1142174583	0.763953402	0.431569218	0.332384184	TreatmentNaive	25	NA	25	63	0.715909091	2	4	0.666666667	GD	p.C242W	NA	p.ELREA746del	NA	NA	T790M-	NA	No	Yes	NA	-0.164515883	PP	-0.252804657	0.174432435	0.082997977	NA	NA	NA	NA	NA	NA	NA	NA	NA	NA	NA	NA	NA	NA	NA	NA	NA	NA	NA	NA	NA	NA	NA	NA	No	Female	59	III	1.8	Dead	ASIAN	Solid	54	NA	NA	NA	NA	NA	NA	NA	Late	NA
GSK005	69.96321569	1	p.C124*	1	p.769_770insASV	1	60	69	23	30	26	33	0.874203411	0.670222615	0.943916197	NA	NA	No	No	Yes	0	0	1	GSK005	Aging	0.22	4.946222797	2659877133	315177614	1381363776	0.637826977	0.519333679	0.118493298	TreatmentNaive	19	NA	28	9	0.243243243	2	0	0	GD	p.C124*	NA	p.769_770insASV	NA	NA	T790M-	NA	No	Yes	NA	-0.071992933	PI	-0.604712327	0.3430395	0.363010178	NA	NA	NA	NA	NA	NA	NA	NA	NA	NA	NA	NA	NA	NA	NA	NA	NA	NA	NA	NA	NA	NA	NA	NA	Yes	Female	38	III	12.5	Dead	ASIAN	NOS	375	NA	NA	NA	NA	NA	NA	NA	Late	NA
GSK010	67.46953432	1	p.Y220C	1	p.L858R	2	134	146	59	74	62	77	2.156368414	1.719266709	2.108079506	NA	NA	No	Yes	No	0	1	0	GSK010	AgingS16	0.2	6.117989918	2656329690	743262785	819226115	0.588213468	0.308405285	0.279808183	TreatmentNaive	21	NA	47	36	0.43373494	3	0	0	GD	p.Y220C	NA	p.L858R	NA	NA	T790M-	NA	No	Yes	NA	-0.078704398	PP	-0.431286224	0.307551641	0.175680516	NA	NA	NA	NA	NA	NA	NA	NA	NA	NA	NA	NA	NA	NA	NA	NA	NA	NA	NA	NA	NA	NA	NA	NA	No	Female	84	III	38.76666667	Dead	ASIAN	Papillary	1163	NA	NA	NA	NA	NA	NA	NA	Late	NA
GSK022	82.75876584	NA	NA	1	p.LREATS747del	2	79	88	40	49	44	53	1.427865572	1.165604548	1.242822992	NA	NA	Del	No	No	1	0	0	GSK022	Smoking	0.78	3.56956013	2655978372	1090643662	147953973	0.466343268	0.055706016	0.410637253	TreatmentNaive	13	Del	22	47	0.68115942	2	1	0.333333333	GD	NA	NA	NA	p.LREATS747del	NA	T790M-	NA	No	Yes	NA	-0.292899139	TRU	0.176124596	0.095086655	-0.470325276	NA	NA	NA	NA	NA	NA	NA	NA	NA	NA	NA	NA	NA	NA	NA	NA	NA	NA	NA	NA	NA	NA	NA	NA	No	Female	70	III	116.4333333	Alive	ASIAN	NOS	3492.999999	NA	NA	NA	NA	NA	NA	NA	Late	NA
GSK035	45.41760366	NA	NA	1	p.ELREA746del	1	126	134	49	70	51	72	2.03980796	1.427865572	1.982224013	NA	NA	Del	No	No	1	0	0	GSK035	AgingS16	0.36	2.898303103	2649440040	1094420320	678504293	0.669169555	0.25609347	0.413076085	TreatmentNaive	22	NA	12	64	0.842105263	0	4	1	GD	NA	NA	NA	p.ELREA746del	NA	T790M-	NA	No	Yes	NA	-0.126774071	TRU	0.197316119	-0.125298864	-0.140533247	NA	NA	NA	NA	NA	NA	NA	NA	NA	NA	NA	NA	NA	NA	NA	NA	NA	NA	NA	NA	NA	NA	NA	NA	No	Male	71	III	104.2666667	Alive	ASIAN	Papillary	3128.000001	NA	NA	NA	NA	NA	NA	NA	Late	NA
GSK091	49.73883871	2	p.Y236*;p.Y236F	1	p.709_710ET>D	5	139	149	55	75	59	79	2.185508528	1.602706254	2.186739189	NA	NA	No	No	Yes	0	0	1	GSK091	AgingS3	0.19	3.320273383	2664061073	661737139	705124294	0.513074361	0.264680229	0.248394132	TreatmentNaive	16	NA	31	67	0.683673469	4	3	0.428571429	GD	NA	p.Y236*;p.Y236F	p.709_710ET>D	NA	NA	T790M-	NA	No	Yes	NA	0.04734278	PI	-0.172812167	-0.126498617	0.410653604	NA	NA	NA	NA	NA	NA	NA	NA	NA	NA	NA	NA	NA	NA	NA	NA	NA	NA	NA	NA	NA	NA	NA	NA	No	Male	71	III	80	Dead	ASIAN	Papillary	2400	NA	NA	NA	NA	NA	NA	NA	Late	NA
GSK126	47.80261818	1	p.M237V	3	p.G719C;p.S768I;p.V769L	2	280	301	116	157	120	161	4.574997852	3.38025319	4.404942251	NA	NA	No	No	Yes	0	0	1;1;1	GSK126	Smoking	0.39	3.903916895	2651253214	194783977	1045385994	0.467767456	0.394298813	0.073468643	TreatmentNaive	17	NA	103	55	0.348101266	7	1	0.125	GD	p.M237V	NA	p.G719C;p.S768I;p.V769L	NA	NA	T790M-	NA	No	No	NA	NA	NA	NA	NA	NA	NA	NA	NA	NA	NA	NA	NA	NA	NA	NA	NA	NA	NA	NA	NA	NA	NA	NA	NA	NA	NA	NA	NA	NA	Yes	Male	74	IV	17.2	Dead	ASIAN	NOS	516	NA	NA	NA	NA	NA	NA	NA	Late	NA
GSK141	27.61117409	1	p.G266V	1	p.ELREA746del	4	172	189	74	100	80	106	2.914011371	2.156368414	2.705893097	NA	NA	Del	No	No	0.82	0	0	GSK141	APOBEC	0.66	2.223012697	2653976795	148208022	431759181	0.218527609	0.162683857	0.055843752	TreatmentNaive	7	NA	61	39	0.39	5	3	0.375	nGD	p.G266V	NA	p.ELREA746del	NA	NA	T790M-	NA	No	No	NA	NA	NA	NA	NA	NA	NA	NA	NA	NA	NA	NA	NA	NA	NA	NA	NA	NA	NA	NA	NA	NA	NA	NA	NA	NA	NA	NA	NA	NA	No	Female	79	IV	27.76666667	Dead	ASIAN	Papillary	833.0000001	NA	NA	NA	NA	NA	NA	NA	Late	NA
GSK210	59.93489362	NA	NA	1	p.L858R	0	101	111	42	61	45	64	1.777546936	1.223884776	1.588925598	NA	NA	No	Yes	No	0	1	0	GSK210	Aging	0.18	4.885161691	2662818440	1208077935	745369285	0.733601357	0.279917427	0.45368393	TreatmentNaive	29	NA	34	39	0.534246575	2	0	0	GD	NA	NA	p.L858R	NA	NA	T790M-	NA	No	Yes	NA	-0.544435011	PP	-0.230937203	0.142573115	0.131979017	NA	NA	NA	NA	NA	NA	NA	NA	NA	NA	NA	NA	NA	NA	NA	NA	NA	NA	NA	NA	NA	NA	NA	NA	No	Female	78	IV	20.06666667	Dead	ASIAN	Solid	602.0000001	NA	NA	NA	NA	NA	NA	NA	Late	NA
GSK220	35.35804987	NA	NA	NA	NA	0	8	8	6	6	6	6	0.174840682	0.174840682	0.125855493	NA	NA	NA	NA	NA	NA	NA	NA	GSK220	APOBEC	0.45	2.039048525	2660316164	804	80733551	0.030347654	0.030347352	3.02E-07	TreatmentNaive	1	NA	2	13	0.866666667	0	1	1	nGD	NA	NA	NA	p.ELREA746del	NA	T790M-	NA	No	No	NA	NA	NA	NA	NA	NA	NA	NA	NA	NA	NA	NA	NA	NA	NA	NA	NA	NA	NA	NA	NA	NA	NA	NA	NA	NA	NA	NA	NA	NA	Yes	Male	57	III	43	Alive	ASIAN	Lepidic	1290	NA	NA	NA	NA	NA	NA	NA	Late	NA
GSK222	69.45069767	1	p.P278L	1	p.L858R	1	125	131	50	77	51	78	2.243788756	1.457005685	1.966492076	NA	NA	No	Yes	No	0	1	0	GSK222	AgingS16	0.24	4.57850235	2657082959	648649496	1124143013	0.667195017	0.423074112	0.244120905	TreatmentNaive	20	Amp	15	65	0.8125	2	4	0.666666667	GD	p.P278L	NA	p.L858R	NA	NA	T790M-	NA	No	Yes	NA	-0.326990221	PP	-0.367572417	0.427884898	-0.018692311	NA	NA	NA	NA	NA	NA	NA	NA	NA	NA	NA	NA	NA	NA	NA	NA	NA	NA	NA	NA	NA	NA	NA	NA	Yes	Male	57	III	40.36666667	Alive	ASIAN	Acinar	1211	NA	NA	NA	NA	NA	NA	NA	Late	NA
GSK228	67.93337461	1	p.Q165*	1	p.ELREA746del	3	92	97	37	51	39	53	1.486145799	1.078184207	1.447338168	NA	NA	Del	No	No	1	0	0	GSK228	APOBEC	0.32	4.051019246	2654541025	1313930821	768622602	0.784524859	0.289550094	0.494974765	TreatmentNaive	22	Amp	29	31	0.516666667	4	1	0.2	GD	p.Q165*	NA	p.ELREA746del	NA	NA	T790M-	NA	No	Yes	NA	-0.399835238	PP	-0.374532261	0.47224139	-0.040190186	NA	NA	NA	NA	NA	NA	NA	NA	NA	NA	NA	NA	NA	NA	NA	NA	NA	NA	NA	NA	NA	NA	NA	NA	No	Male	67	III	31.43333333	Alive	ASIAN	Acinar	942.9999999	NA	NA	NA	NA	NA	NA	NA	Late	NA
GSK230	54.55290496	NA	NA	1	p.L858R	0	60	66	22	30	24	32	0.874203411	0.641082502	0.943916197	NA	NA	No	Yes	No	0	1	0	GSK230	Aging	0.37	4.233050131	2663494698	763743890	939187227	0.63935968	0.352614641	0.286745039	TreatmentNaive	24	Del	16	16	0.5	2	1	0.333333333	GD	NA	NA	p.L858R	NA	NA	T790M-	NA	No	Yes	NA	-0.324295929	PP	-0.089181611	0.169813951	-0.054091067	NA	NA	NA	NA	NA	NA	NA	NA	NA	NA	NA	NA	NA	NA	NA	NA	NA	NA	NA	NA	NA	NA	NA	NA	No	Female	62	III	33.8	Alive	ASIAN	Solid	1014	NA	NA	NA	NA	NA	NA	NA	Late	NA
GSK251	40.32435817	NA	NA	1	p.ELREA746del	0	65	68	27	38	28	39	1.107324321	0.78678307	1.02257588	NA	NA	Del	No	No	1	0	0	GSK251	Aging	0.21	2.14906403	2665110906	93746604	381059318	0.178156159	0.142980661	0.035175498	TreatmentNaive	6	NA	27	18	0.4	0	1	1	nGD	NA	NA	NA	p.ELREA746del	NA	T790M-	NA	No	Yes	NA	-0.130553258	TRU	0.406688665	-0.245149063	-0.216206089	NA	NA	NA	NA	NA	NA	NA	NA	NA	NA	NA	NA	NA	NA	NA	NA	NA	NA	NA	NA	NA	NA	NA	NA	No	Female	58	III	129.2666667	Alive	ASIAN	Acinar	3878.000001	NA	NA	NA	NA	NA	NA	NA	Late	NA
GSK257	52.87594406	1	p.V203L	1	p.L858R	1	125	127	58	81	58	81	2.36034921	1.690126595	1.966492076	NA	NA	No	Yes	No	0	1	0	GSK257	Smoking	0.2	2.28972208	2659349199	664428419	866694431	0.575750958	0.325904711	0.249846248	TreatmentNaive	19	NA	25	66	0.725274725	1	3	0.75	GD	NA	p.V203L	p.L858R	NA	NA	T790M-	NA	No	Yes	NA	-0.019526517	PI	-0.160761724	-0.130487898	0.367414782	NA	NA	NA	NA	NA	NA	NA	NA	NA	NA	NA	NA	NA	NA	NA	NA	NA	NA	NA	NA	NA	NA	NA	NA	No	Female	60	III	50.9	Dead	ASIAN	Acinar	1527	NA	NA	NA	NA	NA	NA	NA	Late	NA
GSK265	13.47818182	NA	NA	1	p.L858R	0	2	3	2	2	2	2	0.058280227	0.058280227	0.031463873	NA	NA	No	Yes	No	0	1	0	GSK265	Smoking	0.13	2.060832441	2674348507	30048001	165700459	0.073194821	0.061959187	0.011235634	TreatmentNaive	3	NA	3	1	0.25	1	0	0	GD	NA	NA	p.L858R	NA	NA	T790M-	NA	No	Yes	NA	0.053863941	PI	-0.019840875	-0.287652258	0.432082187	NA	NA	NA	NA	NA	NA	NA	NA	NA	NA	NA	NA	NA	NA	NA	NA	NA	NA	NA	NA	NA	NA	NA	NA	No	Female	53	III	92.9	Alive	ASIAN	Mixed	2787	NA	NA	NA	NA	NA	NA	NA	Late	NA
GSK266	56.88447917	2	p.K320K;p.E285K	1	p.ELREA746del	3	114	125	54	68	57	71	1.981527732	1.57356614	1.793440774	NA	NA	Del	No	No	1	0	0	GSK266	APOBEC	0.24	5.18427919	2655623102	1104722450	914206768	0.760246895	0.344253206	0.415993689	TreatmentNaive	25	NA	48	25	0.342465753	5	2	0.285714286	GD	p.K320K;p.E285K	NA	p.ELREA746del	NA	NA	T790M-	NA	No	No	NA	NA	NA	NA	NA	NA	NA	NA	NA	NA	NA	NA	NA	NA	NA	NA	NA	NA	NA	NA	NA	NA	NA	NA	NA	NA	NA	NA	NA	NA	No	Female	45	III	43.43333333	Dead	ASIAN	Solid	1303	NA	NA	NA	NA	NA	NA	NA	Late	NA
GSK278	47.96179153	1	p.G266R	1	p.L858R	1	226	244	98	128	102	132	3.729934555	2.855731144	3.555417674	NA	NA	No	Yes	No	0	1	0	GSK278	Smoking	0.48	2.714218033	2637416263	128566449	1234198409	0.516704502	0.467957382	0.048747121	TreatmentNaive	16	Amp	36	98	0.731343284	2	4	0.666666667	GD	p.G266R	NA	p.L858R	NA	NA	T790M-	NA	No	Yes	NA	-0.145698371	PP	-0.460729216	0.315140481	0.229055698	NA	NA	NA	NA	NA	NA	NA	NA	NA	NA	NA	NA	NA	NA	NA	NA	NA	NA	NA	NA	NA	NA	NA	NA	No	Male	74	IV	53.46666667	Alive	ASIAN	Acinar	1604	NA	NA	NA	NA	NA	NA	NA	Late	NA
GSK286	35.2386087	NA	NA	1	p.747_753LREATSP>S	1	50	54	17	21	20	24	0.611942388	0.495381933	0.786596831	NA	NA	Del	No	No	1	0	0	GSK286	AgingS3	0.24	5.44105617	2670105965	321554632	1050123266	0.513716652	0.393288985	0.120427667	TreatmentNaive	15	NA	21	7	0.25	2	0	0	GD	NA	NA	p.747_753LREATSP>S	NA	NA	T790M-	NA	No	Yes	NA	-0.140729809	PP	0.019338069	0.190719596	-0.333911222	NA	NA	NA	NA	NA	NA	NA	NA	NA	NA	NA	NA	NA	NA	NA	NA	NA	NA	NA	NA	NA	NA	NA	NA	No	Female	70	III	13.13333333	Dead	ASIAN	Acinar	393.9999999	NA	NA	NA	NA	NA	NA	NA	Late	NA
GSK308	61.08234681	NA	NA	1	p.L858R	1	81	87	37	46	40	49	1.340445231	1.078184207	1.274286865	NA	NA	No	Yes	No	0	1	0	GSK308	Aging	0.16	3.727681735	2668117244	582007274	1127333480	0.640654288	0.422520218	0.21813407	TreatmentNaive	25	NA	31	13	0.295454545	5	0	0	GD	NA	NA	p.L858R	NA	NA	T790M-	NA	No	Yes	NA	0.103898488	TRU	0.427033687	-0.35063824	-0.04095567	NA	NA	NA	NA	NA	NA	NA	NA	NA	NA	NA	NA	NA	NA	NA	NA	NA	NA	NA	NA	NA	NA	NA	NA	No	Female	68	III	24.76666667	Alive	ASIAN	Acinar	743.0000001	NA	NA	NA	NA	NA	NA	NA	Late	NA
GSK309	46.596	NA	NA	NA	NA	1	163	173	67	86	67	86	2.506049779	1.952387619	2.564305667	NA	NA	NA	NA	NA	NA	NA	NA	GSK309	Aging	0.28	3.194483389	2658778969	628949946	743059000	0.516029712	0.279473777	0.236555935	TreatmentNaive	18	NA	19	93	0.830357143	1	3	0.75	GD	NA	NA	NA	p.LREATS747del	NA	T790M-	NA	No	Yes	NA	-0.248369454	PI	0.011218846	-0.049326536	0.074686457	NA	NA	NA	NA	NA	NA	NA	NA	NA	NA	NA	NA	NA	NA	NA	NA	NA	NA	NA	NA	NA	NA	NA	NA	No	Male	73	III	23.5	Alive	ASIAN	Acinar	705	NA	NA	NA	NA	NA	NA	NA	Late	NA
GSK313	56.51783494	1	p.A276D	1	p.ELREA746del	1	131	144	57	78	61	82	2.272928869	1.660986481	2.060883696	NA	NA	Del	No	No	1	0	0	GSK313	Smoking	0.37	4.80971099	2649072149	1235260278	737903478	0.744850893	0.278551673	0.46629922	TreatmentNaive	22	Del	30	66	0.6875	2	0	0	GD	p.A276D	NA	p.ELREA746del	NA	NA	T790M-	NA	No	Yes	NA	-0.145553567	PI	-0.277518818	0.070293192	0.312584655	NA	NA	NA	NA	NA	NA	NA	NA	NA	NA	NA	NA	NA	NA	NA	NA	NA	NA	NA	NA	NA	NA	NA	NA	Yes	Female	69	III	24.06666667	Alive	ASIAN	Acinar	722.0000001	NA	NA	NA	NA	NA	NA	NA	Late	NA