TCR ID	drug_event	drugs	Drug Names	Drug_Classification	Remark	Sample_GIS_code	offset	offset_start	offset_end
A003	line1 PD	NA	NA	NA	NA	NA	2849	2005-02-05	2005-02-05
A003	line2 drug1	Carboplatin	Carboplatin	Chemotherapy	NA	NA	2849	2005-02-18	2005-05-02
A003	line2 drug2	Pemetrexed (Alimta)	Pemetrexed	Chemotherapy	NA	NA	2849	2005-02-18	2005-05-02
A003	line2 PD	NA	NA	NA	NA	NA	2849	2005-04-04	2005-04-04
A003	line3 drug1	"Buparlisib (BKM120, PI3K)"	Buparlisib	Others	PI3K	NA	2849	2005-06-15	2005-11-28
A003	line3 drug2	Binimetinib (MEK162)	Binimetinib	Others	MEK	NA	2849	2005-06-15	2005-11-28
A003	line3 PD	NA	NA	NA	NA	NA	2849	2005-11-26	2005-11-26
A003	line4 drug1	Gemcitabine (Gemzar)	Gemcitabine	Chemotherapy	NA	NA	2849	2005-12-26	2006-04-17
A003	line4 PD	NA	NA	NA	NA	NA	2849	2006-04-26	2006-04-26
A003	line5 drug1	Interferon (rSIFN-co)	Interferon	Others	NA	NA	2849	2006-05-29	2006-06-23
A003	line5 PD	NA	NA	NA	NA	NA	2849	2006-06-29	2006-06-29
A003	line6 PD	NA	NA	NA	NA	NA	2849	2006-07-24	2006-07-24
A003	line1 response-best	Partial response (PR)	Partial response	NA	NA	NA	2849	NA	NA
A003	line2 response-best	Progressive disease (PD)	Progressive disease	NA	NA	NA	2849	NA	NA
A003	line3 response-best	Stable disease (SD)	Stable disease	NA	NA	NA	2849	NA	NA
A003	line4 response-best	Progressive disease (PD)	Progressive disease	NA	NA	NA	2849	NA	NA
A003	line5 response-best	Progressive disease (PD)	Progressive disease	NA	NA	NA	2849	NA	NA
A003	line6 response-best	Progressive disease (PD)	Progressive disease	NA	NA	NA	2849	NA	NA
A018	line1 PD	NA	NA	NA	NA	NA	3405	2005-01-05	2005-01-05
A018	line2 drug1	Carboplatin	Carboplatin	Chemotherapy	NA	NA	3405	2005-07-29	2005-10-10
A018	line2 drug2	Pemetrexed (Alimta)	Pemetrexed	Chemotherapy	NA	NA	3405	2005-07-29	2005-10-10
A018	line2 PD	NA	NA	NA	NA	NA	3405	2005-10-16	2005-10-16
A018	line1 response-best	Partial response (PR)	Partial response	NA	NA	NA	3405	NA	NA
A018	line2 response-best	Progressive disease (PD)	Progressive disease	NA	NA	NA	3405	NA	NA
A032	line1 PD	NA	NA	NA	NA	NA	2718	2005-05-11	2005-05-11
A032	line2 drug2	Capmabtinib (INC280) (MET)	Capmabtinib	Others	MET	NA	2718	2005-08-02	2006-01-16
A032	line2 PD	NA	NA	NA	NA	NA	2718	2006-01-15	2006-01-15
A032	line3 drug1	Carboplatin	Carboplatin	Chemotherapy	NA	NA	2718	2006-01-24	2006-06-04
A032	line3 drug2	Pemetrexed (Alimta)	Pemetrexed	Chemotherapy	NA	NA	2718	2006-01-24	2006-06-04
A032	line4 PD	NA	NA	NA	NA	NA	2718	2006-10-24	2006-10-24
A032	line5 drug1	Carboplatin	Carboplatin	Chemotherapy	NA	NA	2718	2006-11-05	2006-11-19
A032	line5 PD	NA	NA	NA	NA	NA	2718	2006-12-07	2006-12-07
A032	line1 response-best	Partial response (PR)	Partial response	NA	NA	NA	2718	NA	NA
A032	line2 response-best	Stable disease (SD)	Stable disease	NA	NA	NA	2718	NA	NA
A032	line3 response-best	Stable disease (SD)	Stable disease	NA	NA	NA	2718	NA	NA
A032	line4 response-best	Progressive disease (PD)	Progressive disease	NA	NA	NA	2718	NA	NA
A032	line5 drug2	Gemcitabine (Gemzar)	Gemcitabine	Chemotherapy	NA	NA	2718	NA	NA
A032	line5 response-best	Progressive disease (PD)	Progressive disease	NA	NA	NA	2718	NA	NA
A038	line1 PD	NA	NA	NA	NA	NA	3235	2004-10-13	2004-10-13
A038	line2 drug1	Cisplatin	Cisplatin	Chemotherapy	NA	NA	3235	2005-02-17	2005-02-17
A038	line2 drug2	Pemetrexed (Alimta)	Pemetrexed	Chemotherapy	NA	NA	3235	2005-02-17	2005-03-16
A038	line2 PD	NA	NA	NA	NA	NA	3235	2005-03-30	2005-03-30
A038	line3 drug1	Carboplatin	Carboplatin	Chemotherapy	NA	NA	3235	2005-04-06	2005-05-11
A038	line3 drug2	Gemcitabine (Gemzar)	Gemcitabine	Chemotherapy	NA	NA	3235	2005-04-06	2005-05-11
A038	line3 PD	NA	NA	NA	NA	NA	3235	2005-05-27	2005-05-27
A038	line4 drug2	"Buparlisib (BKM120, PI3K)"	Buparlisib	Others	PI3K	NA	3235	2005-07-05	2005-07-29
A038	line4 PD	NA	NA	NA	NA	NA	3235	2005-07-28	2005-07-28
A038	line1 response-best	Partial response (PR)	Partial response	NA	NA	NA	3235	NA	NA
A038	line2 response-best	Progressive disease (PD)	Progressive disease	NA	NA	NA	3235	NA	NA
A038	line3 response-best	Progressive disease (PD)	Progressive disease	NA	NA	NA	3235	NA	NA
A038	line4 response-best	Progressive disease (PD)	Progressive disease	NA	NA	NA	3235	NA	NA
A040	line1 drug1	Cisplatin	Cisplatin	Chemotherapy	NA	NA	2639	2003-07-10	2003-09-18
A040	line1 PD	NA	NA	NA	NA	NA	2639	2004-02-16	2004-02-16
A040	line3 PD	NA	NA	NA	NA	NA	2639	2005-05-18	2005-05-18
A040	line4 drug2	"Buparlisib (BKM120, PI3K)"	Buparlisib	Others	PI3K	NA	2639	2005-06-28	2006-04-16
A040	line4 PD	NA	NA	NA	NA	NA	2639	2006-03-02	2006-03-02
A040	line5 drug1	"Buparlisib (BKM120, PI3K)"	Buparlisib	Others	PI3K	NA	2639	2006-07-13	2006-09-06
A040	line5 PD	NA	NA	NA	NA	NA	2639	2006-09-02	2006-09-02
A040	line6 drug1	Carboplatin	Carboplatin	Chemotherapy	NA	NA	2639	2006-09-14	2006-11-23
A040	line6 PD	NA	NA	NA	NA	NA	2639	2006-12-08	2006-12-08
A040	line7 drug1	Carboplatin	Carboplatin	Chemotherapy	NA	NA	2639	2006-12-18	2007-01-25
A040	line7 PD	NA	NA	NA	NA	NA	2639	2007-02-09	2007-02-09
A040	line8 drug1	"Atezolizumab (MPDL3280A, PD-L1)"	Atezolizumab	Others	Immune_PD1	NA	2639	2007-03-22	2007-04-12
A040	line8 PD	NA	NA	NA	NA	NA	2639	2007-05-01	2007-05-01
A040	line1 drug2	Vinorelbine (Navelbine)	Vinorelbine	Chemotherapy	NA	NA	2639	NA	NA
A040	line1 response-best	Partial response (PR)	Partial response	NA	NA	NA	2639	NA	NA
A040	line2 response-best	Partial response (PR)	Partial response	NA	NA	NA	2639	NA	NA
A040	line3 response-best	Progressive disease (PD)	Progressive disease	NA	NA	NA	2639	NA	NA
A040	line4 response-best	Stable disease (SD)	Stable disease	NA	NA	NA	2639	NA	NA
A040	line5 drug2	Binimetinib (MEK162)	Binimetinib	Others	MEK	NA	2639	NA	NA
A040	line5 response-best	Progressive disease (PD)	Progressive disease	NA	NA	NA	2639	NA	NA
A040	line6 drug2	Pemetrexed (Alimta)	Pemetrexed	Chemotherapy	NA	NA	2639	NA	NA
A040	line6 response-best	Progressive disease (PD)	Progressive disease	NA	NA	NA	2639	NA	NA
A040	line7 drug2	Gemcitabine (Gemzar)	Gemcitabine	Chemotherapy	NA	NA	2639	NA	NA
A040	line7 response-best	Progressive disease (PD)	Progressive disease	NA	NA	NA	2639	NA	NA
A040	line8 response-best	Progressive disease (PD)	Progressive disease	NA	NA	NA	2639	NA	NA
A040	line9 response-best	Progressive disease (PD)	Progressive disease	NA	NA	NA	2639	NA	NA
A041	line1 PD	NA	NA	NA	NA	NA	2515	2002-10-22	2002-10-22
A041	line2 drug1	Carboplatin	Carboplatin	Chemotherapy	NA	NA	2515	2003-05-19	2003-10-12
A041	line2 drug2	Gemcitabine (Gemzar)	Gemcitabine	Chemotherapy	NA	NA	2515	2003-05-19	2003-10-12
A041	line2 PD	NA	NA	NA	NA	NA	2515	2004-08-22	2004-08-22
A041	line3 drug1	Docetaxel (Taxotere)	Docetaxel	Chemotherapy	NA	NA	2515	2004-09-05	2004-10-18
A041	line3 PD	NA	NA	NA	NA	NA	2515	2005-05-22	2005-05-22
A041	line4 drug2	"Buparlisib (BKM120, PI3K)"	Buparlisib	Others	PI3K	NA	2515	2005-07-17	2005-10-08
A041	line4 PD	NA	NA	NA	NA	NA	2515	2005-10-04	2005-10-04
A041	line5 drug1	Pemetrexed (Alimta)	Pemetrexed	Chemotherapy	NA	NA	2515	2005-10-22	2006-05-07
A041	line5 PD	NA	NA	NA	NA	NA	2515	2006-05-27	2006-05-27
A041	line6 PD	NA	NA	NA	NA	NA	2515	2006-07-08	2006-07-08
A041	line7 PD	NA	NA	NA	NA	NA	2515	2006-12-23	2006-12-23
A041	line8 drug1	TS-1	TS-1	Chemotherapy	NA	NA	2515	2007-01-22	2007-02-04
A041	line8 PD	NA	NA	NA	NA	NA	2515	2007-02-25	2007-02-25
A041	line1 response-best	Partial response (PR)	Partial response	NA	NA	NA	2515	NA	NA
A041	line2 response-best	Partial response (PR)	Partial response	NA	NA	NA	2515	NA	NA
A041	line3 response-best	Partial response (PR)	Partial response	NA	NA	NA	2515	NA	NA
A041	line4 response-best	Progressive disease (PD)	Progressive disease	NA	NA	NA	2515	NA	NA
A041	line5 response-best	Stable disease (SD)	Stable disease	NA	NA	NA	2515	NA	NA
A041	line6 response-best	Progressive disease (PD)	Progressive disease	NA	NA	NA	2515	NA	NA
A041	line7 response-best	Progressive disease (PD)	Progressive disease	NA	NA	NA	2515	NA	NA
A041	line8 response-best	Progressive disease (PD)	Progressive disease	NA	NA	NA	2515	NA	NA
A042	line1 PD	NA	NA	NA	NA	NA	2516	2005-05-08	2005-05-08
A042	line2 drug2	"Buparlisib (BKM120, PI3K)"	Buparlisib	Others	PI3K	NA	2516	2005-07-15	2005-10-07
A042	line2 PD	NA	NA	NA	NA	NA	2516	2005-10-01	2005-10-01
A042	line3 drug1	Carboplatin	Carboplatin	Chemotherapy	NA	NA	2516	2005-10-14	2005-10-14
A042	line3 drug2	Pemetrexed (Alimta)	Pemetrexed	Chemotherapy	NA	NA	2516	2005-10-14	2005-10-14
A042	line3 PD	NA	NA	NA	NA	NA	2516	2005-10-16	2005-10-16
A042	line1 response-best	Partial response (PR)	Partial response	NA	NA	NA	2516	NA	NA
A042	line2 response-best	Progressive disease (PD)	Progressive disease	NA	NA	NA	2516	NA	NA
A042	line3 response-best	Not Done (ND)	Not Done	NA	NA	NA	2516	NA	NA
A044	line1 drug1	Carboplatin	Carboplatin	Chemotherapy	NA	NA	2668	2002-04-30	2004-05-06
A044	line1 PD	NA	NA	NA	NA	NA	2668	2004-03-25	2004-03-25
A044	line2 drug2	Bevacizumab (Avastin)	Bevacizumab	Others	NA	NA	2668	2004-07-01	2004-09-08
A044	line2 PD	NA	NA	NA	NA	NA	2668	2004-09-21	2004-09-21
A044	line3 PD	NA	NA	NA	NA	NA	2668	2005-01-13	2005-01-13
A044	line4 drug1	Pemetrexed (Alimta)	Pemetrexed	Chemotherapy	NA	NA	2668	2005-02-01	2005-02-25
A044	line4 PD	NA	NA	NA	NA	NA	2668	2005-03-17	2005-03-17
A044	line5 PD	NA	NA	NA	NA	NA	2668	2005-07-13	2005-07-13
A044	line7 PD	NA	NA	NA	NA	NA	2668	2005-08-10	2005-08-10
A044	line8 drug1	"Immuno agent, other"	"Immuno agent, other"	Others	Immune	NA	2668	2005-08-10	2005-11-14
A044	line8 PD	NA	NA	NA	NA	NA	2668	2005-09-13	2005-09-13
A044	line1 drug2	Gemcitabine (Gemzar)	Gemcitabine	Chemotherapy	NA	NA	2668	NA	NA
A044	line1 response-best	Partial response (PR)	Partial response	NA	NA	NA	2668	NA	NA
A044	line2 response-best	Progressive disease (PD)	Progressive disease	NA	NA	NA	2668	NA	NA
A044	line3 response-best	Progressive disease (PD)	Progressive disease	NA	NA	NA	2668	NA	NA
A044	line4 response-best	Progressive disease (PD)	Progressive disease	NA	NA	NA	2668	NA	NA
A044	line5 drug2	"Buparlisib (BKM120, PI3K)"	Buparlisib	Others	PI3K	NA	2668	NA	NA
A044	line5 response-best	Progressive disease (PD)	Progressive disease	NA	NA	NA	2668	NA	NA
A044	line6 response-best	Not Done (ND)	Not Done	NA	NA	NA	2668	NA	NA
A044	line7 response-best	Progressive disease (PD)	Progressive disease	NA	NA	NA	2668	NA	NA
A044	line8 response-best	Progressive disease (PD)	Progressive disease	NA	NA	NA	2668	NA	NA
A047	line1 PD	NA	NA	NA	NA	NA	2892	2005-02-06	2005-02-06
A047	line2 drug1	Carboplatin	Carboplatin	Chemotherapy	NA	NA	2892	2005-02-24	2005-03-17
A047	line2 drug2	Pemetrexed (Alimta)	Pemetrexed	Chemotherapy	NA	NA	2892	2005-02-24	2005-03-17
A047	line2 PD	NA	NA	NA	NA	NA	2892	2005-03-31	2005-03-31
A047	line3 drug1	Carboplatin	Carboplatin	Chemotherapy	NA	NA	2892	2005-04-06	2005-04-14
A047	line3 drug2	Gemcitabine (Gemzar)	Gemcitabine	Chemotherapy	NA	NA	2892	2005-04-06	2005-04-14
A047	line3 PD	NA	NA	NA	NA	NA	2892	2005-05-22	2005-05-22
A047	line4 drug1	"Buparlisib (BKM120, PI3K)"	Buparlisib	Others	PI3K	NA	2892	2005-06-15	2005-07-18
A047	line4 drug2	Binimetinib (MEK162)	Binimetinib	Others	MEK	NA	2892	2005-06-15	2005-07-18
A047	line4 PD	NA	NA	NA	NA	NA	2892	2005-07-17	2005-07-17
A047	line1 response-best	Progressive disease (PD)	Progressive disease	NA	NA	NA	2892	NA	NA
A047	line2 response-best	Progressive disease (PD)	Progressive disease	NA	NA	NA	2892	NA	NA
A047	line3 response-best	Progressive disease (PD)	Progressive disease	NA	NA	NA	2892	NA	NA
A047	line4 response-best	Progressive disease (PD)	Progressive disease	NA	NA	NA	2892	NA	NA
A048	line1 PD	NA	NA	NA	NA	NA	2899	2003-10-05	2003-10-05
A048	line2 drug1	Carboplatin	Carboplatin	Chemotherapy	NA	NA	2899	2003-11-03	2004-02-02
A048	line2 drug2	Gemcitabine (Gemzar)	Gemcitabine	Chemotherapy	NA	NA	2899	2003-11-03	2004-02-02
A048	line2 PD	NA	NA	NA	NA	NA	2899	2005-05-15	2005-05-15
A048	line3 drug2	"Buparlisib (BKM120, PI3K)"	Buparlisib	Others	PI3K	NA	2899	2005-06-19	2006-01-01
A048	line3 PD	NA	NA	NA	NA	NA	2899	2006-02-05	2006-02-05
A048	line4 drug1	Pemetrexed (Alimta)	Pemetrexed	Chemotherapy	NA	NA	2899	2006-02-14	2006-07-31
A048	line4 PD	NA	NA	NA	NA	NA	2899	2006-08-22	2006-08-22
A048	line1 response-best	Partial response (PR)	Partial response	NA	NA	NA	2899	NA	NA
A048	line2 response-best	Stable disease (SD)	Stable disease	NA	NA	NA	2899	NA	NA
A048	line3 response-best	Stable disease (SD)	Stable disease	NA	NA	NA	2899	NA	NA
A048	line4 response-best	Stable disease (SD)	Stable disease	NA	NA	NA	2899	NA	NA
A055	line1 drug1	Carboplatin	Carboplatin	Chemotherapy	NA	NA	2948	2003-08-05	2003-11-18
A055	line1 PD	NA	NA	NA	NA	NA	2948	2004-03-03	2004-03-03
A055	line2 drug1	Carboplatin	Carboplatin	Chemotherapy	NA	NA	2948	2004-03-23	2004-08-31
A055	line2 drug2	Gemcitabine (Gemzar)	Gemcitabine	Chemotherapy	NA	NA	2948	2004-03-23	2004-08-31
A055	line2 PD	NA	NA	NA	NA	NA	2948	2004-09-09	2004-09-09
A055	line3 PD	NA	NA	NA	NA	NA	2948	2005-03-01	2005-03-01
A055	line4 PD	NA	NA	NA	NA	NA	2948	2005-04-26	2005-04-26
A055	line5 PD	NA	NA	NA	NA	NA	2948	2005-08-17	2005-08-17
A055	line6 PD	NA	NA	NA	NA	NA	2948	2005-08-17	2005-08-17
A055	line1 drug2	Pemetrexed (Alimta)	Pemetrexed	Chemotherapy	NA	NA	2948	NA	NA
A055	line1 response-best	Partial response (PR)	Partial response	NA	NA	NA	2948	NA	NA
A055	line2 response-best	Progressive disease (PD)	Progressive disease	NA	NA	NA	2948	NA	NA
A055	line3 response-best	Progressive disease (PD)	Progressive disease	NA	NA	NA	2948	NA	NA
A055	line4 response-best	Progressive disease (PD)	Progressive disease	NA	NA	NA	2948	NA	NA
A055	line5 drug2	"Buparlisib (BKM120, PI3K)"	Buparlisib	Others	PI3K	NA	2948	NA	NA
A055	line5 response-best	Progressive disease (PD)	Progressive disease	NA	NA	NA	2948	NA	NA
A056	line1 drug1	Carboplatin	Carboplatin	Chemotherapy	NA	NA	2961	2004-12-08	2005-05-09
A056	line1 PD	NA	NA	NA	NA	NA	2961	2005-05-25	2005-05-25
A056	line2 drug1	Pemetrexed (Alimta)	Pemetrexed	Chemotherapy	NA	NA	2961	2005-06-22	2005-07-13
A056	line2 PD	NA	NA	NA	NA	NA	2961	2005-07-27	2005-07-27
A056	line1 drug2	Gemcitabine (Gemzar)	Gemcitabine	Chemotherapy	NA	NA	2961	NA	NA
A056	line1 response-best	Partial response (PR)	Partial response	NA	NA	NA	2961	NA	NA
A056	line2 response-best	Progressive disease (PD)	Progressive disease	NA	NA	NA	2961	NA	NA
A056	line3 response-best	Not Done (ND)	Not Done	NA	NA	NA	2961	NA	NA
A057	line1 drug1	Carboplatin	Carboplatin	Chemotherapy	NA	NA	2967	2001-09-06	2002-02-07
A057	line1 PD	NA	NA	NA	NA	NA	2967	2004-04-01	2004-04-01
A057	line2 drug1	Docetaxel (Taxotere)	Docetaxel	Chemotherapy	NA	NA	2967	2004-04-08	2004-09-16
A057	line2 PD	NA	NA	NA	NA	NA	2967	2005-06-07	2005-06-07
A057	line3 drug1	Pemetrexed (Alimta)	Pemetrexed	Chemotherapy	NA	NA	2967	2005-07-12	2005-12-06
A057	line3 PD	NA	NA	NA	NA	NA	2967	2005-12-16	2005-12-16
A057	line4 PD	NA	NA	NA	NA	NA	2967	2006-10-24	2006-10-24
A057	line1 drug2	Gemcitabine (Gemzar)	Gemcitabine	Chemotherapy	NA	NA	2967	NA	NA
A057	line1 response-best	Partial response (PR)	Partial response	NA	NA	NA	2967	NA	NA
A057	line2 response-best	Partial response (PR)	Partial response	NA	NA	NA	2967	NA	NA
A057	line3 response-best	Partial response (PR)	Partial response	NA	NA	NA	2967	NA	NA
A057	line4 response-best	Stable disease (SD)	Stable disease	NA	NA	NA	2967	NA	NA
A058	line1 PD	NA	NA	NA	NA	NA	2971	2005-04-04	2005-04-04
A058	line2 drug1	Carboplatin	Carboplatin	Chemotherapy	NA	NA	2971	2005-07-26	2005-11-22
A058	line2 drug2	Pemetrexed (Alimta)	Pemetrexed	Chemotherapy	NA	NA	2971	2005-07-26	2005-11-22
A058	line2 PD	NA	NA	NA	NA	NA	2971	2005-12-05	2005-12-05
A058	line3 drug1	Cisplatin	Cisplatin	Chemotherapy	NA	NA	2971	2005-12-27	2006-02-07
A058	line3 drug2	Gemcitabine (Gemzar)	Gemcitabine	Chemotherapy	NA	NA	2971	2005-12-27	2006-02-07
A058	line3 PD	NA	NA	NA	NA	NA	2971	2006-02-12	2006-02-12
A058	line4 drug1	Docetaxel (Taxotere)	Docetaxel	Chemotherapy	NA	NA	2971	2006-03-24	2006-04-07
A058	line4 PD	NA	NA	NA	NA	NA	2971	2006-04-20	2006-04-20
A058	line5 PD	NA	NA	NA	NA	NA	2971	2006-05-13	2006-05-13
A058	line1 response-best	Progressive disease (PD)	Progressive disease	NA	NA	NA	2971	NA	NA
A058	line2 response-best	Partial response (PR)	Partial response	NA	NA	NA	2971	NA	NA
A058	line3 response-best	Progressive disease (PD)	Progressive disease	NA	NA	NA	2971	NA	NA
A058	line4 response-best	Progressive disease (PD)	Progressive disease	NA	NA	NA	2971	NA	NA
A058	line5 drug2	"Crizotinib (Xalkori, PF-02341066, MET/ALK/ROS1 inhibitor )"	Crizotinib	Others	MET_ALK_ROS	NA	2971	NA	NA
A058	line5 response-best	Not Done (ND)	Not Done	NA	NA	NA	2971	NA	NA
A060	line1 PD	NA	NA	NA	NA	NA	2990	2004-10-13	2004-10-13
A060	line2 drug1	Cisplatin	Cisplatin	Chemotherapy	NA	NA	2990	2005-01-19	2005-05-11
A060	line2 drug2	Pemetrexed (Alimta)	Pemetrexed	Chemotherapy	NA	NA	2990	2005-01-19	2005-05-11
A060	line2 PD	NA	NA	NA	NA	NA	2990	2005-05-31	2005-05-31
A060	line3 drug1	Carboplatin	Carboplatin	Chemotherapy	NA	NA	2990	2005-06-19	2005-06-26
A060	line3 drug2	Gemcitabine (Gemzar)	Gemcitabine	Chemotherapy	NA	NA	2990	2005-06-19	2005-06-26
A060	line3 PD	NA	NA	NA	NA	NA	2990	2005-07-05	2005-07-05
A060	line4 PD	NA	NA	NA	NA	NA	2990	2005-07-09	2005-07-09
A060	line1 response-best	Progressive disease (PD)	Progressive disease	NA	NA	NA	2990	NA	NA
A060	line2 response-best	Progressive disease (PD)	Progressive disease	NA	NA	NA	2990	NA	NA
A060	line3 response-best	Progressive disease (PD)	Progressive disease	NA	NA	NA	2990	NA	NA
A060	line4 response-best	Not Done (ND)	Not Done	NA	NA	NA	2990	NA	NA
A079	line1 PD	NA	NA	NA	NA	NA	2446	2000-10-28	2000-10-28
A079	line2 drug1	Carboplatin	Carboplatin	Chemotherapy	NA	NA	2446	2001-02-12	2001-06-03
A079	line2 drug2	"Paclitaxel (Anzatax, Taxol)"	Paclitaxel	Chemotherapy	NA	NA	2446	2001-02-12	2001-06-03
A079	line2 PD	NA	NA	NA	NA	NA	2446	2002-05-04	2002-05-04
A079	line3 PD	NA	NA	NA	NA	NA	2446	2002-12-02	2002-12-02
A079	line4 drug1	Pemetrexed (Alimta)	Pemetrexed	Chemotherapy	NA	NA	2446	2002-12-13	2003-05-11
A079	line4 PD	NA	NA	NA	NA	NA	2446	2003-12-13	2003-12-13
A079	line5 drug1	Carboplatin	Carboplatin	Chemotherapy	NA	NA	2446	2004-04-11	2004-07-10
A079	line5 PD	NA	NA	NA	NA	NA	2446	2005-02-05	2005-02-05
A079	line6 PD	NA	NA	NA	NA	NA	2446	2006-05-19	2006-05-19
A079	line7 drug1	Vinorelbine (Navelbine) oral	Vinorelbine	Chemotherapy	NA	NA	2446	2006-06-04	2006-09-20
A079	line7 PD	NA	NA	NA	NA	NA	2446	2006-09-15	2006-09-15
A079	line8 drug1	Docetaxel (Taxotere)	Docetaxel	Chemotherapy	NA	NA	2446	2006-09-29	2007-03-02
A079	line8 PD	NA	NA	NA	NA	NA	2446	2007-03-07	2007-03-07
A079	line9 drug1	Interferon (rSIFN-co)	Interferon	Others	NA	NA	2446	2007-07-13	2007-09-28
A079	line1 response-best	Partial response (PR)	Partial response	NA	NA	NA	2446	NA	NA
A079	line2 response-best	Partial response (PR)	Partial response	NA	NA	NA	2446	NA	NA
A079	line3 response-best	Partial response (PR)	Partial response	NA	NA	NA	2446	NA	NA
A079	line4 response-best	Partial response (PR)	Partial response	NA	NA	NA	2446	NA	NA
A079	line5 drug2	Gemcitabine (Gemzar)	Gemcitabine	Chemotherapy	NA	NA	2446	NA	NA
A079	line5 response-best	Partial response (PR)	Partial response	NA	NA	NA	2446	NA	NA
A079	line6 drug2	"Buparlisib (BKM120, PI3K)"	Buparlisib	Others	PI3K	NA	2446	NA	NA
A079	line6 response-best	Stable disease (SD)	Stable disease	NA	NA	NA	2446	NA	NA
A079	line7 drug2	Sorafenib (Nexavar)	Sorafenib	Others	NA	NA	2446	NA	NA
A079	line7 response-best	Progressive disease (PD)	Progressive disease	NA	NA	NA	2446	NA	NA
A079	line8 response-best	Partial response (PR)	Partial response	NA	NA	NA	2446	NA	NA
A079	line9 response-best	Progressive disease (PD)	Progressive disease	NA	NA	NA	2446	NA	NA
A083	line1 drug1	Cisplatin	Cisplatin	Chemotherapy	NA	NA	2529	2002-05-21	2002-06-17
A083	line1 PD	NA	NA	NA	NA	NA	2529	2002-06-23	2002-06-23
A083	line3 drug2	"Buparlisib (BKM120, PI3K)"	Buparlisib	Others	PI3K	NA	2529	2005-07-02	2005-07-09
A083	line4 drug1	Eribulin (Halaven)	Eribulin	Chemotherapy	NA	NA	2529	2005-09-05	2006-01-02
A083	line2 PD	NA	NA	NA	NA	NA	2529	2006-01-08	2006-01-08
A083	line4 PD	NA	NA	NA	NA	NA	2529	2006-01-08	2006-01-08
A083	line1 drug2	Gemcitabine (Gemzar)	Gemcitabine	Chemotherapy	NA	NA	2529	NA	NA
A083	line1 response-best	Progressive disease (PD)	Progressive disease	NA	NA	NA	2529	NA	NA
A083	line2 response-best	Stable disease (SD)	Stable disease	NA	NA	NA	2529	NA	NA
A083	line3 response-best	Not Done (ND)	Not Done	NA	NA	NA	2529	NA	NA
A083	line4 response-best	Stable disease (SD)	Stable disease	NA	NA	NA	2529	NA	NA
A083	line5 response-best	Not Done (ND)	Not Done	NA	NA	NA	2529	NA	NA
A085	line1 PD	NA	NA	NA	NA	NA	2614	2005-05-28	2005-05-28
A085	line2 drug2	"Buparlisib (BKM120, PI3K)"	Buparlisib	Others	PI3K	NA	2614	2005-06-18	2005-08-14
A085	line2 PD	NA	NA	NA	NA	NA	2614	2005-09-03	2005-09-03
A085	line3 drug1	Carboplatin	Carboplatin	Chemotherapy	NA	NA	2614	2005-09-10	2006-02-03
A085	line3 drug2	Gemcitabine (Gemzar)	Gemcitabine	Chemotherapy	NA	NA	2614	2005-09-10	2006-02-03
A085	line3 PD	NA	NA	NA	NA	NA	2614	2006-02-17	2006-02-17
A085	line4 PD	NA	NA	NA	NA	NA	2614	2006-05-26	2006-05-26
A085	line5 drug1	Pemetrexed (Alimta)	Pemetrexed	Chemotherapy	NA	NA	2614	2006-06-09	2006-08-11
A085	line5 PD	NA	NA	NA	NA	NA	2614	2006-09-29	2006-09-29
A085	line1 response-best	Partial response (PR)	Partial response	NA	NA	NA	2614	NA	NA
A085	line2 response-best	Progressive disease (PD)	Progressive disease	NA	NA	NA	2614	NA	NA
A085	line3 response-best	Partial response (PR)	Partial response	NA	NA	NA	2614	NA	NA
A085	line4 response-best	Progressive disease (PD)	Progressive disease	NA	NA	NA	2614	NA	NA
A085	line5 response-best	Partial response (PR)	Partial response	NA	NA	NA	2614	NA	NA
A087	line1 PD	NA	NA	NA	NA	NA	2661	2004-02-15	2004-02-15
A087	line2 drug1	Carboplatin	Carboplatin	Chemotherapy	NA	NA	2661	2004-05-23	2004-08-29
A087	line2 drug2	Gemcitabine (Gemzar)	Gemcitabine	Chemotherapy	NA	NA	2661	2004-05-23	2004-08-29
A087	line2 PD	NA	NA	NA	NA	NA	2661	2004-09-14	2004-09-14
A087	line3 drug1	Pemetrexed (Alimta)	Pemetrexed	Chemotherapy	NA	NA	2661	2004-09-26	2005-01-19
A087	line3 PD	NA	NA	NA	NA	NA	2661	2005-02-02	2005-02-02
A087	line4 drug1	Docetaxel (Taxotere)	Docetaxel	Chemotherapy	NA	NA	2661	2005-02-23	2005-04-06
A087	line4 PD	NA	NA	NA	NA	NA	2661	2005-04-12	2005-04-12
A087	line5 PD	NA	NA	NA	NA	NA	2661	2005-09-05	2005-09-05
A087	line1 response-best	Partial response (PR)	Partial response	NA	NA	NA	2661	NA	NA
A087	line2 response-best	Progressive disease (PD)	Progressive disease	NA	NA	NA	2661	NA	NA
A087	line3 response-best	Progressive disease (PD)	Progressive disease	NA	NA	NA	2661	NA	NA
A087	line4 response-best	Progressive disease (PD)	Progressive disease	NA	NA	NA	2661	NA	NA
A087	line5 drug2	"Buparlisib (BKM120, PI3K)"	Buparlisib	Others	PI3K	NA	2661	NA	NA
A087	line5 response-best	Progressive disease (PD)	Progressive disease	NA	NA	NA	2661	NA	NA
A089	line1 PD	NA	NA	NA	NA	NA	2711	2004-11-22	2004-11-22
A089	line2 drug1	Carboplatin	Carboplatin	Chemotherapy	NA	NA	2711	2004-12-01	2005-04-24
A089	line2 drug2	Gemcitabine (Gemzar)	Gemcitabine	Chemotherapy	NA	NA	2711	2004-12-01	2005-04-24
A089	line2 PD	NA	NA	NA	NA	NA	2711	2005-05-21	2005-05-21
A089	line3 drug2	"Buparlisib (BKM120, PI3K)"	Buparlisib	Others	PI3K	NA	2711	2005-06-27	2005-10-15
A089	line3 PD	NA	NA	NA	NA	NA	2711	2005-09-13	2005-09-13
A089	line4 drug1	Pemetrexed (Alimta)	Pemetrexed	Chemotherapy	NA	NA	2711	2005-10-22	2005-11-12
A089	line4 PD	NA	NA	NA	NA	NA	2711	2005-11-23	2005-11-23
A089	line5 PD	NA	NA	NA	NA	NA	2711	2006-03-18	2006-03-18
A089	line1 response-best	Progressive disease (PD)	Progressive disease	NA	NA	NA	2711	NA	NA
A089	line2 response-best	Partial response (PR)	Partial response	NA	NA	NA	2711	NA	NA
A089	line3 response-best	Progressive disease (PD)	Progressive disease	NA	NA	NA	2711	NA	NA
A089	line4 response-best	Progressive disease (PD)	Progressive disease	NA	NA	NA	2711	NA	NA
A089	line5 response-best	Not Done (ND)	Not Done	NA	NA	NA	2711	NA	NA
A092	line1 drug1	Cisplatin	Cisplatin	Chemotherapy	NA	NA	2996	2004-09-01	2004-12-24
A092	line1 PD	NA	NA	NA	NA	NA	2996	2005-01-05	2005-01-05
A092	line2 PD	NA	NA	NA	NA	NA	2996	2005-06-01	2005-06-01
A092	line3 drug1	Carboplatin	Carboplatin	Chemotherapy	NA	NA	2996	2005-06-17	2005-11-25
A092	line3 drug2	"Paclitaxel (Anzatax, Taxol)"	Paclitaxel	Chemotherapy	NA	NA	2996	2005-06-17	2005-11-25
A092	line3 PD	NA	NA	NA	NA	NA	2996	2005-12-13	2005-12-13
A092	line1 drug2	Etoposide	Etoposide	Chemotherapy	NA	NA	2996	NA	NA
A092	line1 response-best	Partial response (PR)	Partial response	NA	NA	NA	2996	NA	NA
A092	line2 response-best	Progressive disease (PD)	Progressive disease	NA	NA	NA	2996	NA	NA
A092	line3 response-best	Partial response (PR)	Partial response	NA	NA	NA	2996	NA	NA
A093	line1 PD	NA	NA	NA	NA	NA	3040	2004-08-25	2004-08-25
A093	line2 drug1	Carboplatin	Carboplatin	Chemotherapy	NA	NA	3040	2004-09-08	2004-12-25
A093	line2 drug2	Pemetrexed (Alimta)	Pemetrexed	Chemotherapy	NA	NA	3040	2004-09-08	2005-03-07
A093	line2 PD	NA	NA	NA	NA	NA	3040	2005-03-28	2005-03-28
A093	line3 drug1	Carboplatin	Carboplatin	Chemotherapy	NA	NA	3040	2005-04-04	2005-04-18
A093	line3 drug2	Gemcitabine (Gemzar)	Gemcitabine	Chemotherapy	NA	NA	3040	2005-04-04	2005-05-16
A093	line3 PD	NA	NA	NA	NA	NA	3040	2005-05-23	2005-05-23
A093	line4 drug2	"Buparlisib (BKM120, PI3K)"	Buparlisib	Others	PI3K	NA	3040	2005-07-16	2005-08-27
A093	line4 PD	NA	NA	NA	NA	NA	3040	2005-09-10	2005-09-10
A093	line1 response-best	Partial response (PR)	Partial response	NA	NA	NA	3040	NA	NA
A093	line2 response-best	Stable disease (SD)	Stable disease	NA	NA	NA	3040	NA	NA
A093	line3 response-best	Progressive disease (PD)	Progressive disease	NA	NA	NA	3040	NA	NA
A093	line4 response-best	Progressive disease (PD)	Progressive disease	NA	NA	NA	3040	NA	NA
A096	line1 PD	NA	NA	NA	NA	NA	3066	2004-04-21	2004-04-21
A096	line2 drug1	Carboplatin	Carboplatin	Chemotherapy	NA	NA	3066	2004-05-17	2004-10-18
A096	line2 drug2	Gemcitabine (Gemzar)	Gemcitabine	Chemotherapy	NA	NA	3066	2004-05-17	2004-10-18
A096	line2 PD	NA	NA	NA	NA	NA	3066	2005-05-23	2005-05-23
A096	line3 drug2	"Buparlisib (BKM120, PI3K)"	Buparlisib	Others	PI3K	NA	3066	2005-06-15	2007-01-28
A096	line3 PD	NA	NA	NA	NA	NA	3066	2007-01-22	2007-01-22
A096	line4 PD	NA	NA	NA	NA	NA	3066	2009-04-29	2009-04-29
A096	line5 drug1	Nivolumab (BMS-936558)(PD-1)	Nivolumab	Others	Immune_PD1	NA	3066	2009-05-20	2010-02-15
A096	line1 response-best	Partial response (PR)	Partial response	NA	NA	NA	3066	NA	NA
A096	line2 response-best	Partial response (PR)	Partial response	NA	NA	NA	3066	NA	NA
A096	line3 response-best	Stable disease (SD)	Stable disease	NA	NA	NA	3066	NA	NA
A096	line4 response-best	Partial response (PR)	Partial response	NA	NA	NA	3066	NA	NA
A096	line5 drug2	"Ipilimumab (MDX-010, MDX-101, Yervoy) (CTLA-4)"	Ipilimumab	Others	Immune_CTLA4	NA	3066	NA	NA
A096	line5 response-best	Stable disease (SD)	Stable disease	NA	NA	NA	3066	NA	NA
A096	line6 response-best	Progressive disease (PD)	Progressive disease	NA	NA	NA	3066	NA	NA
A097	line1 PD	NA	NA	NA	NA	NA	3075	2004-11-10	2004-11-10
A097	line2 drug1	Carboplatin	Carboplatin	Chemotherapy	NA	NA	3075	2005-01-08	2005-02-17
A097	line2 drug2	Gemcitabine (Gemzar)	Gemcitabine	Chemotherapy	NA	NA	3075	2005-01-08	2005-02-17
A097	line2 PD	NA	NA	NA	NA	NA	3075	2005-04-02	2005-04-02
A097	line3 drug1	Pemetrexed (Alimta)	Pemetrexed	Chemotherapy	NA	NA	3075	2005-04-23	2005-05-14
A097	line3 PD	NA	NA	NA	NA	NA	3075	2005-05-28	2005-05-28
A097	line4 drug2	"Buparlisib (BKM120, PI3K)"	Buparlisib	Others	PI3K	NA	3075	2005-06-18	2005-11-16
A097	line4 PD	NA	NA	NA	NA	NA	3075	2005-11-20	2005-11-20
A097	line1 response-best	Partial response (PR)	Partial response	NA	NA	NA	3075	NA	NA
A097	line2 response-best	Progressive disease (PD)	Progressive disease	NA	NA	NA	3075	NA	NA
A097	line3 response-best	Progressive disease (PD)	Progressive disease	NA	NA	NA	3075	NA	NA
A097	line4 response-best	Partial response (PR)	Partial response	NA	NA	NA	3075	NA	NA
A138	line1 PD	NA	NA	NA	NA	NA	3683	2005-05-25	2005-05-25
A138	line2 PD	NA	NA	NA	NA	NA	3683	2006-07-24	2006-07-24
A138	line1 response-best	Stable disease (SD)	Stable disease	NA	NA	NA	3683	NA	NA
A138	line2 response-best	Partial response (PR)	Partial response	NA	NA	NA	3683	NA	NA
A138	line3 response-best	Not Done (ND)	Not Done	NA	NA	NA	3683	NA	NA
A151	line1 drug1	Carboplatin	Carboplatin	Chemotherapy	NA	NA	3424	2004-02-29	2004-04-04
A151	line1 PD	NA	NA	NA	NA	NA	3424	2004-04-29	2004-04-29
A151	line2 drug1	Cisplatin	Cisplatin	Chemotherapy	NA	NA	3424	2004-05-02	2004-08-22
A151	line2 drug2	Gemcitabine (Gemzar)	Gemcitabine	Chemotherapy	NA	NA	3424	2004-05-02	2004-08-22
A151	line2 PD	NA	NA	NA	NA	NA	3424	2004-08-19	2004-08-19
A151	line3 drug1	Carboplatin	Carboplatin	Chemotherapy	NA	NA	3424	2004-08-31	2005-01-30
A151	line3 drug2	"Paclitaxel (Anzatax, Taxol)"	Paclitaxel	Chemotherapy	NA	NA	3424	2004-08-31	2005-01-30
A151	line3 PD	NA	NA	NA	NA	NA	3424	2005-03-28	2005-03-28
A151	line4 PD	NA	NA	NA	NA	NA	3424	2006-07-18	2006-07-18
A151	line1 drug2	Pemetrexed (Alimta)	Pemetrexed	Chemotherapy	NA	NA	3424	NA	NA
A151	line1 response-best	Progressive disease (PD)	Progressive disease	NA	NA	NA	3424	NA	NA
A151	line2 response-best	Progressive disease (PD)	Progressive disease	NA	NA	NA	3424	NA	NA
A151	line3 response-best	Stable disease (SD)	Stable disease	NA	NA	NA	3424	NA	NA
A151	line4 response-best	Partial response (PR)	Partial response	NA	NA	NA	3424	NA	NA
A152	line1 drug1	Cisplatin	Cisplatin	Chemotherapy	NA	NA	3443	2002-01-08	2002-03-12
A152	line1 PD	NA	NA	NA	NA	NA	3443	2004-04-13	2004-04-13
A152	line2 drug1	Pemetrexed (Alimta)	Pemetrexed	Chemotherapy	NA	NA	3443	2004-04-28	2005-05-14
A152	line2 PD	NA	NA	NA	NA	NA	3443	2006-03-02	2006-03-02
A152	line1 drug2	Gemcitabine (Gemzar)	Gemcitabine	Chemotherapy	NA	NA	3443	NA	NA
A152	line1 response-best	Partial response (PR)	Partial response	NA	NA	NA	3443	NA	NA
A152	line2 response-best	Partial response (PR)	Partial response	NA	NA	NA	3443	NA	NA
A152	line3 response-best	Partial response (PR)	Partial response	NA	NA	NA	3443	NA	NA
A180	line1 drug1	Carboplatin	Carboplatin	Chemotherapy	NA	NA	3475	2001-02-08	2001-06-10
A180	line1 drug3	Bevacizumab (Avastin)	Bevacizumab	Others	NA	NA	3475	2001-02-08	2001-06-10
A180	line2 PD	NA	NA	NA	NA	NA	3475	2004-04-09	2004-04-09
A180	line3 drug1	Abraxane (NAB-Paclitaxel)	Abraxane	Chemotherapy	NA	NA	3475	2004-04-23	2004-06-04
A180	line3 PD	NA	NA	NA	NA	NA	3475	2004-06-01	2004-06-01
A180	line4 drug2	"Cetuximab (Erbitux, EGFR)"	Cetuximab	Others	EGFR_monoclonal_antibody	NA	3475	2004-06-10	2005-06-05
A180	line4 PD	NA	NA	NA	NA	NA	3475	2005-06-05	2005-06-05
A180	line5 PD	NA	NA	NA	NA	NA	3475	2006-09-08	2006-09-08
A180	line1 drug2	Pemetrexed (Alimta)	Pemetrexed	Chemotherapy	NA	NA	3475	NA	NA
A180	line1 response-best	Partial response (PR)	Partial response	NA	NA	NA	3475	NA	NA
A180	line2 response-best	Partial response (PR)	Partial response	NA	NA	NA	3475	NA	NA
A180	line3 response-best	Progressive disease (PD)	Progressive disease	NA	NA	NA	3475	NA	NA
A180	line4 response-best	Partial response (PR)	Partial response	NA	NA	NA	3475	NA	NA
A180	line5 response-best	Partial response (PR)	Partial response	NA	NA	NA	3475	NA	NA
A244	line1 drug1	Carboplatin	Carboplatin	Chemotherapy	NA	NA	3628	2002-11-28	2003-04-17
A244	line2 drug1	Pemetrexed (Alimta)	Pemetrexed	Chemotherapy	NA	NA	3628	2003-05-08	2004-01-22
A244	line2 PD	NA	NA	NA	NA	NA	3628	2004-01-29	2004-01-29
A244	line3 drug1	Docetaxel (Taxotere)	Docetaxel	Chemotherapy	NA	NA	3628	2004-03-09	2004-03-23
A244	line4 PD	NA	NA	NA	NA	NA	3628	2005-05-31	2005-05-31
A244	line5 PD	NA	NA	NA	NA	NA	3628	2005-09-21	2005-09-21
A244	line1 drug2	Gemcitabine (Gemzar)	Gemcitabine	Chemotherapy	NA	NA	3628	NA	NA
A244	line1 response-best	Partial response (PR)	Partial response	NA	NA	NA	3628	NA	NA
A244	line2 response-best	Stable disease (SD)	Stable disease	NA	NA	NA	3628	NA	NA
A244	line3 response-best	Not Done (ND)	Not Done	NA	NA	NA	3628	NA	NA
A244	line4 response-best	Partial response (PR)	Partial response	NA	NA	NA	3628	NA	NA
A244	line5 response-best	Progressive disease (PD)	Progressive disease	NA	NA	NA	3628	NA	NA
A256	line1 PD	NA	NA	NA	NA	NA	3326	2003-04-21	2003-04-21
A256	line2 drug1	Cisplatin	Cisplatin	Chemotherapy	NA	NA	3326	2003-06-15	2003-08-14
A256	line2 drug2	Pemetrexed (Alimta)	Pemetrexed	Chemotherapy	NA	NA	3326	2003-06-15	2004-02-20
A256	line2 PD	NA	NA	NA	NA	NA	3326	2004-03-03	2004-03-03
A256	line3 drug1	Pemetrexed (Alimta)	Pemetrexed	Chemotherapy	NA	NA	3326	2004-03-29	2004-03-29
A256	line3 PD	NA	NA	NA	NA	NA	3326	2004-05-12	2004-05-12
A256	line4 drug1	Carboplatin	Carboplatin	Chemotherapy	NA	NA	3326	2004-05-24	2004-05-24
A256	line4 drug2	Gemcitabine (Gemzar)	Gemcitabine	Chemotherapy	NA	NA	3326	2004-05-24	2004-05-24
A256	line5 PD	NA	NA	NA	NA	NA	3326	2004-07-28	2004-07-28
A256	line6 drug1	Carboplatin	Carboplatin	Chemotherapy	NA	NA	3326	2005-04-21	2005-05-10
A256	line6 PD	NA	NA	NA	NA	NA	3326	2005-05-26	2005-05-26
A256	line7 drug1	"Paclitaxel (Anzatax, Taxol)"	Paclitaxel	Chemotherapy	NA	NA	3326	2005-08-01	2005-11-17
A256	line7 PD	NA	NA	NA	NA	NA	3326	2005-11-20	2005-11-20
A256	line8 drug1	"Paclitaxel (Anzatax, Taxol)"	Paclitaxel	Chemotherapy	NA	NA	3326	2005-12-01	2006-01-15
A256	line8 PD	NA	NA	NA	NA	NA	3326	2006-01-20	2006-01-20
A256	line1 response-best	Progressive disease (PD)	Progressive disease	NA	NA	NA	3326	NA	NA
A256	line2 response-best	Partial response (PR)	Partial response	NA	NA	NA	3326	NA	NA
A256	line3 response-best	Progressive disease (PD)	Progressive disease	NA	NA	NA	3326	NA	NA
A256	line4 response-best	Not Done (ND)	Not Done	NA	NA	NA	3326	NA	NA
A256	line5 response-best	Progressive disease (PD)	Progressive disease	NA	NA	NA	3326	NA	NA
A256	line6 drug2	Pemetrexed (Alimta)	Pemetrexed	Chemotherapy	NA	NA	3326	NA	NA
A256	line6 response-best	Progressive disease (PD)	Progressive disease	NA	NA	NA	3326	NA	NA
A256	line7 response-best	Progressive disease (PD)	Progressive disease	NA	NA	NA	3326	NA	NA
A256	line8 response-best	Progressive disease (PD)	Progressive disease	NA	NA	NA	3326	NA	NA
A256	line9 response-best	Progressive disease (PD)	Progressive disease	NA	NA	NA	3326	NA	NA
A317	line1 drug1	Carboplatin	Carboplatin	Chemotherapy	NA	NA	3730	2004-10-06	2004-10-13
A317	line2 PD	NA	NA	NA	NA	NA	3730	2005-02-18	2005-02-18
A317	line3 PD	NA	NA	NA	NA	NA	3730	2005-04-28	2005-04-28
A317	line4 PD	NA	NA	NA	NA	NA	3730	2006-02-19	2006-02-19
A317	line5 drug1	"Pembrolizumab (lambrolizumab, Keytruda, MK-3475)(PD-1)"	Pembrolizumab	Others	Immune_PD1	NA	3730	2006-03-03	2006-05-13
A317	line5 PD	NA	NA	NA	NA	NA	3730	2006-04-14	2006-04-14
A317	line6 drug1	Carboplatin	Carboplatin	Chemotherapy	NA	NA	3730	2006-06-09	2006-06-09
A317	line6 PD	NA	NA	NA	NA	NA	3730	2006-06-13	2006-06-13
A317	line1 drug2	Gemcitabine (Gemzar)	Gemcitabine	Chemotherapy	NA	NA	3730	NA	NA
A317	line1 response-best	Not Done (ND)	Not Done	NA	NA	NA	3730	NA	NA
A317	line2 response-best	Partial response (PR)	Partial response	NA	NA	NA	3730	NA	NA
A317	line3 response-best	Progressive disease (PD)	Progressive disease	NA	NA	NA	3730	NA	NA
A317	line4 response-best	Partial response (PR)	Partial response	NA	NA	NA	3730	NA	NA
A317	line5 response-best	Progressive disease (PD)	Progressive disease	NA	NA	NA	3730	NA	NA
A317	line6 drug2	Pemetrexed (Alimta)	Pemetrexed	Chemotherapy	NA	NA	3730	NA	NA
A317	line6 response-best	Progressive disease (PD)	Progressive disease	NA	NA	NA	3730	NA	NA
A436	line1 PD	NA	NA	NA	NA	NA	3088	2003-07-27	2003-07-27
A436	line2 drug1	Vinorelbine (Navelbine) oral	Vinorelbine	Chemotherapy	NA	NA	3088	2003-08-26	2003-10-18
A436	line2 drug2	Sorafenib (Nexavar)	Sorafenib	Others	NA	NA	3088	2003-08-26	2003-10-18
A436	line2 PD	NA	NA	NA	NA	NA	3088	2003-10-14	2003-10-14
A436	line3 drug1	Carboplatin	Carboplatin	Chemotherapy	NA	NA	3088	2003-12-05	2004-03-17
A436	line3 drug2	Gemcitabine (Gemzar)	Gemcitabine	Chemotherapy	NA	NA	3088	2003-12-05	2004-03-17
A436	line3 PD	NA	NA	NA	NA	NA	3088	2004-06-30	2004-06-30
A436	line4 drug1	Pemetrexed (Alimta)	Pemetrexed	Chemotherapy	NA	NA	3088	2004-07-14	2004-08-04
A436	line4 PD	NA	NA	NA	NA	NA	3088	2004-09-03	2004-09-03
A436	line5 drug1	Vinorelbine (Navelbine) oral	Vinorelbine	Chemotherapy	NA	NA	3088	2004-09-08	2005-03-30
A436	line5 PD	NA	NA	NA	NA	NA	3088	2005-04-20	2005-04-20
A436	line6 drug1	TS-1	TS-1	Chemotherapy	NA	NA	3088	2005-04-27	2005-05-11
A436	line6 PD	NA	NA	NA	NA	NA	3088	2005-06-23	2005-06-23
A436	line7 drug1	Carboplatin	Carboplatin	Chemotherapy	NA	NA	3088	2005-07-07	2005-07-07
A436	line8 drug1	Carboplatin	Carboplatin	Chemotherapy	NA	NA	3088	2005-07-27	2005-08-10
A436	line8 PD	NA	NA	NA	NA	NA	3088	2005-09-18	2005-09-18
A436	line1 drug2	"SCH 900105 (AV-299, HGF)"	SCH 900105	Others	"AV-299, HGF"	NA	3088	NA	NA
A436	line1 response-best	Partial response (PR)	Partial response	NA	NA	NA	3088	NA	NA
A436	line2 response-best	Progressive disease (PD)	Progressive disease	NA	NA	NA	3088	NA	NA
A436	line3 response-best	Stable disease (SD)	Stable disease	NA	NA	NA	3088	NA	NA
A436	line4 response-best	Progressive disease (PD)	Progressive disease	NA	NA	NA	3088	NA	NA
A436	line5 response-best	Stable disease (SD)	Stable disease	NA	NA	NA	3088	NA	NA
A436	line6 response-best	Progressive disease (PD)	Progressive disease	NA	NA	NA	3088	NA	NA
A436	line7 drug2	Pemetrexed (Alimta)	Pemetrexed	Chemotherapy	NA	NA	3088	NA	NA
A436	line7 response-best	Not Done (ND)	Not Done	NA	NA	NA	3088	NA	NA
A436	line8 response-best	Stable disease (SD)	Stable disease	NA	NA	NA	3088	NA	NA
A438	line1 PD	NA	NA	NA	NA	NA	3145	2005-06-12	2005-06-12
A438	line2 drug1	Carboplatin	Carboplatin	Chemotherapy	NA	NA	3145	2005-07-27	2005-09-06
A438	line2 drug2	Pemetrexed (Alimta)	Pemetrexed	Chemotherapy	NA	NA	3145	2005-07-27	2005-09-06
A438	line2 PD	NA	NA	NA	NA	NA	3145	2005-09-14	2005-09-14
A438	line3 drug2	"Buparlisib (BKM120, PI3K)"	Buparlisib	Others	PI3K	NA	3145	2005-11-13	2005-12-24
A438	line1 response-best	Partial response (PR)	Partial response	NA	NA	NA	3145	NA	NA
A438	line2 response-best	Progressive disease (PD)	Progressive disease	NA	NA	NA	3145	NA	NA
A438	line3 response-best	Stable disease (SD)	Stable disease	NA	NA	NA	3145	NA	NA
A440	line1 PD	NA	NA	NA	NA	NA	3166	2004-03-16	2004-03-16
A440	line2 drug1	Pemetrexed (Alimta)	Pemetrexed	Chemotherapy	NA	NA	3166	2004-04-18	2004-06-22
A440	line2 PD	NA	NA	NA	NA	NA	3166	2004-07-07	2004-07-07
A440	line3 drug1	Carboplatin	Carboplatin	Chemotherapy	NA	NA	3166	2004-07-20	2004-12-14
A440	line3 drug2	Gemcitabine (Gemzar)	Gemcitabine	Chemotherapy	NA	NA	3166	2004-07-20	2004-12-14
A440	line3 PD	NA	NA	NA	NA	NA	3166	2004-10-20	2004-10-20
A440	line4 PD	NA	NA	NA	NA	NA	3166	2005-04-23	2005-04-23
A440	line5 drug1	Carboplatin	Carboplatin	Chemotherapy	NA	NA	3166	2005-05-10	2005-08-28
A440	line5 PD	NA	NA	NA	NA	NA	3166	2005-09-03	2005-09-03
A440	line6 PD	NA	NA	NA	NA	NA	3166	2005-12-27	2005-12-27
A440	line7 drug1	Vinorelbine (Navelbine) oral	Vinorelbine	Chemotherapy	NA	NA	3166	2006-01-30	2006-02-27
A440	line7 PD	NA	NA	NA	NA	NA	3166	2006-02-28	2006-02-28
A440	line1 response-best	Partial response (PR)	Partial response	NA	NA	NA	3166	NA	NA
A440	line2 response-best	Progressive disease (PD)	Progressive disease	NA	NA	NA	3166	NA	NA
A440	line3 response-best	Progressive disease (PD)	Progressive disease	NA	NA	NA	3166	NA	NA
A440	line4 response-best	Progressive disease (PD)	Progressive disease	NA	NA	NA	3166	NA	NA
A440	line5 drug2	Docetaxel (Taxotere)	Docetaxel	Chemotherapy	NA	NA	3166	NA	NA
A440	line5 response-best	Progressive disease (PD)	Progressive disease	NA	NA	NA	3166	NA	NA
A440	line6 drug2	"Buparlisib (BKM120, PI3K)"	Buparlisib	Others	PI3K	NA	3166	NA	NA
A440	line6 response-best	Stable disease (SD)	Stable disease	NA	NA	NA	3166	NA	NA
A440	line7 response-best	Progressive disease (PD)	Progressive disease	NA	NA	NA	3166	NA	NA
A441	line1 drug1	Carboplatin	Carboplatin	Chemotherapy	NA	NA	3683	2002-11-26	2003-04-23
A441	line1 PD	NA	NA	NA	NA	NA	3683	2003-03-11	2003-03-11
A441	line2 drug1	Pemetrexed (Alimta)	Pemetrexed	Chemotherapy	NA	NA	3683	2003-05-20	2003-12-23
A441	line2 PD	NA	NA	NA	NA	NA	3683	2004-01-13	2004-01-13
A441	line3 PD	NA	NA	NA	NA	NA	3683	2004-05-04	2004-05-04
A441	line4 PD	NA	NA	NA	NA	NA	3683	2005-05-23	2005-05-23
A441	line5 PD	NA	NA	NA	NA	NA	3683	2005-11-15	2005-11-15
A441	line6 drug1	"Pembrolizumab (lambrolizumab, Keytruda, MK-3475)(PD-1)"	Pembrolizumab	Others	Immune_PD1	NA	3683	2005-12-19	2006-01-10
A441	line6 PD	NA	NA	NA	NA	NA	3683	2006-01-23	2006-01-23
A441	line7 PD	NA	NA	NA	NA	NA	3683	2006-11-23	2006-11-23
A441	line1 drug2	Gemcitabine (Gemzar)	Gemcitabine	Chemotherapy	NA	NA	3683	NA	NA
A441	line1 response-best	Progressive disease (PD)	Progressive disease	NA	NA	NA	3683	NA	NA
A441	line2 response-best	Stable disease (SD)	Stable disease	NA	NA	NA	3683	NA	NA
A441	line3 response-best	Progressive disease (PD)	Progressive disease	NA	NA	NA	3683	NA	NA
A441	line4 response-best	Partial response (PR)	Partial response	NA	NA	NA	3683	NA	NA
A441	line5 drug2	BI 836845 (IGF-1)	BI 836845	Others	IGF1	NA	3683	NA	NA
A441	line5 response-best	Stable disease (SD)	Stable disease	NA	NA	NA	3683	NA	NA
A441	line6 response-best	Progressive disease (PD)	Progressive disease	NA	NA	NA	3683	NA	NA
A441	line7 drug2	"Crizotinib (Xalkori, PF-02341066, MET/ALK/ROS1 inhibitor )"	Crizotinib	Others	MET_ALK_ROS	NA	3683	NA	NA
A441	line7 response-best	Partial response (PR)	Partial response	NA	NA	NA	3683	NA	NA
A442	line1 PD	NA	NA	NA	NA	NA	3187	2005-04-27	2005-04-27
A442	line2 drug2	"Buparlisib (BKM120, PI3K)"	Buparlisib	Others	PI3K	NA	3187	2005-06-18	2006-04-19
A442	line2 PD	NA	NA	NA	NA	NA	3187	2006-04-17	2006-04-17
A442	line3 drug1	Carboplatin	Carboplatin	Chemotherapy	NA	NA	3187	2006-05-06	2006-05-27
A442	line3 drug2	Pemetrexed (Alimta)	Pemetrexed	Chemotherapy	NA	NA	3187	2006-05-06	2006-05-27
A442	line3 PD	NA	NA	NA	NA	NA	3187	2006-07-01	2006-07-01
A442	line1 response-best	Partial response (PR)	Partial response	NA	NA	NA	3187	NA	NA
A442	line2 response-best	Stable disease (SD)	Stable disease	NA	NA	NA	3187	NA	NA
A442	line3 response-best	Not Done (ND)	Not Done	NA	NA	NA	3187	NA	NA
A443	line1 PD	NA	NA	NA	NA	NA	3201	2004-09-25	2004-09-25
A443	line2 drug1	Cisplatin	Cisplatin	Chemotherapy	NA	NA	3201	2004-12-18	2005-02-19
A443	line2 drug2	Pemetrexed (Alimta)	Pemetrexed	Chemotherapy	NA	NA	3201	2004-12-18	2005-04-16
A443	line3 drug2	"Buparlisib (BKM120, PI3K)"	Buparlisib	Others	PI3K	NA	3201	2005-06-18	2005-09-10
A443	line3 PD	NA	NA	NA	NA	NA	3201	2005-09-07	2005-09-07
A443	line4 PD	NA	NA	NA	NA	NA	3201	2006-07-10	2006-07-10
A443	line5 PD	NA	NA	NA	NA	NA	3201	2006-11-07	2006-11-07
A443	line1 response-best	Partial response (PR)	Partial response	NA	NA	NA	3201	NA	NA
A443	line2 response-best	Stable disease (SD)	Stable disease	NA	NA	NA	3201	NA	NA
A443	line3 response-best	Progressive disease (PD)	Progressive disease	NA	NA	NA	3201	NA	NA
A443	line4 response-best	Partial response (PR)	Partial response	NA	NA	NA	3201	NA	NA
A443	line5 response-best	Progressive disease (PD)	Progressive disease	NA	NA	NA	3201	NA	NA
A443	line6 drug2	Bevacizumab (Avastin)	Bevacizumab	Others	NA	NA	3201	NA	NA
A443	line6 response-best	Not Done (ND)	Not Done	NA	NA	NA	3201	NA	NA
A448	line1 PD	NA	NA	NA	NA	NA	3319	2005-06-07	2005-06-07
A448	line2 drug1	Cisplatin	Cisplatin	Chemotherapy	NA	NA	3319	2005-06-15	2005-08-16
A448	line2 drug2	Pemetrexed (Alimta)	Pemetrexed	Chemotherapy	NA	NA	3319	2005-06-15	2005-09-27
A448	line2 PD	NA	NA	NA	NA	NA	3319	2005-10-10	2005-10-10
A448	line1 response-best	Partial response (PR)	Partial response	NA	NA	NA	3319	NA	NA
A448	line2 response-best	Partial response (PR)	Partial response	NA	NA	NA	3319	NA	NA
A449	line2 drug1	Cisplatin	Cisplatin	Chemotherapy	NA	NA	3319	2004-08-22	2004-11-14
A449	line2 drug2	Pemetrexed (Alimta)	Pemetrexed	Chemotherapy	NA	NA	3319	2004-08-22	2005-01-23
A449	line3 drug1	Gemcitabine (Gemzar)	Gemcitabine	Chemotherapy	NA	NA	3319	2005-01-26	2005-02-16
A449	line3 drug2	Vinorelbine (Navelbine)	Vinorelbine	Chemotherapy	NA	NA	3319	2005-01-26	2005-02-16
A449	line4 drug1	Docetaxel (Taxotere)	Docetaxel	Chemotherapy	NA	NA	3319	2005-02-23	2005-05-18
A449	line4 PD	NA	NA	NA	NA	NA	3319	2005-05-19	2005-05-19
A449	line5 PD	NA	NA	NA	NA	NA	3319	2005-07-21	2005-07-21
A449	line6 PD	NA	NA	NA	NA	NA	3319	2005-11-10	2005-11-10
A449	line1 response-best	Partial response (PR)	Partial response	NA	NA	NA	3319	NA	NA
A449	line2 response-best	Partial response (PR)	Partial response	NA	NA	NA	3319	NA	NA
A449	line3 response-best	Not Done (ND)	Not Done	NA	NA	NA	3319	NA	NA
A449	line4 response-best	Progressive disease (PD)	Progressive disease	NA	NA	NA	3319	NA	NA
A449	line5 drug2	"Cetuximab (Erbitux, EGFR)"	Cetuximab	Others	EGFR_monoclonal_antibody	NA	3319	NA	NA
A449	line5 response-best	Progressive disease (PD)	Progressive disease	NA	NA	NA	3319	NA	NA
A449	line6 response-best	Progressive disease (PD)	Progressive disease	NA	NA	NA	3319	NA	NA
A450	line1 PD	NA	NA	NA	NA	NA	3594	2004-05-14	2004-05-14
A450	line2 drug1	Vinorelbine (Navelbine)	Vinorelbine	Chemotherapy	NA	NA	3594	2004-09-20	2005-06-26
A450	line2 PD	NA	NA	NA	NA	NA	3594	2005-06-04	2005-06-04
A450	line3 drug2	"Buparlisib (BKM120, PI3K)"	Buparlisib	Others	PI3K	NA	3594	2005-07-11	2005-10-14
A450	line3 PD	NA	NA	NA	NA	NA	3594	2005-10-14	2005-10-14
A450	line4 drug1	Carboplatin	Carboplatin	Chemotherapy	NA	NA	3594	2005-10-28	2005-11-05
A450	line4 drug2	Gemcitabine (Gemzar)	Gemcitabine	Chemotherapy	NA	NA	3594	2005-10-28	2005-11-05
A450	line1 response-best	Partial response (PR)	Partial response	NA	NA	NA	3594	NA	NA
A450	line2 response-best	Partial response (PR)	Partial response	NA	NA	NA	3594	NA	NA
A450	line3 response-best	Progressive disease (PD)	Progressive disease	NA	NA	NA	3594	NA	NA
A450	line4 response-best	Not Done (ND)	Not Done	NA	NA	NA	3594	NA	NA
A451	line1 PD	NA	NA	NA	NA	NA	3326	2005-01-02	2005-01-02
A451	line2 drug1	Carboplatin	Carboplatin	Chemotherapy	NA	NA	3326	2005-01-09	2005-02-20
A451	line2 drug2	Gemcitabine (Gemzar)	Gemcitabine	Chemotherapy	NA	NA	3326	2005-01-09	2005-02-20
A451	line2 PD	NA	NA	NA	NA	NA	3326	2005-02-27	2005-02-27
A451	line3 drug1	Pemetrexed (Alimta)	Pemetrexed	Chemotherapy	NA	NA	3326	2005-03-13	2005-05-15
A451	line3 PD	NA	NA	NA	NA	NA	3326	2005-05-29	2005-05-29
A451	line4 PD	NA	NA	NA	NA	NA	3326	2007-05-07	2007-05-07
A451	line5 PD	NA	NA	NA	NA	NA	3326	2007-08-13	2007-08-13
A451	line1 response-best	Progressive disease (PD)	Progressive disease	NA	NA	NA	3326	NA	NA
A451	line2 response-best	Progressive disease (PD)	Progressive disease	NA	NA	NA	3326	NA	NA
A451	line3 response-best	Progressive disease (PD)	Progressive disease	NA	NA	NA	3326	NA	NA
A451	line4 response-best	Partial response (PR)	Partial response	NA	NA	NA	3326	NA	NA
A451	line5 response-best	Progressive disease (PD)	Progressive disease	NA	NA	NA	3326	NA	NA
A452	line1 PD	NA	NA	NA	NA	NA	3328	2000-01-17	2000-01-17
A452	line2 drug1	Carboplatin	Carboplatin	Chemotherapy	NA	NA	3328	2000-02-01	2000-02-08
A452	line2 drug2	Gemcitabine (Gemzar)	Gemcitabine	Chemotherapy	NA	NA	3328	2000-02-01	2000-02-08
A452	line2 PD	NA	NA	NA	NA	NA	3328	2000-03-07	2000-03-07
A452	line3 drug1	Docetaxel (Taxotere)	Docetaxel	Chemotherapy	NA	NA	3328	2000-03-14	2000-06-13
A452	line3 drug2	Bevacizumab (Avastin)	Bevacizumab	Others	NA	NA	3328	2000-03-14	2000-05-31
A452	line4 drug2	Bevacizumab (Avastin)	Bevacizumab	Others	NA	NA	3328	2000-06-26	2000-07-21
A452	line4 PD	NA	NA	NA	NA	NA	3328	2004-11-22	2004-11-22
A452	line5 drug1	Cisplatin	Cisplatin	Chemotherapy	NA	NA	3328	2004-12-03	2005-02-05
A452	line5 PD	NA	NA	NA	NA	NA	3328	2005-04-24	2005-04-24
A452	line6 PD	NA	NA	NA	NA	NA	3328	2005-10-14	2005-10-14
A452	line1 response-best	Progressive disease (PD)	Progressive disease	NA	NA	NA	3328	NA	NA
A452	line2 response-best	Progressive disease (PD)	Progressive disease	NA	NA	NA	3328	NA	NA
A452	line3 response-best	Partial response (PR)	Partial response	NA	NA	NA	3328	NA	NA
A452	line4 response-best	Stable disease (SD)	Stable disease	NA	NA	NA	3328	NA	NA
A452	line5 drug2	Pemetrexed (Alimta)	Pemetrexed	Chemotherapy	NA	NA	3328	NA	NA
A452	line5 response-best	Stable disease (SD)	Stable disease	NA	NA	NA	3328	NA	NA
A452	line6 response-best	Progressive disease (PD)	Progressive disease	NA	NA	NA	3328	NA	NA
A453	line1 PD	NA	NA	NA	NA	NA	3594	2004-01-17	2004-01-17
A453	line2 drug1	Carboplatin	Carboplatin	Chemotherapy	NA	NA	3594	2004-02-11	2004-04-09
A453	line2 drug2	Pemetrexed (Alimta)	Pemetrexed	Chemotherapy	NA	NA	3594	2004-02-11	2004-04-09
A453	line2 PD	NA	NA	NA	NA	NA	3594	2004-04-27	2004-04-27
A453	line3 drug1	Carboplatin	Carboplatin	Chemotherapy	NA	NA	3594	2004-04-30	2004-08-27
A453	line3 drug2	Gemcitabine (Gemzar)	Gemcitabine	Chemotherapy	NA	NA	3594	2004-04-30	2004-08-27
A453	line4 PD	NA	NA	NA	NA	NA	3594	2004-11-20	2004-11-20
A453	line6 PD	NA	NA	NA	NA	NA	3594	2005-11-07	2005-11-07
A453	line1 response-best	Partial response (PR)	Partial response	NA	NA	NA	3594	NA	NA
A453	line2 response-best	Progressive disease (PD)	Progressive disease	NA	NA	NA	3594	NA	NA
A453	line3 response-best	Stable disease (SD)	Stable disease	NA	NA	NA	3594	NA	NA
A453	line4 response-best	Progressive disease (PD)	Progressive disease	NA	NA	NA	3594	NA	NA
A453	line5 response-best	Not Done (ND)	Not Done	NA	NA	NA	3594	NA	NA
A453	line6 response-best	Progressive disease (PD)	Progressive disease	NA	NA	NA	3594	NA	NA
A455	line1 PD	NA	NA	NA	NA	NA	3382	2004-12-01	2004-12-01
A455	line1 response-best	Partial response (PR)	Partial response	NA	NA	NA	3382	NA	NA
A456	line1 PD	NA	NA	NA	NA	NA	3383	2005-05-31	2005-05-31
A456	line2 drug1	Carboplatin	Carboplatin	Chemotherapy	NA	NA	3383	2005-06-18	2005-10-03
A456	line2 drug2	Pemetrexed (Alimta)	Pemetrexed	Chemotherapy	NA	NA	3383	2005-06-18	2006-04-01
A456	line2 PD	NA	NA	NA	NA	NA	3383	2006-04-18	2006-04-18
A456	line3 drug2	"Buparlisib (BKM120, PI3K)"	Buparlisib	Others	PI3K	NA	3383	2006-05-10	2006-09-30
A456	line3 PD	NA	NA	NA	NA	NA	3383	2006-09-24	2006-09-24
A456	line4 drug1	Docetaxel (Taxotere)	Docetaxel	Chemotherapy	NA	NA	3383	2006-11-21	2007-01-01
A456	line4 PD	NA	NA	NA	NA	NA	3383	2007-01-08	2007-01-08
A456	line5 drug1	Nivolumab (BMS-936558)(PD-1)	Nivolumab	Others	Immune_PD1	NA	3383	2007-01-16	2007-01-16
A456	line5 PD	NA	NA	NA	NA	NA	3383	2007-02-27	2007-02-27
A456	line1 response-best	Progressive disease (PD)	Progressive disease	NA	NA	NA	3383	NA	NA
A456	line2 response-best	Partial response (PR)	Partial response	NA	NA	NA	3383	NA	NA
A456	line3 response-best	Stable disease (SD)	Stable disease	NA	NA	NA	3383	NA	NA
A456	line4 response-best	Progressive disease (PD)	Progressive disease	NA	NA	NA	3383	NA	NA
A456	line5 response-best	Progressive disease (PD)	Progressive disease	NA	NA	NA	3383	NA	NA
A457	line1 PD	NA	NA	NA	NA	NA	3387	2005-06-09	2005-06-09
A457	line2 PD	NA	NA	NA	NA	NA	3387	2006-05-04	2006-05-04
A457	line3 drug1	Cisplatin	Cisplatin	Chemotherapy	NA	NA	3387	2006-08-29	2006-08-29
A457	line3 drug2	Pemetrexed (Alimta)	Pemetrexed	Chemotherapy	NA	NA	3387	2006-08-29	2006-08-29
A457	line3 PD	NA	NA	NA	NA	NA	3387	2006-11-26	2006-11-26
A457	line1 response-best	Partial response (PR)	Partial response	NA	NA	NA	3387	NA	NA
A457	line2 response-best	Partial response (PR)	Partial response	NA	NA	NA	3387	NA	NA
A457	line3 response-best	Not Done (ND)	Not Done	NA	NA	NA	3387	NA	NA
A458	line1 PD	NA	NA	NA	NA	NA	3390	2005-08-16	2005-08-16
A458	line2 PD	NA	NA	NA	NA	NA	3390	2006-06-04	2006-06-04
A458	line1 response-best	Partial response (PR)	Partial response	NA	NA	NA	3390	NA	NA
A458	line2 response-best	Stable disease (SD)	Stable disease	NA	NA	NA	3390	NA	NA
A459	line1 drug1	Carboplatin	Carboplatin	Chemotherapy	NA	NA	3396	2003-03-23	2003-08-31
A459	line1 PD	NA	NA	NA	NA	NA	3396	2004-12-05	2004-12-05
A459	line2 drug1	Pemetrexed (Alimta)	Pemetrexed	Chemotherapy	NA	NA	3396	2004-12-19	2005-02-21
A459	line2 PD	NA	NA	NA	NA	NA	3396	2005-03-08	2005-03-08
A459	line3 drug1	Pemetrexed (Alimta)	Pemetrexed	Chemotherapy	NA	NA	3396	2005-04-26	2005-10-03
A459	line3 PD	NA	NA	NA	NA	NA	3396	2005-10-17	2005-10-17
A459	line4 PD	NA	NA	NA	NA	NA	3396	2005-12-28	2005-12-28
A459	line1 drug2	Gemcitabine (Gemzar)	Gemcitabine	Chemotherapy	NA	NA	3396	NA	NA
A459	line1 response-best	Partial response (PR)	Partial response	NA	NA	NA	3396	NA	NA
A459	line2 response-best	Progressive disease (PD)	Progressive disease	NA	NA	NA	3396	NA	NA
A459	line3 response-best	Partial response (PR)	Partial response	NA	NA	NA	3396	NA	NA
A459	line4 response-best	Stable disease (SD)	Stable disease	NA	NA	NA	3396	NA	NA
A463	line1 PD	NA	NA	NA	NA	NA	3415	2003-11-26	2003-11-26
A463	line2 drug1	Carboplatin	Carboplatin	Chemotherapy	NA	NA	3415	2003-12-10	2004-04-07
A463	line2 drug2	Pemetrexed (Alimta)	Pemetrexed	Chemotherapy	NA	NA	3415	2003-12-10	2004-04-07
A463	line3 drug1	Carboplatin	Carboplatin	Chemotherapy	NA	NA	3415	2004-12-02	2005-02-03
A463	line3 drug2	Gemcitabine (Gemzar)	Gemcitabine	Chemotherapy	NA	NA	3415	2004-12-02	2005-02-03
A463	line3 PD	NA	NA	NA	NA	NA	3415	2005-05-20	2005-05-20
A463	line4 drug1	Docetaxel (Taxotere)	Docetaxel	Chemotherapy	NA	NA	3415	2005-06-30	2005-10-20
A463	line4 PD	NA	NA	NA	NA	NA	3415	2005-11-11	2005-11-11
A463	line1 response-best	Partial response (PR)	Partial response	NA	NA	NA	3415	NA	NA
A463	line2 response-best	Partial response (PR)	Partial response	NA	NA	NA	3415	NA	NA
A463	line3 response-best	Stable disease (SD)	Stable disease	NA	NA	NA	3415	NA	NA
A463	line4 response-best	Progressive disease (PD)	Progressive disease	NA	NA	NA	3415	NA	NA
A464	line1 PD	NA	NA	NA	NA	NA	3418	2005-04-13	2005-04-13
A464	line2 drug1	Carboplatin	Carboplatin	Chemotherapy	NA	NA	3418	2005-05-18	2005-05-18
A464	line2 drug2	Pemetrexed (Alimta)	Pemetrexed	Chemotherapy	NA	NA	3418	2005-05-18	2005-07-16
A464	line2 PD	NA	NA	NA	NA	NA	3418	2005-08-10	2005-08-10
A464	line3 PD	NA	NA	NA	NA	NA	3418	2006-06-03	2006-06-03
A464	line4 PD	NA	NA	NA	NA	NA	3418	2007-08-07	2007-08-07
A464	line5 drug1	Pemetrexed (Alimta)	Pemetrexed	Chemotherapy	NA	NA	3418	2007-09-30	2007-09-30
A464	line5 PD	NA	NA	NA	NA	NA	3418	2007-10-31	2007-10-31
A464	line1 response-best	Partial response (PR)	Partial response	NA	NA	NA	3418	NA	NA
A464	line2 response-best	Stable disease (SD)	Stable disease	NA	NA	NA	3418	NA	NA
A464	line3 response-best	Partial response (PR)	Partial response	NA	NA	NA	3418	NA	NA
A464	line4 response-best	Progressive disease (PD)	Progressive disease	NA	NA	NA	3418	NA	NA
A464	line5 response-best	Not evaluable (NE)	Not evaluable	NA	NA	NA	3418	NA	NA
A465	line1 PD	NA	NA	NA	NA	NA	3424	2004-11-10	2004-11-10
A465	line2 drug1	Cisplatin	Cisplatin	Chemotherapy	NA	NA	3424	2004-11-22	2005-03-15
A465	line2 drug2	Gemcitabine (Gemzar)	Gemcitabine	Chemotherapy	NA	NA	3424	2004-11-22	2005-03-15
A465	line2 PD	NA	NA	NA	NA	NA	3424	2005-03-20	2005-03-20
A465	line3 drug1	Cisplatin	Cisplatin	Chemotherapy	NA	NA	3424	2005-03-29	2005-04-06
A465	line3 drug2	Gemcitabine (Gemzar)	Gemcitabine	Chemotherapy	NA	NA	3424	2005-03-29	2005-04-06
A465	line3 PD	NA	NA	NA	NA	NA	3424	2005-06-29	2005-06-29
A465	line4 drug2	BI 836845 (IGF-1)	BI 836845	Others	IGF1	NA	3424	2005-07-05	2005-08-02
A465	line4 PD	NA	NA	NA	NA	NA	3424	2005-07-31	2005-07-31
A465	line7 PD	NA	NA	NA	NA	NA	3424	2005-11-09	2005-11-09
A465	line8 drug1	Bevacizumab (Avastin)	Bevacizumab	Others	NA	NA	3424	2005-11-10	2005-11-10
A465	line8 PD	NA	NA	NA	NA	NA	3424	2005-12-25	2005-12-25
A465	line1 response-best	Progressive disease (PD)	Progressive disease	NA	NA	NA	3424	NA	NA
A465	line2 response-best	Progressive disease (PD)	Progressive disease	NA	NA	NA	3424	NA	NA
A465	line3 response-best	Progressive disease (PD)	Progressive disease	NA	NA	NA	3424	NA	NA
A465	line4 response-best	Progressive disease (PD)	Progressive disease	NA	NA	NA	3424	NA	NA
A465	line5 response-best	Not Done (ND)	Not Done	NA	NA	NA	3424	NA	NA
A465	line6 drug2	Bevacizumab (Avastin)	Bevacizumab	Others	NA	NA	3424	NA	NA
A465	line6 response-best	Stable disease (SD)	Stable disease	NA	NA	NA	3424	NA	NA
A465	line7 response-best	Progressive disease (PD)	Progressive disease	NA	NA	NA	3424	NA	NA
A465	line8 response-best	Progressive disease (PD)	Progressive disease	NA	NA	NA	3424	NA	NA
A466	line1 PD	NA	NA	NA	NA	NA	3437	2004-11-09	2004-11-09
A466	line2 drug1	Cisplatin	Cisplatin	Chemotherapy	NA	NA	3437	2004-11-15	2004-11-15
A466	line2 drug2	Pemetrexed (Alimta)	Pemetrexed	Chemotherapy	NA	NA	3437	2004-11-15	2005-04-19
A466	line2 PD	NA	NA	NA	NA	NA	3437	2005-05-06	2005-05-06
A466	line1 response-best	Progressive disease (PD)	Progressive disease	NA	NA	NA	3437	NA	NA
A466	line2 response-best	Progressive disease (PD)	Progressive disease	NA	NA	NA	3437	NA	NA
A468	line1 PD	NA	NA	NA	NA	NA	3529	2005-03-07	2005-03-07
A468	line1 response-best	Partial response (PR)	Partial response	NA	NA	NA	3529	NA	NA
A468	line2 response-best	Stable disease (SD)	Stable disease	NA	NA	NA	3529	NA	NA
A468	line3 response-best	Partial response (PR)	Partial response	NA	NA	NA	3529	NA	NA
A469	line1 PD	NA	NA	NA	NA	NA	3452	2004-04-25	2004-04-25
A469	line2 drug1	Vinorelbine (Navelbine) oral	Vinorelbine	Chemotherapy	NA	NA	3452	2004-05-23	2004-06-06
A469	line2 PD	NA	NA	NA	NA	NA	3452	2004-06-11	2004-06-11
A469	line3 drug1	Carboplatin	Carboplatin	Chemotherapy	NA	NA	3452	2004-07-14	2004-12-28
A469	line3 drug2	Gemcitabine (Gemzar)	Gemcitabine	Chemotherapy	NA	NA	3452	2004-07-14	2004-12-28
A469	line3 PD	NA	NA	NA	NA	NA	3452	2005-05-24	2005-05-24
A469	line4 drug1	Pemetrexed (Alimta)	Pemetrexed	Chemotherapy	NA	NA	3452	2005-07-05	2005-07-05
A469	line1 response-best	Partial response (PR)	Partial response	NA	NA	NA	3452	NA	NA
A469	line2 response-best	Progressive disease (PD)	Progressive disease	NA	NA	NA	3452	NA	NA
A469	line3 response-best	Stable disease (SD)	Stable disease	NA	NA	NA	3452	NA	NA
A469	line4 response-best	Not Done (ND)	Not Done	NA	NA	NA	3452	NA	NA
A471	line1 PD	NA	NA	NA	NA	NA	3468	2003-03-25	2003-03-25
A471	line2 drug1	Carboplatin	Carboplatin	Chemotherapy	NA	NA	3468	2003-03-31	2003-04-27
A471	line2 drug2	Pemetrexed (Alimta)	Pemetrexed	Chemotherapy	NA	NA	3468	2003-03-31	2003-04-27
A471	line3 drug1	Carboplatin	Carboplatin	Chemotherapy	NA	NA	3468	2003-05-16	2003-10-02
A471	line3 drug2	Pemetrexed (Alimta)	Pemetrexed	Chemotherapy	NA	NA	3468	2003-05-16	2005-01-15
A471	line3 PD	NA	NA	NA	NA	NA	3468	2005-01-12	2005-01-12
A471	line4 PD	NA	NA	NA	NA	NA	3468	2005-08-11	2005-08-11
A471	line1 response-best	Partial response (PR)	Partial response	NA	NA	NA	3468	NA	NA
A471	line2 response-best	Not Done (ND)	Not Done	NA	NA	NA	3468	NA	NA
A471	line3 response-best	Partial response (PR)	Partial response	NA	NA	NA	3468	NA	NA
A471	line4 response-best	Progressive disease (PD)	Progressive disease	NA	NA	NA	3468	NA	NA
A472	line1 PD	NA	NA	NA	NA	NA	3475	2004-02-09	2004-02-09
A472	line2 PD	NA	NA	NA	NA	NA	3475	2005-08-01	2005-08-01
A472	line3 drug1	Carboplatin	Carboplatin	Chemotherapy	NA	NA	3475	2005-09-10	2005-09-30
A472	line3 drug2	Pemetrexed (Alimta)	Pemetrexed	Chemotherapy	NA	NA	3475	2005-09-10	2005-09-30
A472	line3 PD	NA	NA	NA	NA	NA	3475	2005-11-06	2005-11-06
A472	line4 drug2	Capmabtinib (INC280) (MET)	Capmabtinib	Others	MET	NA	3475	2005-11-13	2006-04-21
A472	line4 PD	NA	NA	NA	NA	NA	3475	2006-04-28	2006-04-28
A472	line5 PD	NA	NA	NA	NA	NA	3475	2006-09-11	2006-09-11
A472	line1 response-best	Partial response (PR)	Partial response	NA	NA	NA	3475	NA	NA
A472	line2 response-best	Progressive disease (PD)	Progressive disease	NA	NA	NA	3475	NA	NA
A472	line3 response-best	Progressive disease (PD)	Progressive disease	NA	NA	NA	3475	NA	NA
A472	line4 response-best	Partial response (PR)	Partial response	NA	NA	NA	3475	NA	NA
A472	line5 response-best	Progressive disease (PD)	Progressive disease	NA	NA	NA	3475	NA	NA
A475	line1 PD	NA	NA	NA	NA	NA	3508	2005-06-06	2005-06-06
A475	line2 PD	NA	NA	NA	NA	NA	3508	2008-12-12	2008-12-12
A475	line1 response-best	Partial response (PR)	Partial response	NA	NA	NA	3508	NA	NA
A475	line2 response-best	Partial response (PR)	Partial response	NA	NA	NA	3508	NA	NA
A475	line3 response-best	Progressive disease (PD)	Progressive disease	NA	NA	NA	3508	NA	NA
A477	line1 PD	NA	NA	NA	NA	NA	3515	2004-10-12	2004-10-12
A477	line2 PD	NA	NA	NA	NA	NA	3515	2006-05-19	2006-05-19
A477	line3 drug1	Cisplatin	Cisplatin	Chemotherapy	NA	NA	3515	2007-05-24	2007-09-20
A477	line3 drug2	Pemetrexed (Alimta)	Pemetrexed	Chemotherapy	NA	NA	3515	2007-05-24	2008-01-29
A477	line3 PD	NA	NA	NA	NA	NA	3515	2008-02-12	2008-02-12
A477	line4 drug1	Nivolumab (BMS-936558)(PD-1)	Nivolumab	Others	Immune_PD1	NA	3515	2008-03-11	2008-05-20
A477	line4 drug2	"Ipilimumab (MDX-010, MDX-101, Yervoy) (CTLA-4)"	Ipilimumab	Others	Immune_CTLA4	NA	3515	2008-03-11	2008-04-22
A477	line4 PD	NA	NA	NA	NA	NA	3515	2008-04-15	2008-04-15
A477	line5 PD	NA	NA	NA	NA	NA	3515	2008-08-08	2008-08-08
A477	line1 response-best	Partial response (PR)	Partial response	NA	NA	NA	3515	NA	NA
A477	line2 response-best	Partial response (PR)	Partial response	NA	NA	NA	3515	NA	NA
A477	line3 response-best	Partial response (PR)	Partial response	NA	NA	NA	3515	NA	NA
A477	line4 response-best	Progressive disease (PD)	Progressive disease	NA	NA	NA	3515	NA	NA
A477	line5 response-best	Progressive disease (PD)	Progressive disease	NA	NA	NA	3515	NA	NA
A478	line1 PD	NA	NA	NA	NA	NA	3516	2005-06-08	2005-06-08
A478	line2 drug2	Capmabtinib (INC280) (MET)	Capmabtinib	Others	MET	NA	3516	2005-09-03	2006-10-07
A478	line2 PD	NA	NA	NA	NA	NA	3516	2006-09-27	2006-09-27
A478	line3 drug1	Cisplatin	Cisplatin	Chemotherapy	NA	NA	3516	2006-10-31	2006-10-31
A478	line3 drug2	Pemetrexed (Alimta)	Pemetrexed	Chemotherapy	NA	NA	3516	2006-10-31	2006-11-25
A478	line3 PD	NA	NA	NA	NA	NA	3516	2006-12-09	2006-12-09
A478	line4 drug1	Docetaxel (Taxotere)	Docetaxel	Chemotherapy	NA	NA	3516	2006-12-16	2007-02-24
A478	line4 drug2	Bevacizumab (Avastin)	Bevacizumab	Others	NA	NA	3516	2006-12-16	2007-01-13
A478	line4 PD	NA	NA	NA	NA	NA	3516	2007-03-13	2007-03-13
A478	line1 response-best	Partial response (PR)	Partial response	NA	NA	NA	3516	NA	NA
A478	line2 response-best	Partial response (PR)	Partial response	NA	NA	NA	3516	NA	NA
A478	line3 response-best	Progressive disease (PD)	Progressive disease	NA	NA	NA	3516	NA	NA
A478	line4 response-best	Progressive disease (PD)	Progressive disease	NA	NA	NA	3516	NA	NA